  VM1 VM2
 0 0 0
 10 0 0
 20 0 0
 30 0 0
 40 0 0
 50 0 0
 60 0 0
 70 8,08 4,5
 80 25,27 35,79
 90 25,46 36,74
 100 25 40,14
 110 25,33 42,35
 120 26,04 44
 130 27 44,58
 140 29,39 44,16
 150 33 44,88
 160 33,96 49,63
 170 35,05 52,32
 180 78,23 77,44
 190 84,67 87,42
 200 84,46 94,44
 210 85,78 98,68
 220 88,04 94,3
 230 88,65 86,77
 240 87,61 86,96
 250 85,74 85,9
 260 84,45 83,07
 270 84,72 84,37
 280 84,77 84,27
 290 84,47 84,36
 300 85,01 84,62
 310 85,3 84
 320 85,62 84,18
 330 84,79 84,09
 340 83,85 84,54
 350 84,44 84,47
 360 87,8 84,38
 370 94,61 83,67
 380 101,33 83,14
 390 107,26 84,96
 400 109,83 84,72
 410 112,82 85,04
 420 113 87,34
 430 114,22 89,41
 440 114,13 90
 450 113,54 90,74
 460 114,28 91
 470 114 94,19
 480 114 99,86
 490 114,09 108,07
 500 114,17 110,36
 510 114,11 110,66
 520 114 113,87
 530 114,44 118,05
 540 115 121,79
 550 117,71 121,35
 560 119,22 120,42
 570 118,12 123,85
 580 116,87 127,64
 590 116,09 131,28
 600 116,75 134,21
 610 117 136,68
 620 116,72 138,37
 630 116,82 123,8
 640 110,04 85,89
 650 115,02 87
 660 115,82 86,02
 670 115,59 86
 680 115,28 86
 690 115,84 86
 700 115,55 86
 710 115,54 86
 720 114,42 90,33
 730 115,79 92
 740 115 92
 750 115 91,44
 760 115,81 91,92
 770 116 92,55
 780 116 92
 790 116 92
 800 115,52 92
 810 80,79 90,38
 820 87 79,76
 830 87 77
 840 87 77
 850 87 77
 860 87 78,74
 870 85,43 79
 880 83 79
