 0 0,2 0,0004 0,0055 26,0552 11,7373 17278 48076
 10 0,25 0 0,0047 26,0552 11,7373 17278 48076
 20 0,34 0,0002 0,0059 26,0552 11,7373 17278 48076
 30 0,41 0,0005 0,007900000000000001 26,0552 11,7373 17278 48076
 40 0,23 0,0005 0,0056 26,0552 11,7373 17278 48076
 50 0,37 0 0,008500000000000001 26,0552 11,7373 17278 48076
 60 0,46 0,0007 0,008200000000000001 26,0552 11,7373 17278 48076
 70 0,19 0 0,0041 26,0552 11,7373 17278 48076
 80 0,34 0 0,0069 26,0552 11,7373 17278 48076
 90 0,76 0 0,0094 26,0552 11,7373 17278 48076
 100 0,2 0 0,0051 26,0552 11,7373 17278 48076
 110 0,28 0 0,0062 26,0552 11,7373 17278 48076
 120 0,19 0,0001 0,0056 26,0552 11,7373 17278 48076
 130 0,24 0 0,0071 26,0552 11,7373 17278 48076
 140 0,42 0 0,006 26,0552 11,7373 17278 48076
 150 0,3 0,0003 0,0058 26,0552 11,7373 17278 48076
 160 0,25 0 0,006 26,0552 11,7373 17278 48076
 170 0,28 0 0,0062 26,0552 11,7373 17278 48076
 180 0,14 0,0003 0,004 26,0552 11,7373 17278 48076
 190 0,31 0 0,0069 26,0552 11,7373 17278 48076
 200 0,24 0,0001 0,0057 26,0552 11,7373 17278 48076
 210 1,73 0,0083 0,039 26,0552 11,7373 17278 48076
 220 2,72 0,0347 0,08939999999999999 26,0552 11,7373 17278 48076
 230 2,47 0,0299 0,0784 26,0552 11,7373 17278 48076
 240 2,87 0,0123 0,0868 26,0552 11,7373 17278 48076
 250 2,74 0,009599999999999999 0,09719999999999999 26,0552 11,7373 17278 48076
 260 2,13 0,012 0,0709 26,0552 11,7373 17278 48076
 270 3,54 0,0062 0,0949 26,0552 11,7373 17278 48076
 280 2,19 0,0073 0,06660000000000001 26,0552 11,7373 17278 48076
 290 1,92 0,0036 0,07190000000000001 26,0552 11,7373 17278 48076
 300 2,68 0,0198 0,0934 26,0552 11,7373 17278 48076
 310 2,35 0,0068 0,07290000000000001 26,0552 11,7373 17278 48076
 320 2,12 0,0017 0,0617 26,0552 11,7373 17278 48076
 330 2,42 0,0077 0,0823 26,0552 11,7373 17278 48076
 340 2,44 0,0053 0,08069999999999999 26,0552 11,7373 17278 48076
 350 2,19 0,0016 0,07530000000000001 26,0552 11,7373 17278 48076
 360 2,4 0,0058 0,06850000000000001 26,0552 11,7373 17278 48076
 370 3,39 0,0287 0,0973 26,0552 11,7373 17278 48076
 380 2,44 0,0077 0,0789 26,0552 11,7373 17278 48076
 390 2,01 0,0022 0,0781 26,0552 11,7373 17278 48076
 400 3,09 0,0021 0,0964 26,0552 11,7373 17278 48076
 410 2,63 0,0001 0,0818 26,0552 11,7373 17278 48076
 420 2,24 0,0012 0,0813 26,0552 11,7373 17278 48076
 430 2,29 0,008399999999999999 0,0733 26,0552 11,7373 17278 48076
 440 2,51 0,0125 0,08210000000000001 26,0552 11,7373 17278 48076
 450 2,21 0,0011 0,0619 26,0552 11,7373 17278 48076
 460 2,35 0,0019 0,0716 26,0552 11,7373 17278 48076
 470 1,65 0,0017 0,0606 26,0552 11,7373 17278 48076
 480 2,69 0,0056 0,0665 26,0552 11,7373 17278 48076
 490 2,44 0,0025 0,0684 26,0552 11,7373 17278 48076
 500 1,48 0,0013 0,051 26,0552 11,7373 17278 48076
 510 1,64 0,0019 0,0516 26,0552 11,7373 17278 48076
 520 2,26 0,001 0,0621 26,0552 11,7373 17278 48076
 530 1,37 0,0011 0,05 26,0552 11,7373 17278 48076
 540 2,86 0,0012 0,0708 26,0552 11,7373 17278 48076
 550 1,66 0,0002 0,0434 26,0552 11,7373 17278 48076
 560 1,4 0,0032 0,0485 26,0552 11,7373 17278 48076
 570 2,15 0,0033 0,053 26,0552 11,7373 17278 48076
 580 1,87 0,0234 0,049 26,0552 11,7373 17278 48076
 590 2,09 0,0471 0,0655 26,0552 11,7373 17278 48076
 600 2,57 0,0389 0,0625 26,0552 11,7373 17278 48076
 610 1,48 0,0273 0,0486 26,0552 11,7373 17278 48076
 620 0,44 0,0002 0,007 26,0552 11,7373 17278 48076
 630 0,35 0 0,0068 26,0552 11,7373 17278 48076
 640 0,24 0,0001 0,005 26,0552 11,7373 17278 48076


