dynamic 0 0 0,003 0,003 6,9574 0,1243 0 2,5695 35179,77 74519,28 0 12060,07 243287,6
 10 0 0,0003 0,0003 0,3678 0,0077 0 0 3770,606 0 0 12064,94 243313,2
 20 0 0,0024 0,0024 3,2016 0,0692 0 0,2746 24301,37 984,0213 0 12071,05 243336
 30 0 0,006 0,0061 8,2265 0,2709 0 0,364 66283,63 10454,5 0 12080,36 243399,6
 40 0 0,0015 0,0015 4,0278 0,0527 0 0,5471 19579,98 17928,11 0 12087,16 243452,2
 50 0 0,003 0,003 4,5703 0,0875 0 0,0913 30693,75 5238,331 0 12095,65 243490,9
 60 0 0,0026 0,0026 4,473 0,0919 0 0 36678,13 0 0 12104,75 243537,8
 70 0 0,0011 0,0011 2,5593 0,0297 0 1,9187 5240,764 37471 0 12109,2 243572,2
 80 0 0,0024 0,0024 4,3888 0,0977 0 0,0912 23232,8 373,6136 0 12113,57 243601,3
 90 0 0,002 0,002 3,474 0,0894 0 0 23230,37 0 0 12120,52 243641
 100 0 0,0012 0,0012 2,1059 0,0292 0 0 13900,53 0 0 12125,93 243675,3
 110 0 0,0026 0,0026 5,1226 0,1063 0 0,3579 32641,87 4370,082 0 12133 243718
 120 0 0,0021 0,0021 4,4828 0,0858 0 0,4583 28857,68 14990,91 0 12142,36 243759,7
 130 0 0,0012 0,0012 2,4679 0,0349 0 0,5481 14987,87 17961,63 0 12149,07 243794,6
 140 0 0,0025 0,0025 5,3013 0,1146 0 0,7293 28469,37 20524,14 0 12157,8 243840,2
 150 0 0,0019 0,0021 4,0198 0,0937 0 0,1831 23579,62 11627,8 0 12161,26 243867,6
 160 0 0,0019 0,0019 2,7437 0,0473 0 0 22827,67 0 0 12166,78 243901,1
 170 0 0,0021 0,0021 7,5806 0,0963 0 0 42285,43 0 0 12175,93 243984,5
 180 0 0,0013 0,0013 3,2895 0,0614 0 0 22488,87 0 0 12181,13 244019,8
 190 0 0,0016 0,0016 3,9336 0,05 0 0,9133 22861,76 22414,76 0 12188,11 244054,5
 200 0 0,002 0,002 4,0265 0,0891 0 0,0914 23234,72 374,2758 0 12196,43 244105,4
 210 0 0,0015 0,0015 3,4775 0,0656 0 0 19888,7 0 0 12203,36 244139,6
 220 0 0,0022 0,0022 16,4774 0,1301 0 14,1911 19136,02 242964,2 0 12208,92 244169,9
 230 0 0,0093 0,0093 243,9556 1,6242 0 240,0333 23600,46 3857837 0 12215,63 244213,4
 240 0 0,0116 0,0116 278,8615 2,3084 0 268,3178 304543,3 1354910 0 12221,5 244285,4
 250 0 0,0098 0,0098 269,9146 1,99 0 266,1772 53866,25 1263921 0 12229,5 244368,4
 260 0 0,012 0,012 246,6974 1,9885 0 242,387 27403,18 3334463 0 12236,03 244412,1
 270 0 0,0077 0,0077 144,0845 0,9128 0 137,0576 37755,25 1968798 0 12241,72 244454,8
 280 0 0,0028 0,0028 3,6536 0,0616 0 0,7317 44551,7 17987,71 0 12248,84 244517,5
 290 0 0,002 0,002 4,5841 0,0797 0 0 31625,23 0 0 12256,17 244569,3
 300 0 0,0028 0,0028 5,2076 0,1148 0 0,547 27699,58 17178,61 0 12261,87 244603
 310 0 0,0006 0,0006 0,8201 0,01 0 0 8992,144 0 0 12268,1 244643,3
 320 0 0,0014 0,0014 3,378 0,0638 0 0,0919 22058,96 6024,849 0 12271,8 244670,7
 330 0 0,0025 0,0025 5,5845 0,0877 0 0,82 30863,94 24231,65 0 12279 244706,9
 340 0 0,0012 0,0012 1,0953 0,0167 0 0 8600,423 0 0 12284,66 244740,7
 350 0 0,0019 0,0019 3,3761 0,066 0 0,1822 19078,1 3358,981 0 12291,22 244769,7
 360 0 0,0027 0,0027 5,2147 0,0955 0 0,0904 32543,75 2959,152 0 12299,95 244812,9
 370 0 0,0008 0,0008 1,92 0,0246 0 0 12380,62 0 0 12306,77 244856,1
 380 0 0,0017 0,0017 3,4775 0,0627 0 0,2747 19156,01 12009,29 0 12310,16 244875,7
 390 0 0,0026 0,0026 5,6762 0,1046 0 0,5512 36313,38 17310,23 0 12318,74 244917,3
 400 0 0,0014 0,0014 2,2823 0,0395 0 0,3638 13077,67 15286,24 0 12325,54 244956,2
 410 0 0,0016 0,0016 3,2945 0,053 0 0 23626,9 0 0 12331,7 244990
 420 0 0,002 0,002 4,1149 0,0743 0 0,2741 22839,79 2245,22 0 12338,37 245023,3
 430 0 0,0008 0,0008 1,7365 0,0285 0 0 10490,67 0 0 12344,33 245059,7
 440 0 0,0031 0,0031 5,7602 0,105 0 0,8185 32667,44 20430,54 0 12351,41 245098,6
 450 0 0,0012 0,0012 2,2836 0,0472 0 0 15337,44 0 0 12356,91 245128,6
 460 0 0,0012 0,0012 2,1939 0,0305 0 0 17622,91 0 0 12361,55 245164,2
 470 0 0,0028 0,0028 5,0312 0,0995 0 0 30857,81 0 0 12368,82 245208
 480 0 0,0013 0,0013 3,7452 0,062 0 0,1832 22415,37 6002,066 0 12375,25 245245,2
 490 0 0,0012 0,0012 2,1907 0,0341 0 0,1828 12729,97 8609,492 0 12378,69 245269,8
 500 0 0,005 0,005 58,4003 0,2645 0 44,1409 958475,9 259809,9 0 12389,67 245353,6
 510 0 0,0012 0,0012 3,2945 0,0606 0 0,3653 16892,51 11971,22 0 12397,61 245449,1
 520 0 0,0016 0,0016 4,1151 0,0565 0 0,8216 20240,78 46736,6 0 12404,76 245486,6
 530 0 0,0013 0,0013 2,8317 0,0565 0 0,1823 19474,56 5601,118 0 12411,72 245527,4
