 0 0 0,0206 0,0206 206,2056 3,9325 2,6523 203,5519 16494,13 3967146 0 435,23 7599,82
 10 0 0,0137 0,0136 191,4686 2,2669 3,7415 187,7328 35138,66 4850741 0 437,6 7628,76
 20 0 0,0107 0,0107 177,8929 1,1085 0,8205 177,0621 3736,759 5121291 0 440,68 7655,85
 30 0 0,011 0,011 198,0968 1,0587 4,1976 193,9295 26931,77 4357938 0 445,71 7678,71
 40 0 0,0038 0,0038 46,2536 0,3826 3,1987 43,0507 23223,02 737219,4 0 456,13 7720,91
 50 0 0,0055 0,0055 51,0772 0,348 1,0055 50,0633 5991,076 912640,4 0 458,37 7745,67
 60 0 0,0179 0,0177 86,254 2,0267 8,5959 77,67789999999999 65625,31 1319617 0 465,63 7803,64
 70 0 0,0032 0,0032 6,5837 0,1503 6,1282 0,456 33360,57 7481,279 0 476,11 7873,85
 80 0 0,001 0,001 2,4657 0,0325 2,1013 0,3636 12722,56 3706,088 0 482,43 7917,89
 90 0 0,0032 0,0032 10,706 0,1648 5,8511 4,8546 27714,23 145887,2 0 490,2 7967,46
 100 0 0,0017 0,0017 3,664 0,0653 3,3874 0,275 20243,44 8992,861999999999 0 497,36 8012,99
 110 0 0,0023 0,0023 2,8336 0,0512 2,3771 0,4572 19501 4116,237 0 503,99 8050,42
 120 0 0,0019 0,002 4,2079 0,08260000000000001 4,2075 0 24376,31 0 0 510,41 8092,19
 130 0 0,0033 0,0033 3,5736 0,113 3,5735 0 16898,84 0 0 515,8200000000001 8125,12
 140 0 0,0015 0,0015 4,6681 0,0499 1,8306 2,8347 11992,04 41795,68 0 522,15 8161,06
 150 0 0,0018 0,0018 5,2153 0,1007 4,941 0,2744 26261,01 8235,531999999999 0 530,55 8208,709999999999
 160 0 0,0014 0,0014 3,5633 0,0728 3,5637 0 17978,38 0 0 536,78 8244,190000000001
 170 0 0,0021 0,0021 5,7481 0,0675 4,0209 1,7312 23229,07 33213,4 0 541,97 8280,459999999999
 180 0 0,0036 0,0036 5,5945 0,1181 4,6774 0,9188 26284,16 21462,69 0 552,03 8335,99
 190 0 0,0012 0,0012 2,1932 0,0432 2,1931 0 11235,74 0 0 557,39 8363,84
 200 0 0,003 0,003 12,0815 0,1039 3,1057 8,979200000000001 18337,2 341676,4 0 561,99 8390,07
 210 0 0,0019 0,0019 4,2061 0,0834 3,8407 0,3656 18728,37 11981,97 0 570,04 8439,110000000001
 220 0 0,0026 0,0026 8,933400000000001 0,1086 3,8272 5,1065 20936,49 122028 0 576 8472,889999999999
 230 0 0,0131 0,013 212,5451 2,0062 3,7484 208,8356 20590,72 4419301 0 584,9 8521,309999999999
 240 0 0,0145 0,0145 207,084 2,0346 4,4734 202,6081 25072,3 2133586 0 592,12 8573,559999999999
 250 0 0,008399999999999999 0,0083 324,7163 1,8132 3,3867 321,2961 17991,75 1371650 0 597,59 8605,799999999999
 260 0 0,009900000000000001 0,009900000000000001 291,588 1,7346 2,013 289,5303 12755,95 3370807 0 604,1900000000001 8639,92
 270 0 0,0102 0,0102 249,5048 1,6539 6,6733 242,7763 33237,24 1244016 0 610,09 8677,01
 280 0 0,0143 0,0143 103,8388 1,2299 4,9346 98,90049999999999 25826,23 25171480 0 618 8748,200000000001
 290 0 0,0167 0,0167 110,8172 1,4551 6,7644 104,149 36714,84 25086690 0 627,5700000000001 8803,35
 300 0 0,0188 0,0188 88,3194 1,4847 7,9553 80,2765 46083,32 18162280 0 636,76 8889,389999999999
 310 0 0,0149 0,0149 136,278 1,132 3,838 132,477 19075,57 29152010 0 645,02 8946,559999999999
 320 0 0,0131 0,0131 114,2276 0,9258999999999999 5,2224 109,0125 26649,51 27774170 0 655,5700000000001 9006,59
 330 0 0,0208 0,0208 91,3729 1,351 4,572 86,8173 21728,12 22614560 0 665,67 9058,85
 340 0 0,0114 0,0114 90,7058 0,7831 3,6604 87,0378 18379,23 22603100 0 673,83 9105,360000000001
 350 0 0,0137 0,0137 128,2603 1,0346 3,9372 124,289 18382,9 32440580 0 683,11 9150,959999999999
 360 0 0,012 0,012 101,5754 0,9702 3,5613 98,01900000000001 21957,99 24287250 0 691,28 9187,23
 370 0 0,021 0,021 92,06059999999999 1,4228 5,7578 86,304 32548,84 22580430 0 700,12 9240,98
 380 0 0,0103 0,0102 92,3419 0,8334 4,298 88,06140000000001 20229,91 22637950 0 710,3200000000001 9301,559999999999
 390 0 0,0112 0,0112 125,7738 1,0441 4,2938 121,4769 59084,34 31778960 0 717,8 9339,67
 400 0 0,0162 0,0162 100,3565 1,1654 6,0356 94,3186 34452,13 24684640 0 728,87 9396,07
 410 0 0,0134 0,0134 88,8754 0,9500999999999999 2,2859 86,5594 10486,49 22591710 0 737,52 9438,610000000001
 420 0 0,0128 0,0127 122,4165 1,021 5,7583 116,6536 28461,46 29335930 0 744,86 9480,27
 430 0 0,0108 0,0108 81,624 0,9976 2,6559 78,96810000000001 16505,27 16631270 0 754,92 9529,219999999999
 440 0 0,0016 0,0016 4,1216 0,0775 3,6627 0,4557 16884,52 11574,49 0 762,71 9571,92
 450 0 0,004 0,004 8,322800000000001 0,1308 5,2963 3,0282 32919,03 94332,77 0 770,03 9611,48


