 0 3,85 0,0178 0,0256 26,0537 9,3386 17277 38251
 10 3,39 0,0237 0,0334 26,0537 9,3386 17277 38251
 20 1,57 0,008699999999999999 0,0142 26,0537 9,3386 17277 38251
 30 0,37 0,0019 0,0065 26,0537 9,3386 17277 38251
 40 3,17 0,0191 0,0345 26,0537 9,3386 17277 38251
 50 4,29 0,0425 0,057 26,0537 9,3386 17277 38251
 60 3,32 0,0456 0,0473 26,0537 9,3386 17277 38251
 70 2,5 0,0188 0,0257 26,0537 9,3386 17277 38251
 80 1,84 0,0143 0,0195 26,0537 9,3386 17277 38251
 90 2,71 0,0258 0,0323 26,0537 9,3386 17277 38251
 100 3,7 0,0319 0,0428 26,0537 9,3386 17277 38251
 110 2,95 0,0137 0,0393 26,0537 9,3386 17277 38251
 120 12,91 0,0426 0,1267 26,0537 9,3386 17277 38251
 130 3,16 0,0226 0,0403 26,0537 9,3386 17277 38251
 140 2,25 0,0129 0,0302 26,0537 9,3386 17277 38251
 150 1,14 0,0062 0,0178 26,0537 9,3386 17277 38251
 160 1,82 0,0123 0,0253 26,0537 9,3386 17277 38251
 170 1,24 0,006 0,0182 26,0537 9,3386 17277 38251
 180 1,25 0,0063 0,0179 26,0537 9,3386 17277 38251
 190 1,46 0,0078 0,0202 26,0537 9,3386 17277 38251
 200 1,09 0,0027 0,0148 26,0537 9,3386 17277 38251
 210 1,71 0,0113 0,0235 26,0537 9,3386 17277 38251
 220 3,5 0,0215 0,0368 26,0537 9,3386 17277 38251
 230 2,51 0,0111 0,0147 26,0537 9,3386 17277 38251
 240 3,24 0,0168 0,0281 26,0537 9,3386 17277 38251
 250 2,59 0,0073 0,0149 26,0537 9,3386 17277 38251
 260 2,48 0,008800000000000001 0,0104 26,0537 9,3386 17277 38251
 270 4,49 0,0185 0,0384 26,0537 9,259 17277 37924,6
 280 2,69 0,0123 0,0163 26,0537 9,182399999999999 17277 37611
 290 2,25 0,0122 0,0153 26,0537 9,182399999999999 17277 37611
 300 2,78 0,0128 0,0216 26,0537 9,182399999999999 17277 37611
 310 2,61 0,0128 0,0181 26,0537 9,182399999999999 17277 37611
 320 1,99 0,0125 0,0139 26,0537 9,182399999999999 17277 37611
 330 3,51 0,0165 0,0301 26,0537 9,182399999999999 17277 37611
 340 2,49 0,0131 0,0176 26,0537 9,182399999999999 17277 37611
 350 2,23 0,0135 0,0193 26,0537 9,182399999999999 17277 37611
 360 1,86 0,0111 0,008500000000000001 26,0537 9,182399999999999 17277 37611
 370 1,95 0,0105 0,013 26,0537 9,182399999999999 17277 37611
 380 2,37 0,013 0,0191 26,0537 9,182399999999999 17277 37611
 390 1,97 0,0127 0,0121 26,0537 9,182399999999999 17277 37611
 400 1,62 0,0097 0,0106 26,0537 9,182399999999999 17277 37611
 410 1,88 0,0113 0,0118 26,0537 9,182399999999999 17277 37611
 420 0,25 0,0012 0,0044 26,0537 9,182399999999999 17277 37611
 430 0,46 0,0039 0,007900000000000001 26,0537 9,182399999999999 17277 37611
 440 0,39 0,0003 0,0058 26,0537 9,182399999999999 17277 37611
 450 0,21 0,0003 0,0053 26,0537 9,182399999999999 17277 37611


