   Latency          
 0 0 0,0096 0,0096 109,0183 0,9978 20,3927 88,6023 1305493 11430260 0 161,78 657,15
 10 0 0 0 0 0 0 0 0 0 0 0 657,15
 20 0 0,0037 0,0037 18,5406 0,1798 17,7174 0,8191 110012,5 20149,9 0 171,1 874,15
 30 0 0 0 0 0 0 0 0 0 0 0 874,15
 40 0 0,0038 0,0038 9,2284 0,1047 7,127 2,103 39674,3 162020 0 180,54 1010,79
 50 0 0 0 0 0 0 0 0 0 0 0 1010,79
 60 0 0,008 0,0079 44,7893 0,6003 8,3123 36,4725 148514 853695,9 0 188,8 1058,94
 70 0 0 0 0 0 0 0 0 0 0 0 1058,94
 80 0 0,0171 0,017 198,2331 3,7434 19,9364 178,3109 487567 7284336 0 241,67 1244
 90 0 0 0 0 0 0 0 0 0 0 0 1244
 100 0 0,0093 0,0093 126,6467 3,0577 4,573 122,1011 80839,31 4331610 0 272 1358,19
 110 0 0 0 0 0 0 0 0 0 0 0 1358,19
 120 0 0,0078 0,0078 113,46 1,4295 10,1433 103,3361 131299,8 1882260 0 287,05 1419,91
 130 0 0 0 0 0 0 0 0 0 0 0 1419,91
 140 0 0,0184 0,0183 234,5175 4,8346 14,162 220,3162 185197 7534702 0 312,69 1567,63
 150 0 0 0 0 0 0 0 0 0 0 0 1567,63
 160 0 0,0234 0,0233 245,0899 5,4566 45,7974 199,2987 411617,4 4503382 0 332,84 1935,71
 170 0 0 0 0 0 0 0 0 0 0 0 1935,71
 180 0 0,0263 0,0263 223,2572 6,8285 46,4438 176,813 307548,8 6482515 0 351,66 2422,49
 190 0 0 0 0 0 0 0 0 0 0 0 2422,49
 200 0 0,0149 0,0148 132,0334 1,7197 30,45 101,5924 525949,3 2867834 0 378,5 2858,5
 210 0 0 0 0 0 0 0 0 0 0 0 2858,5
 220 0 0,008 0,008 165,7926 0,8714 11,9753 153,817 264672,7 3207757 0 393,27 3067,02
 230 0 0 0 0 0 0 0 0 0 0 0 3067,02
 240 0 0,0078 0,0077 160,6122 0,9999 18,9393 141,6745 324968 2946919 0 410,17 3217,14
 250 0 0 0 0 0 0 0 0 0 0 0 3217,15
 260 0 0,0117 0,0117 167,7531 1,6913 21,1199 146,6256 313817,2 3362767 0 436,44 3456,46
 270 0 0 0 0 0 0 0 0 0 0 0 3456,46
 280 0 0,0102 0,0102 125,7921 0,8745 49,6386 76,1499 417538 1214699 0 457,99 3839
 290 0 0 0 0 0 0 0 0 0 0 0 3839,01
 300 0 0,0146 0,0146 95,555 1,7678 31,5398 64,0226 1168303 5049043 0 481,67 4291,49
 310 0 0 0 0 0 0 0 0 0 0 0 4291,49
 320 0 0,0091 0,0092 58,1482 0,5472 47,4605 10,6817 296003,5 262336,3 0 501,72 4784,18
 330 0 0 0 0 0 0 0 0 0 0 0 4784,19
 340 0 0,0069 0,0069 23,8759 0,302 21,043 2,8332 203782,6 15713,02 0 546,32 5125,53
 350 0 0 0 0 0 0 0 0 0 0 0 5125,54
 360 0 0,0025 0,0025 9,8771 0,0978 5,4904 4,3887 51777,86 39828,81 0 569,52 5249,99
 370 0 0 0 0 0 0 0 0 0 0 0 5249,99
 380 0 0,0086 0,0087 26,7021 0,3221 18,2836 8,4208 187762 210410,8 0 598,62 5398,84
 390 0 0 0 0 0 0 0 0 0 0 0 5398,85
 400 0 0,0064 0,0064 31,3581 0,3323 18,9263 12,4328 176503,4 216244,5 0 636,8 5596,53
 410 0 0 0 0 0 0 0 0 0 0 0 5596,55
 420 0 0,0009 0,0009 2,1069 0,024 1,9246 0,1835 24097,19 3385,979 0 653,13 5684,94
 430 0 0 0 0 0 0 0 0 0 0 0 5684,94
 440 0 0,0032 0,0032 10,6071 0,167 10,516 0,0912 1029628 2987,734 0 661,52 5771,72
 450 0 0 0 0 0 0 0 0 0 0 0 5771,72
 460 0 0,0042 0,0042 16,8139 0,1908 10,0548 6,7588 61778,34 471194,6 0 674,46 5861,49
 470 0 0 0 0 0 0 0 0 0 0 0 5861,49
 480 0 0,0129 0,0129 21,1158 0,6538 20,7505 0,3661 10047330 3745,651 0 682,61 5982,9
 490 0 0 0 0 0 0 0 0 0 0 0 5982,9
 500 0 0,0277 0,0277 65,9107 1,8094 57,4203 8,482 36755090 101017,9 0 697,86 6466,7
 510 0 0 0 0 0 0 0 0 0 0 0 6466,72
 520 0 0,0316 0,0316 131,8432 4,0189 52,476 79,3592 22513940 1174518 0 722,33 7080,94
 530 0 0 0 0 0 0 0 0 0 0 0 7080,97
 540 0 0,0322 0,0322 87,0423 2,5252 38,5816 48,4579 25104160 1176682 0 741,29 7597,61
 550 0 0 0 0 0 0 0 0 0 0 0 7597,63
 560 0 0,0312 0,0312 87,3808 2,4697 37,9372 49,4446 24527320 1012133 0 752,62 7986,41
 570 0 0 0 0 0 0 0 0 0 0 0 7986,42
 580 0 0,0358 0,0358 70,4895 2,3448 30,7095 39,7765 24296740 792290,6 0 766,44 8355,48
 590 0 0 0 0 0 0 0 0 0 0 0 8355,48
 600 0 0,0314 0,0314 55,2223 1,6779 35,5656 19,6506 32169850 410897,7 0 772,84 8694,62
 610 0 0 0 0 0 0 0 0 0 0 0 8694,62
 620 0 0,0387 0,0387 56,576 1,7698 35,0967 21,4765 28356960 496056,3 0 781,07 9120,18
 630 0 0 0 0 0 0 0 0 0 0 0 9120,19
 640 0 0,0325 0,0325 108,9723 3,02 41,6936 67,2802 25472480 1337417 0 796,08 9537,84
 650 0 0 0 0 0 0 0 0 0 0 0 9537,84
 660 0 0,0358 0,0358 72,3147 2,1559 26,7863 45,5288 23923160 1095938 0 802,61 9899,25
 670 0 0 0 0 0 0 0 0 0 0 0 9899,25
 680 0 0,0433 0,0432 119,5763 5,0035 75,4293 44,1467 11379030 1033774 0 827,37 10381,7
 690 0 0 0 0 0 0 0 0 0 0 0 10381,7
 700 0 0,0331 0,0331 198,2504 6,3826 149,6989 48,5753 6631928 1114913 0 857,29 11660,75
 710 0 0 0 0 0 0 0 0 0 0 0 11660,78
 720 0 0,034 0,0339 197,1842 5,6156 170,0393 27,1421 4129833 598386,7 0 870,17 13407,98
 730 0 0 0 0 0 0 0 0 0 0 0 13408,02
 740 0 0,0266 0,0265 222,2515 5,2271 216,7644 5,4867 5387883 180162 0 878,3 15506,61
 750 0 0 0 0 0 0 0 0 0 0 0 15506,62
 760 0 0,0292 0,0292 136,6105 3,7113 79,927 56,7755 20572430 1678917 0 884,16 17366,37
 770 0 0 0 0 0 0 0 0 0 0 0 17366,38
 780 0 0,0272 0,0272 112,0595 2,8359 38,8561 73,1971 28954860 1893758 0 888,74 17831,53
 790 0 0 0 0 0 0 0 0 0 0 0 17831,53
 800 0 0,0255 0,0255 100,6612 2,4624 34,378 66,2013 31554450 1738461 0 897,09 18230,95
 810 0 0 0 0 0 0 0 0 0 0 0 18230,95
 820 0 0,0372 0,0372 82,0089 2,78 27,4251 54,582 21495540 1365004 0 903,08 18569,59
 830 0 0 0 0 0 0 0 0 0 0 0 18569,59
 840 0 0,0347 0,0347 94,1564 2,9276 30,9065 63,2413 21887630 1219244 0 910,58 18897,38
 850 0 0 0 0 0 0 0 0 0 0 0 18897,38
 860 0 0,0328 0,0328 61,9815 1,8115 24,2274 37,7566 22549700 956288,1 0 919,26 19197,67
 870 0 0 0 0 0 0 0 0 0 0 0 19197,67
 880 0 0,0338 0,0338 57,0484 1,7485 25,8765 31,1689 26858660 980438,8 0 923,89 19455,53
 890 0 0 0 0 0 0 0 0 0 0 0 19455,53
 900 0 0,0292 0,0292 68,7494 1,9022 36,5704 32,1781 33388370 1044546 0 931,16 19797,25
 910 0 0 0 0 0 0 0 0 0 0 0 19797,25
 920 0 0,0301 0,0301 74,1535 2,1287 43,0699 31,0833 30887180 979670,5 0 938,27 20264,51
 930 0 0 0 0 0 0 0 0 0 0 0 20264,52
 940 0 0,0407 0,0407 67,4715 2,6877 41,7755 25,6942 23233820 750307,5 0 944,29 20651,44
 950 0 0 0 0 0 0 0 0 0 0 0 20651,45
 960 0 0,0134 0,0134 141,5457 1,5533 34,7872 106,7658 1961405 8170363 0 953,19 21218,55
 970 0 0 0 0 0 0 0 0 0 0 0 21218,55
 980 0 0,0065 0,0065 248,9944 0,8058 0,8211 248,1692 8601,574 11834350 0 957,73 21313,92
 990 0 0 0 0 0 0 0 0 0 0 0 21313,92
 1000 0 0,0048 0,0048 152,4392 0,5589 6,4028 146,0466 47726,94 4378645 0 961,61 21361,29
 1010 0 0 0 0 0 0 0 0 0 0 0 21361,29
 1020 0 0,0017 0,0017 3,2915 0,0435 3,2897 0 18703,56 0 0 969,05 21404,08
 1030 0 0 0 0 0 0 0 0 0 0 0 21404,08
 1040 0 0,001 0,001 2,0097 0,0247 2,0081 0 11217,21 0 0 976,06 21438,74
 1050 0 0 0 0 0 0 0 0 0 0 0 21438,74
 1060 0 0,0038 0,0038 12,615 0,1326 8,5074 4,1071 210936,4 402968 0 987,39 21499,79
 1070 0 0 0 0 0 0 0 0 0 0 0 21499,79
 1080 0 0,0044 0,0044 36,5652 0,2496 6,1267 30,4354 107333,5 593992,2 0 999,87 21569,55
 1090 0 0 0 0 0 0 0 0 0 0 0 21569,55
 1100 0 0,0024 0,0024 10,6179 0,0975 5,1228 5,4989 116937,5 170565,8 0 1006,47 21647,62
 1110 0 0 0 0 0 0 0 0 0 0 0 21647,62
 1120 0 0,0032 0,0032 11,8976 0,127 9,8846 2,0132 64494,36 230295 0 1016,68 21730,25
 1130 0 0 0 0 0 0 0 0 0 0 0 21730,25
