 0 65025,94 79356,55
 10 58638,74 81387,94
 20 62008,81 83178,77
 30 101489 132970,4
 40 123195,2 165542,7
 50 113821,8 155024,9
 60 94190,36 128109,9
 70 103074,7 140115,3
 80 76293,84 115859,3
 90 66827,49000000001 86760,07000000001
 100 69151,3 94688,63
 110 63054,86 87357,44
 120 67340,10000000001 96809,89
 130 105665,9 145704,6
 140 103324,9 146705,9
 150 115546,1 153417,4
 160 68657,85000000001 102312,8
 170 68466,45 90311,3
 180 64617,55 85724,89
 190 93127,78 134874,6
 200 94188,39 125772,5
 210 94573,64 132147
 220 54919,7 80547,97
 230 68360,36 94869,14999999999
 240 96387,00999999999 137348,4
 250 100544,7 135601,9
 260 99138,73 144969,1
 270 82284,77 113976,7
 280 111413 151046,9
 290 114419,1 158333,5
 300 103806,8 148241,2
 310 110592,3 147044,6
 320 92791,32000000001 101930,7
 330 89202,27 122897,3
 340 87295,67 114512,7
 350 108967,9 147260
 360 103778,4 131250,9
 370 92099,75 118529,2
 380 67146,88 88879,39
 390 74353,02 96304,83
 400 65586,84 85143,2
 410 56842,57 75482,37
 420 67563,5 93506,92
 430 83230,50999999999 106204,3
 440 62509,63 78362,3
 450 66602,05 76611,8
 460 69488,03 80890,11
 470 89586,5 115796,8
 480 99478,41 126945,6
 490 82893,16 108805
 500 94357,91 127832,9
 510 107781,7 150899,5
 520 93765,60000000001 127800,3
 530 67512,00999999999 92503,45
 540 64137,45 90461,49000000001
 550 101518,1 140379,2
 560 98862,41 136732,8
 570 68810,96000000001 93440,61
 580 61312,52 85492,16
 590 59322,61 91105,11


