fixed 0 0 0,0048 0,0047 6,312 0,1377 0 1,9195 34840,14 26196,4 0 13734,24 264211,2
 10 0 0,0024 0,0024 3,6671 0,097 0 0,6403 17672,51 4436,303 0 13740,73 264239,4
 20 0 0,0022 0,0022 3,2884 0,0518 0 0,5493 22035,84 5623,981 0 13746,64 264285
 30 0 0,005 0,005 6,3969 0,1952 0 0,0903 43770,79 5923,449 0 13754,7 264344,1
 40 0 0,0078 0,0078 4,9366 0,1913 0 1,3718 23588,9 42318,23 0 13761,77 264384
 50 0 0,0042 0,0042 5,7606 0,1324 0 1,92 21715,75 50154,28 0 13767,44 264426,9
 60 0 0,0062 0,0062 4,0216 0,1623 0 0 30316,81 0 0 13777,93 264475,8
 70 0 0,0135 0,0135 2,5597 0,2161 0 0 16465,45 0 0 13781,32 264494,1
 80 0 0,011 0,011 4,7556 0,2033 0 1,5567 22849,79 48392,79 0 13787,93 264525,4
 90 0 0,0117 0,0117 3,9374 0,2313 0 0,2827 18738,9 10744,24 0 13796,39 264574,5
 100 0 0,0114 0,0114 3,2006 0,2111 0 0,1827 18359,86 5378,039 0 13801,79 264603,6
 110 0 0,0172 0,0172 15,1703 0,4917 0 11,2405 49416,54 224781,2 0 13810,01 264645
 120 0 0,0272 0,0272 38,1384 1,0027 0 34,1076 25155,51 445406,3 0 13819,5 264696
 130 0 0,0056 0,0056 3,3779 0,1363 0 0 19072,66 0 0 13825,9 264729,3
 140 0 0,004 0,004 2,1025 0,0684 0 0 16483,21 0 0 13831,55 264762,1
 150 0 0,0053 0,0053 3,659 0,1665 0 0 19497,04 0 0 13837,88 264802,8
 160 0 0,0133 0,0133 4,937 0,2997 0 1,4633 19093,49 50969,55 0 13842,51 264831,2
 170 0 0,0162 0,0162 5,2144 0,2666 0 0,8245 25447,62 17300,79 0 13851,27 264877,5
 180 0 0,0062 0,0062 5,1086 0,1736 0 1,7351 24252,22 49726,09 0 13857,76 264917,2
 190 0 0,0056 0,0056 6,0304 0,1995 0 0,0913 37790,05 4860,543 0 13864,23 264951
 200 0 0,0028 0,0028 3,1079 0,073 0 0,6396 22106,58 19453,48 0 13873,57 265011,9
 210 0 0,003 0,003 2,8366 0,1113 0 0 13856,19 0 0 13877,29 265048,6
 220 0 0,0146 0,0146 23,7638 0,5406 0 19,284 26961,28 1158916 0 13882,87 265079,3
 230 0 0,0191 0,0191 45,5284 1,0793 0 35,6551 2964800 1490765 0 13890,81 265186,1
 240 0 0,0195 0,0195 78,2293 1,2064 0 74,0161 31874,55 1757315 0 13896,4 265247,8
 250 0 0,0159 0,016 179,3048 2,2288 0 171,9002 51324,36 2983577 0 13904,64 265296,4
 260 0 0,0112 0,0112 208,3838 1,9157 0 207,0714 10844,54 1604780 0 13909,12 265344,6
 270 0 0,0115 0,0115 217,4658 2,1902 0 209,6136 43504,77 955427,4 0 13916,62 265407,9
 280 0 0,0111 0,0111 232,145 2,057 0 227,1021 29599,62 1229974 0 13926,17 265462,7
 290 0 0,0108 0,0108 232,1223 1,8556 0 230,3731 11624,02 3205509 0 13932,57 265502
 300 0 0,0099 0,0099 70,3704 0,8442 0 63,7016 40783,86 416822,1 0 13937,9 265559,9
 310 0 0,0026 0,0026 5,1127 0,0955 0 2,3683 15730,14 57837,34 0 13942,49 265599,6
 320 0 0,002 0,002 5,1206 0,0448 0 3,3904 9697,409 141428 0 13945,64 265623,9
 330 0 0,0027 0,0027 7,9579 0,0964 0 4,3779 20724,77 149427,3 0 13951,64 265655,8
 340 0 0,0029 0,0029 6,8648 0,1042 0 4,2091 18355,33 167097,1 0 13957,08 265685,1
 350 0 0,0033 0,0033 6,9622 0,1065 0 5,6869 12755 158861,2 0 13962,05 265709,3
 360 0 0,0031 0,0031 6,6771 0,0871 0 3,3846 19479,37 57972,88 0 13966,74 265738,9
 370 0 0,0014 0,0014 2,2856 0,0536 0 0 13480,23 0 0 13969,87 265762,6
 380 0 0,0021 0,0021 14,0795 0,0493 0 12,7975 30792,97 788002 0 13971,92 265786,3
 390 0 0,0032 0,0032 3,9304 0,1099 0 0 24633,97 0 0 13978,4 265820,6
 400 0 0,0011 0,0011 2,8323 0,0536 0 0 15733,11 0 0 13985,5 265851,6
 410 0 0,0017 0,0016 1,9224 0,03 0 0 16098,44 0 0 13991,76 265884
 420 0 0,002 0,002 4,7519 0,0922 0 0,0908 27338,37 371,395 0 13997,78 265915,4
 430 0 0,0023 0,0023 3,6536 0,0785 0 0,2755 22122,43 1503,611 0 14003,84 265949,4
 440 0 0,0023 0,0023 3,2898 0,0583 0 0 20211,92 0 0 14009,71 265984,3
 450 0 0,0014 0,0014 2,015 0,0515 0 0 14663,92 0 0 14017,42 266023,4
 460 0 0,0015 0,0015 2,6503 0,0634 0 0 15336,6 0 0 14021,22 266041,7
 470 0 0,004 0,004 14,805 0,2192 0 8,5863 43749,09 303120,1 0 14029,91 266092,9
 480 0 0,0016 0,0016 3,6568 0,0917 0 0,0911 19461,36 372,9944 0 14039,07 266151,1
 490 0 0,0006 0,0006 0,6426 0,0081 0 0 4547,756 0 0 14043,07 266174,2
 500 0 0,0063 0,0063 26,0785 0,4687 0 1,1855 1148301 33546,06 0 14051,16 266312,8
 510 0 0,0016 0,0016 3,018 0,0671 0 0,0911 16874,39 373,2952 0 14058,9 266468,9
 520 0 0,0015 0,0015 2,0085 0,0379 0 0,1825 12316,1 2616,094 0 14064,06 266496,5
 530 0 0,003 0,003 4,5719 0,1233 0 0,0917 28841,47 375,7051 0 14072,07 266543,1
