 0 0 0 0 0 0 0 0 0,0012
 10 2,054 0 0 0,6389 0,9297 0 0,0002 0,0034
 20 13,0775 0 0 0,9341 4,3579 0,654 0,0004 0,0032
 30 10,9305 0 0 0,0095 3,2638 0,2381 0,0002 0,0036
 40 6,9589 0 0 0,7247 1,1386 0,0498 0,0009 0,0051
 50 14,5132 0 0 0,7212 3,7845 0,4547 0,0005999999999999999 0,0057
 60 16,8332 0 0 1,0467 3,8761 0,5551 0,0004 0,0112
 70 19,9621 0 0 0 2,4706 0,4132 0 0,0125
 80 21,9602 0 0 1,5196 3,3053 0,6346000000000001 0,0019 0,0115
 90 22,9764 0 0 0,2614 3,5365 0,4551 0,0009 0,0094
 100 17,5742 0 0 0,1828 2,6416 0,277 0,0011 0,0114
 110 55,6019 0 0 15,0909 2,7931 0,4334 0,0118 0,0097
 120 86,8473 0 0 28,5759 3,7843 0,4465 0,0211 0,0055
 130 14,4209 0 0 0 3,5026 0,6297 0 0,0074
 140 20,2656 0 0 0 4,6654 0,6331 0 0,0052
 150 12,3922 0 0 1,324 1,7221 0,4552 0,0009 0,0148
 160 27,3025 0 0 0,6161 3,4472 0,7085 0,0008 0,0055
 170 15,0433 0 0 0,2728 3,2196 0,4252 0,0002 0,0058
 180 11,0443 0 0 1,6936 1,8138 0,3714 0,001 0,0059
 190 20,2708 0 0 0,2729 5,8108 1,2719 0,0005 0,004
 200 14,4157 0 0 0,4083 4,0645 0,6282 0,0001 0,0038
 210 13,7062 0 0 3,1978 2,3419 0,4863 0,0016 0,0075
 220 121,0708 0 0 45,8963 7,1543 3,2442 0,0221 0,0026
 230 539,7674 0 0 77,8087 1,4759 0,06370000000000001 0,0934 0,0083
 240 757,3807 0 0 193,9886 6,1265 0,7625999999999999 0,0516 0,0062
 250 1095,121 0 0 213,8988 6,3484 0,7447 0,0548 0,0041
 260 895,0376 0 0 231,0108 1,3429 0,2036 0,0451 0,0043
 270 1321,355 0 0 207,37 3,4177 0,3915 0,0808 0,0073
 280 1004,92 0 0 128,3162 6,5237 0,7297 0,1135 0,0097
 290 17,2925 0 0 7,2183 3,0798 0,3993 0,0081 0,0021
 300 8,760999999999999 0 0 7,8763 1,5279 0,2275 0,0005999999999999999 0,0015
 310 4,9347 0 0 0 2,0579 0,062 0 0,0021
 320 4,1749 0 0 0 2,3285 0,5613 0 0,002
 330 7,8654 0 0 0,0815 2,8168 0,2506 0,0002 0,0018
 340 3,5678 0 0 0,1545 1,4412 0,2766 0,0003 0,0028
 350 8,2675 0 0 0 3,0862 0,6786 0 0,0022
 360 6,2804 0 0 0 1,9677 0,1256 0 0,0015
 370 7,0878 0 0 2,7821 2,4147 0,0443 0,0011 0,0018
 380 9,0974 0 0 0 2,8696 0,0672 0 0,0048
 390 33,075 0 0 0,0725 17,9745 0,0696 0,0003 0,0018
 400 7,0128 0 0 0,5446 2,7216 0,1829 0,0002 0,0011
 410 2,0043 0 0 0 0,9529 0,1339 0 0,0026
 420 5,0169 0 0 0,2763 1,6526 0,07049999999999999 0,0005999999999999999 0,0017
 430 5,7821 0 0 0 2,776 0,4673 0 0


