\relax 
\providecommand\hyper@newdestlabel[2]{}
\providecommand\HyperFirstAtBeginDocument{\AtBeginDocument}
\HyperFirstAtBeginDocument{\ifx\hyper@anchor\@undefined
\global\let\oldcontentsline\contentsline
\gdef\contentsline#1#2#3#4{\oldcontentsline{#1}{#2}{#3}}
\global\let\oldnewlabel\newlabel
\gdef\newlabel#1#2{\newlabelxx{#1}#2}
\gdef\newlabelxx#1#2#3#4#5#6{\oldnewlabel{#1}{{#2}{#3}}}
\AtEndDocument{\ifx\hyper@anchor\@undefined
\let\contentsline\oldcontentsline
\let\newlabel\oldnewlabel
\fi}
\fi}
\global\let\hyper@last\relax 
\gdef\HyperFirstAtBeginDocument#1{#1}
\providecommand\HyField@AuxAddToFields[1]{}
\providecommand\HyField@AuxAddToCoFields[2]{}
\catcode `"\active 
\bibstyle{biblatex}
\bibdata{main-blx,bibl}
\citation{biblatex-control}
\abx@aux@refcontext{none/global//global/global}
\@writefile{toc}{\boolfalse {citerequest}\boolfalse {citetracker}\boolfalse {pagetracker}\boolfalse {backtracker}\relax }
\@writefile{lof}{\boolfalse {citerequest}\boolfalse {citetracker}\boolfalse {pagetracker}\boolfalse {backtracker}\relax }
\@writefile{lot}{\boolfalse {citerequest}\boolfalse {citetracker}\boolfalse {pagetracker}\boolfalse {backtracker}\relax }
\babel@aux{polish}{}
\@writefile{toc}{\contentsline {section}{\numberline {1\relax .\kern .5em }Wst\IeC {\k e}p}{8}{section.1}}
\@writefile{toc}{\contentsline {subsection}{\numberline {1.1\relax .\kern .5em }Cel oraz zakres pracy}{8}{subsection.1.1}}
\@writefile{toc}{\contentsline {subsection}{\numberline {1.2\relax .\kern .5em }Uk\IeC {\l }ad pracy}{9}{subsection.1.2}}
\@writefile{toc}{\contentsline {section}{\numberline {2\relax .\kern .5em }Monitorowanie system\IeC {\'o}w}{10}{section.2}}
\@writefile{toc}{\contentsline {subsection}{\numberline {2.1\relax .\kern .5em }Przegl\IeC {\k a}d literatury i dost\IeC {\k e}pnych rozwi\IeC {\k a}za\IeC {\'n}}{10}{subsection.2.1}}
\@writefile{toc}{\contentsline {subsection}{\numberline {2.2\relax .\kern .5em }Wybrane technologie monitorowania system\IeC {\'o}w operacyjnych}{13}{subsection.2.2}}
\@writefile{toc}{\contentsline {subsubsection}{\numberline {2.2.1\relax .\kern .5em }Liczniki wydajno\IeC {\'s}ci systemu Windows}{14}{subsubsection.2.2.1}}
\@writefile{toc}{\contentsline {subsubsection}{\numberline {2.2.2\relax .\kern .5em }Monitor wydajno\IeC {\'s}ci}{14}{subsubsection.2.2.2}}
\providecommand*\caption@xref[2]{\@setref\relax\@undefined{#1}}
\newlabel{fig:00_perfmon}{{\caption@xref {fig:00_perfmon}{ on input line 50}}{15}{}{subsubsection.2.2.2}{}}
\@writefile{lof}{\contentsline {figure}{\numberline {1.}{\ignorespaces Fragment przyk\IeC {\l }adowego raportu wygenerowanego przez Monitor Wydajno\IeC {\'s}ci.}}{15}{figure.1}}
\@writefile{toc}{\contentsline {subsection}{\numberline {2.3\relax .\kern .5em }Oprogramowanie Zabbix}{15}{subsection.2.3}}
\newlabel{fig:01_zabbix_architecture}{{\caption@xref {fig:01_zabbix_architecture}{ on input line 64}}{16}{}{subsection.2.3}{}}
\@writefile{lof}{\contentsline {figure}{\numberline {2.}{\ignorespaces Architektura oprogramowania Zabbix [9].}}{16}{figure.2}}
\@writefile{toc}{\contentsline {subsection}{\numberline {2.4\relax .\kern .5em }Sformu\IeC {\l }owanie zadania}{17}{subsection.2.4}}
\@writefile{toc}{\contentsline {section}{\numberline {3\relax .\kern .5em }Zabbix agent}{19}{section.3}}
\@writefile{toc}{\contentsline {subsection}{\numberline {3.1\relax .\kern .5em }Funkcje programu}{19}{subsection.3.1}}
\@writefile{toc}{\contentsline {subsection}{\numberline {3.2\relax .\kern .5em }Architektura}{19}{subsection.3.2}}
\newlabel{fig:02_agent_architecture}{{\caption@xref {fig:02_agent_architecture}{ on input line 32}}{20}{}{subsection.3.2}{}}
\@writefile{lof}{\contentsline {figure}{\numberline {3.}{\ignorespaces Schemat dzia\IeC {\l }ania agenta Zabbixa.}}{20}{figure.3}}
\newlabel{fig:03_agent_timing_diagram}{{\caption@xref {fig:03_agent_timing_diagram}{ on input line 51}}{21}{}{figure.3}{}}
\@writefile{lof}{\contentsline {figure}{\numberline {4.}{\ignorespaces Diagram czasowy agenta Zabbixa.}}{21}{figure.4}}
\newlabel{fig:04_agent_sequence_diagram}{{\caption@xref {fig:04_agent_sequence_diagram}{ on input line 69}}{23}{}{figure.4}{}}
\@writefile{lof}{\contentsline {figure}{\numberline {5.}{\ignorespaces Diagram sekwencji agenta Zabbixa.}}{23}{figure.5}}
\@writefile{toc}{\contentsline {subsection}{\numberline {3.3\relax .\kern .5em }Model danych}{23}{subsection.3.3}}
\@writefile{toc}{\contentsline {subsection}{\numberline {3.4\relax .\kern .5em }Proces tworzenia oprogramowania}{24}{subsection.3.4}}
\@writefile{toc}{\contentsline {subsubsection}{\numberline {3.4.1\relax .\kern .5em }Wersja 1.1: Podstawowe modu\IeC {\l }y }{24}{subsubsection.3.4.1}}
\@writefile{toc}{\contentsline {subsubsection}{\numberline {3.4.2\relax .\kern .5em }Wersja 2.1: Przesy\IeC {\l }anie danych mi\IeC {\k e}dzy bazami}{25}{subsubsection.3.4.2}}
\@writefile{toc}{\contentsline {subsubsection}{\numberline {3.4.3\relax .\kern .5em }Wersja 2.2: Przetwarzanie proces\IeC {\'o}w}{26}{subsubsection.3.4.3}}
\@writefile{toc}{\contentsline {subsubsection}{\numberline {3.4.4\relax .\kern .5em }Wersja 2.3: Perfmon\_module}{26}{subsubsection.3.4.4}}
\@writefile{toc}{\contentsline {subsubsection}{\numberline {3.4.5\relax .\kern .5em }Wersja 3.1: Konfigurator agenta}{26}{subsubsection.3.4.5}}
\@writefile{toc}{\contentsline {section}{\numberline {4\relax .\kern .5em }Badania}{28}{section.4}}
\@writefile{toc}{\contentsline {subsection}{\numberline {4.1\relax .\kern .5em }Konfiguracja agenta Zabbixa}{28}{subsection.4.1}}
\@writefile{toc}{\contentsline {subsubsection}{\numberline {4.1.1\relax .\kern .5em }Wyb\IeC {\'o}r wykorzystywanych licznik\IeC {\'o}w}{28}{subsubsection.4.1.1}}
\@writefile{toc}{\contentsline {subsubsection}{\numberline {4.1.2\relax .\kern .5em }Symulowanie obci\IeC {\k a}\IeC {\.z}enia system\IeC {\'o}w}{30}{subsubsection.4.1.2}}
\@writefile{toc}{\contentsline {subsubsection}{\numberline {4.1.3\relax .\kern .5em }Dob\IeC {\'o}r warto\IeC {\'s}ci prog\IeC {\'o}w alarmowych}{31}{subsubsection.4.1.3}}
\@writefile{lof}{\contentsline {figure}{\numberline {6.}{\ignorespaces Por\IeC {\'o}wnanie warto\IeC {\'s}ci przyk\IeC {\l }adowych licznik\IeC {\'o}w wydajno\IeC {\'s}ci w trakcie normalnej pracy systemu (a) oraz z zadanym na nim obci\IeC {\k a}\IeC {\.z}eniem (b).}}{32}{figure.6}}
\newlabel{fig:06_agent_reads_comparison}{{6}{32}{Porównanie wartości przykładowych liczników wydajności w trakcie normalnej pracy systemu (a) oraz z zadanym na nim obciążeniem (b)}{figure.6}{}}
\@writefile{lof}{\contentsline {subfigure}{\numberline{(a)}{\ignorespaces {}}}{32}{subfigure.6.1}}
\@writefile{lof}{\contentsline {subfigure}{\numberline{(b)}{\ignorespaces {}}}{32}{subfigure.6.2}}
\@writefile{lot}{\contentsline {table}{\numberline {1.}{\ignorespaces Progi alarmowe dla wybranych licznik\IeC {\'o}w wydajno\IeC {\'s}ci}}{33}{table.1}}
\@writefile{toc}{\contentsline {subsubsection}{\numberline {4.1.4\relax .\kern .5em }Wnioski}{33}{subsubsection.4.1.4}}
\@writefile{toc}{\contentsline {subsection}{\numberline {4.2\relax .\kern .5em }Weryfikacja dzia\IeC {\l }ania Monitora Wydajno\IeC {\'s}ci}{34}{subsection.4.2}}
\@writefile{toc}{\contentsline {subsubsection}{\numberline {4.2.1\relax .\kern .5em }Opis problemu}{34}{subsubsection.4.2.1}}
\@writefile{lof}{\contentsline {figure}{\numberline {7.}{\ignorespaces Ilustracja wp\IeC {\l }ywu Monitora Wydajno\IeC {\'s}ci na czas dysku (a) oraz na procesor (b). }}{34}{figure.7}}
\newlabel{fig:07_perfmon_load}{{7}{34}{Ilustracja wpływu Monitora Wydajności na czas dysku (a) oraz na procesor (b)}{figure.7}{}}
\@writefile{lof}{\contentsline {subfigure}{\numberline{(a)}{\ignorespaces {}}}{34}{subfigure.7.1}}
\@writefile{lof}{\contentsline {subfigure}{\numberline{(b)}{\ignorespaces {}}}{34}{subfigure.7.2}}
\@writefile{lof}{\contentsline {figure}{\numberline {8.}{\ignorespaces Czas procesora w momencie uruchomienia analizy Monitora Wydajno\IeC {\'s}ci w wersji agenta przed zmianami (a) oraz po zmianach (b).}}{36}{figure.8}}
\newlabel{fig:08_perfmon_correction}{{8}{36}{Czas procesora w momencie uruchomienia analizy Monitora Wydajności w wersji agenta przed zmianami (a) oraz po zmianach (b)}{figure.8}{}}
\@writefile{lof}{\contentsline {subfigure}{\numberline{(a)}{\ignorespaces {}}}{36}{subfigure.8.1}}
\@writefile{lof}{\contentsline {subfigure}{\numberline{(b)}{\ignorespaces {}}}{36}{subfigure.8.2}}
\@writefile{toc}{\contentsline {subsubsection}{\numberline {4.2.2\relax .\kern .5em }Rozwi\IeC {\k a}zanie}{36}{subsubsection.4.2.2}}
\@writefile{toc}{\contentsline {subsection}{\numberline {4.3\relax .\kern .5em }Monitoring zasob\IeC {\'o}w gospodarza i go\IeC {\'s}ci w \IeC {\'s}rodowisku zwirtualizowanym}{36}{subsection.4.3}}
\newlabel{fig:09_hyperv_architecture}{{\caption@xref {fig:09_hyperv_architecture}{ on input line 183}}{37}{}{subsection.4.3}{}}
\@writefile{lof}{\contentsline {figure}{\numberline {9.}{\ignorespaces Architektura \IeC {\'s}rodowiska Hyper-V [16].}}{37}{figure.9}}
\@writefile{lot}{\contentsline {table}{\numberline {2.}{\ignorespaces Specyfikacja stacji testowych.}}{39}{table.2}}
\@writefile{toc}{\contentsline {subsubsection}{\numberline {4.3.1\relax .\kern .5em }Procesor}{39}{subsubsection.4.3.1}}
\@writefile{lof}{\contentsline {figure}{\numberline {10.}{\ignorespaces Czas procesora monitorowany licznikiem maszyny wirtualnej VM1 (a) oraz licznikiem gospodarza (b).}}{39}{figure.10}}
\newlabel{fig:10_vm_counters_lie}{{10}{39}{Czas procesora monitorowany licznikiem maszyny wirtualnej VM1 (a) oraz licznikiem gospodarza (b)}{figure.10}{}}
\@writefile{lof}{\contentsline {subfigure}{\numberline{(a)}{\ignorespaces {}}}{39}{subfigure.10.1}}
\@writefile{lof}{\contentsline {subfigure}{\numberline{(b)}{\ignorespaces {}}}{39}{subfigure.10.2}}
\newlabel{fig:11_processor_lp}{{\caption@xref {fig:11_processor_lp}{ on input line 267}}{41}{}{figure.10}{}}
\@writefile{lof}{\contentsline {figure}{\numberline {11.}{\ignorespaces Wykres przedstawiaj\IeC {\k a}cy roz\IeC {\l }o\IeC {\.z}enie obci\IeC {\k a}\IeC {\.z}enia pomi\IeC {\k e}dzy procesory logiczne gospodarza.}}{41}{figure.11}}
\@writefile{lof}{\contentsline {figure}{\numberline {12.}{\ignorespaces Czas dzia\IeC {\l }ania go\IeC {\'s}cia dla maszyny VM1 (a) oraz VM2 (b).}}{42}{figure.12}}
\newlabel{fig:12_processor_some_lps}{{12}{42}{Czas działania gościa dla maszyny VM1 (a) oraz VM2 (b)}{figure.12}{}}
\@writefile{lof}{\contentsline {subfigure}{\numberline{(a)}{\ignorespaces {}}}{42}{subfigure.12.1}}
\@writefile{lof}{\contentsline {subfigure}{\numberline{(b)}{\ignorespaces {}}}{42}{subfigure.12.2}}
\newlabel{fig:13_processor_number_of_threads}{{\caption@xref {fig:13_processor_number_of_threads}{ on input line 296}}{43}{}{figure.12}{}}
\@writefile{lof}{\contentsline {figure}{\numberline {13.}{\ignorespaces Zale\IeC {\.z}no\IeC {\'s}\IeC {\'c} czasu oczekiwania procesora na odes\IeC {\l }anie dla go\IeC {\'s}ci oraz partycji rodzica od liczby w\IeC {\k a}tk\IeC {\'o}w obci\IeC {\k a}\IeC {\.z}aj\IeC {\k a}cych gospodarza.}}{43}{figure.13}}
\@writefile{lof}{\contentsline {figure}{\numberline {14.}{\ignorespaces Zale\IeC {\.z}no\IeC {\'s}\IeC {\'c} prze\IeC {\l }\IeC {\k a}cze\IeC {\'n} kontekstu (a) oraz czasu oczekiwania procesora na odes\IeC {\l }anie (b) od liczby procesor\IeC {\'o}w wirtualnych.}}{44}{figure.14}}
\newlabel{fig:14_processor_number_of_vps}{{14}{44}{Zależność przełączeń kontekstu (a) oraz czasu oczekiwania procesora na odesłanie (b) od liczby procesorów wirtualnych}{figure.14}{}}
\@writefile{lof}{\contentsline {subfigure}{\numberline{(a)}{\ignorespaces {}}}{44}{subfigure.14.1}}
\@writefile{lof}{\contentsline {subfigure}{\numberline{(b)}{\ignorespaces {}}}{44}{subfigure.14.2}}
\newlabel{fig:15_processor_number_of_vps_2}{{\caption@xref {fig:15_processor_number_of_vps_2}{ on input line 321}}{45}{}{figure.14}{}}
\@writefile{lof}{\contentsline {figure}{\numberline {15.}{\ignorespaces Zale\IeC {\.z}no\IeC {\'s}\IeC {\'c} czasu dzia\IeC {\l }ania go\IeC {\'s}cia od liczby procesor\IeC {\'o}w wirtualnych. }}{45}{figure.15}}
\newlabel{fig:16_processor_affinity}{{\caption@xref {fig:16_processor_affinity}{ on input line 327}}{45}{}{figure.15}{}}
\@writefile{lof}{\contentsline {figure}{\numberline {16.}{\ignorespaces Ilustracja zmian czasu dzia\IeC {\l }ania go\IeC {\'s}cia w czasie przy zmniejszaj\IeC {\k a}cej si\IeC {\k e} liczbie procesor\IeC {\'o}w w koligacji.}}{45}{figure.16}}
\@writefile{lof}{\contentsline {figure}{\numberline {17.}{\ignorespaces Ilustracja wp\IeC {\l }ywu transferu plik\IeC {\'o}w na liczb\IeC {\k e} generowanych przerwa\IeC {\'n} (a) oraz hiperwywo\IeC {\l }a\IeC {\'n} (b)}}{46}{figure.17}}
\newlabel{fig:17_processor_file_transfer}{{17}{46}{Ilustracja wpływu transferu plików na liczbę generowanych przerwań (a) oraz hiperwywołań (b)}{figure.17}{}}
\@writefile{lof}{\contentsline {subfigure}{\numberline{(a)}{\ignorespaces {}}}{46}{subfigure.17.1}}
\@writefile{lof}{\contentsline {subfigure}{\numberline{(b)}{\ignorespaces {}}}{46}{subfigure.17.2}}
\@writefile{toc}{\contentsline {subsubsection}{\numberline {4.3.2\relax .\kern .5em }Pami\IeC {\k e}\IeC {\'c}}{47}{subsubsection.4.3.2}}
\@writefile{lof}{\contentsline {figure}{\numberline {18.}{\ignorespaces Zale\IeC {\.z}no\IeC {\'s}\IeC {\'c} liczby odczyt\IeC {\'o}w stron na sekund\IeC {\k e} oraz u\IeC {\.z}ycia pliku stronicowania od rozmiaru pliku.}}{49}{figure.18}}
\newlabel{fig:18_memory_paging_file_size}{{18}{49}{Zależność liczby odczytów stron na sekundę oraz użycia pliku stronicowania od rozmiaru pliku}{figure.18}{}}
\@writefile{lof}{\contentsline {subfigure}{\numberline{(a)}{\ignorespaces {}}}{49}{subfigure.18.1}}
\@writefile{lof}{\contentsline {subfigure}{\numberline{(b)}{\ignorespaces {}}}{49}{subfigure.18.2}}
\newlabel{fig:19_memory_added_removed_memory}{{\caption@xref {fig:19_memory_added_removed_memory}{ on input line 397}}{50}{}{figure.18}{}}
\@writefile{lof}{\contentsline {figure}{\numberline {19.}{\ignorespaces Pami\IeC {\k e}\IeC {\'c} dodana i usuni\IeC {\k e}ta.}}{50}{figure.19}}
\@writefile{lof}{\contentsline {figure}{\numberline {20.}{\ignorespaces Ilustracja pami\IeC {\k e}ci fizycznej (a) oraz bie\IeC {\.z}\IeC {\k a}cego obci\IeC {\k a}\IeC {\.z}enia (b) od czasu badania.}}{50}{figure.20}}
\newlabel{fig:20_memory_load_on_one_vm}{{20}{50}{Ilustracja pamięci fizycznej (a) oraz bieżącego obciążenia (b) od czasu badania}{figure.20}{}}
\@writefile{lof}{\contentsline {subfigure}{\numberline{(a)}{\ignorespaces {}}}{50}{subfigure.20.1}}
\@writefile{lof}{\contentsline {subfigure}{\numberline{(b)}{\ignorespaces {}}}{50}{subfigure.20.2}}
\@writefile{lof}{\contentsline {figure}{\numberline {21.}{\ignorespaces Dost\IeC {\k e}pne bajty mierzone w systemie gospodarza (a) oraz z poziomu maszyny wirtualnej (b).}}{51}{figure.21}}
\newlabel{fig:21_static_vs_dynamic}{{21}{51}{Dostępne bajty mierzone w systemie gospodarza (a) oraz z poziomu maszyny wirtualnej (b)}{figure.21}{}}
\@writefile{lof}{\contentsline {subfigure}{\numberline{(a)}{\ignorespaces {}}}{51}{subfigure.21.1}}
\@writefile{lof}{\contentsline {subfigure}{\numberline{(b)}{\ignorespaces {}}}{51}{subfigure.21.2}}
\@writefile{lof}{\contentsline {figure}{\numberline {22.}{\ignorespaces Obci\IeC {\k a}\IeC {\.z}enie gospodarza widoczne w dost\IeC {\k e}pnych bajtach (a) oraz w bie\IeC {\.z}\IeC {\k a}cym obci\IeC {\k a}\IeC {\.z}eniu (b).}}{52}{figure.22}}
\newlabel{fig:22_load_on_host}{{22}{52}{Obciążenie gospodarza widoczne w dostępnych bajtach (a) oraz w bieżącym obciążeniu (b)}{figure.22}{}}
\@writefile{lof}{\contentsline {subfigure}{\numberline{(a)}{\ignorespaces {}}}{52}{subfigure.22.1}}
\@writefile{lof}{\contentsline {subfigure}{\numberline{(b)}{\ignorespaces {}}}{52}{subfigure.22.2}}
\@writefile{lof}{\contentsline {figure}{\numberline {23.}{\ignorespaces Przebieg pami\IeC {\k e}ci fizcznej (a) i dost\IeC {\k e}pnych bajt\IeC {\'o}w (b) dla r\IeC {\'o}\IeC {\.z}nych konfiguracji wag pami\IeC {\k e}ci.}}{53}{figure.23}}
\newlabel{fig:23_weights}{{23}{53}{Przebieg pamięci fizcznej (a) i dostępnych bajtów (b) dla różnych konfiguracji wag pamięci}{figure.23}{}}
\@writefile{lof}{\contentsline {subfigure}{\numberline{(a)}{\ignorespaces {}}}{53}{subfigure.23.1}}
\@writefile{lof}{\contentsline {subfigure}{\numberline{(b)}{\ignorespaces {}}}{53}{subfigure.23.2}}
\newlabel{fig:24_memory_smart_working_set}{{\caption@xref {fig:24_memory_smart_working_set}{ on input line 472}}{54}{}{figure.23}{}}
\@writefile{lof}{\contentsline {figure}{\numberline {24.}{\ignorespaces Przebiegi pami\IeC {\k e}ci fizycznej oraz zestawu roboczego dla maszyny VM2.}}{54}{figure.24}}
\@writefile{toc}{\contentsline {subsubsection}{\numberline {4.3.3\relax .\kern .5em }Dysk}{54}{subsubsection.4.3.3}}
\@writefile{lof}{\contentsline {figure}{\numberline {25.}{\ignorespaces Przebieg d\IeC {\l }ugo\IeC {\'s}ci kolejki dysku (a) i parametru op\IeC {\'o}\IeC {\'z}nienia (b) dla dysk\IeC {\'o}w VHD oraz VHDX.}}{56}{figure.25}}
\newlabel{fig:25_vhd_vs_vhdx}{{25}{56}{Przebieg długości kolejki dysku (a) i parametru opóźnienia (b) dla dysków VHD oraz VHDX}{figure.25}{}}
\@writefile{lof}{\contentsline {subfigure}{\numberline{(a)}{\ignorespaces {}}}{56}{subfigure.25.1}}
\@writefile{lof}{\contentsline {subfigure}{\numberline{(b)}{\ignorespaces {}}}{56}{subfigure.25.2}}
\@writefile{lof}{\contentsline {figure}{\numberline {26.}{\ignorespaces Wykresy op\IeC {\'o}\IeC {\'z}nienia (a) i przepustowo\IeC {\'s}ci (b) mierzonych dla trzech wariant\IeC {\'o}w dysk\IeC {\'o}w wirtualnych.}}{56}{figure.26}}
\newlabel{fig:26_fixed_dynamic_differencing}{{26}{56}{Wykresy opóźnienia (a) i przepustowości (b) mierzonych dla trzech wariantów dysków wirtualnych}{figure.26}{}}
\@writefile{lof}{\contentsline {subfigure}{\numberline{(a)}{\ignorespaces {}}}{56}{subfigure.26.1}}
\@writefile{lof}{\contentsline {subfigure}{\numberline{(b)}{\ignorespaces {}}}{56}{subfigure.26.2}}
\@writefile{lof}{\contentsline {figure}{\numberline {27.}{\ignorespaces Przebieg d\IeC {\l }ugo\IeC {\'s}ci kolejki dysku (a) i czasu odczytu z dysku (b) dla maszyny z szesnastoma punktami kontrolnymi oraz dla pr\IeC {\'o}by kontrolnej.}}{58}{figure.27}}
\newlabel{fig:27_checkpoints}{{27}{58}{Przebieg długości kolejki dysku (a) i czasu odczytu z dysku (b) dla maszyny z szesnastoma punktami kontrolnymi oraz dla próby kontrolnej}{figure.27}{}}
\@writefile{lof}{\contentsline {subfigure}{\numberline{(a)}{\ignorespaces {}}}{58}{subfigure.27.1}}
\@writefile{lof}{\contentsline {subfigure}{\numberline{(b)}{\ignorespaces {}}}{58}{subfigure.27.2}}
\newlabel{fig:28_checkpoints_all}{{\caption@xref {fig:28_checkpoints_all}{ on input line 543}}{58}{}{figure.27}{}}
\@writefile{lof}{\contentsline {figure}{\numberline {28.}{\ignorespaces R\IeC {\'o}\IeC {\.z}nica pomi\IeC {\k e}dzy czasem odczytu i zapisu dla maszyny z zadan\IeC {\k a} liczb\IeC {\k a} punkt\IeC {\'o}w kontrolnych a pr\IeC {\'o}b\IeC {\k a} kontroln\IeC {\k a}.}}{58}{figure.28}}
\@writefile{lot}{\contentsline {table}{\numberline {3.}{\ignorespaces Specyfikacja drugiego serwera fizycznego.}}{59}{table.3}}
\@writefile{toc}{\contentsline {subsection}{\numberline {4.4\relax .\kern .5em }Badanie obci\IeC {\k a}\IeC {\.z}enia na gospodarzach \IeC {\'s}rodowiska zwirtualizowanego}{59}{subsection.4.4}}
\@writefile{lof}{\contentsline {figure}{\numberline {29.}{\ignorespaces Wyniki testu pami\IeC {\k e}ci dynamicznej dla serwer\IeC {\'o}w Host1 (a) oraz Host2 (b).}}{60}{figure.29}}
\newlabel{fig:29_last_test_memory}{{29}{60}{Wyniki testu pamięci dynamicznej dla serwerów Host1 (a) oraz Host2 (b)}{figure.29}{}}
\@writefile{lof}{\contentsline {subfigure}{\numberline{(a)}{\ignorespaces {}}}{60}{subfigure.29.1}}
\@writefile{lof}{\contentsline {subfigure}{\numberline{(b)}{\ignorespaces {}}}{60}{subfigure.29.2}}
\@writefile{lof}{\contentsline {figure}{\numberline {30.}{\ignorespaces Przebieg czasu oczekiwania procesora na odes\IeC {\l }anie dla maszyny VM2\_1 (a) oraz VM2\_3 (b).}}{61}{figure.30}}
\newlabel{fig:30_last_test_cpu}{{30}{61}{Przebieg czasu oczekiwania procesora na odesłanie dla maszyny VM2\_1 (a) oraz VM2\_3 (b)}{figure.30}{}}
\@writefile{lof}{\contentsline {subfigure}{\numberline{(a)}{\ignorespaces {}}}{61}{subfigure.30.1}}
\@writefile{lof}{\contentsline {subfigure}{\numberline{(b)}{\ignorespaces {}}}{61}{subfigure.30.2}}
\newlabel{fig:31_last_test_perfmon}{{\caption@xref {fig:31_last_test_perfmon}{ on input line 606}}{62}{}{figure.30}{}}
\@writefile{lof}{\contentsline {figure}{\numberline {31.}{\ignorespaces Fragment raportu Monitora Wydajno\IeC {\'s}ci.}}{62}{figure.31}}
\@writefile{lof}{\contentsline {figure}{\numberline {32.}{\ignorespaces Wyniki testu pami\IeC {\k e}ci dynamicznej dla serwer\IeC {\'o}w Host1 (a) oraz Host2 (b).}}{62}{figure.32}}
\newlabel{fig:32_last_test_memory_after}{{32}{62}{Wyniki testu pamięci dynamicznej dla serwerów Host1 (a) oraz Host2 (b)}{figure.32}{}}
\@writefile{lof}{\contentsline {subfigure}{\numberline{(a)}{\ignorespaces {}}}{62}{subfigure.32.1}}
\@writefile{lof}{\contentsline {subfigure}{\numberline{(b)}{\ignorespaces {}}}{62}{subfigure.32.2}}
\newlabel{fig:33_last_test_cpu_again}{{\caption@xref {fig:33_last_test_cpu_again}{ on input line 632}}{63}{}{figure.32}{}}
\@writefile{lof}{\contentsline {figure}{\numberline {33.}{\ignorespaces Przebieg czasu oczekiwania procesora na odes\IeC {\l }anie dla maszyny VM2\_3 po zmianie liczby procesor\IeC {\'o}w wirtualnych.}}{63}{figure.33}}
\@writefile{toc}{\contentsline {section}{\numberline {5\relax .\kern .5em }Podsumowanie}{64}{section.5}}
\bibcite{anomaly_detection}{1}
\bibcite{ranking}{2}
\bibcite{mona_lisa}{3}
\bibcite{jakis_framework}{4}
\bibcite{load_balancer}{5}
\bibcite{load_balancer}{6}
\bibcite{perf_counters}{7}
\bibcite{win32_perf_class}{8}
\bibcite{zabbix}{9}
\bibcite{app_admin_tools}{10}
\bibcite{pages}{11}
\bibcite{page_faults}{12}
\bibcite{disk_issues}{13}
\bibcite{heavy_load}{14}
\bibcite{diskspd}{15}
\bibcite{hyperv_architecture}{16}
\bibcite{hyperv_book}{17}
\bibcite{vm_cpu_usage}{18}
\@writefile{toc}{\contentsline {section}{Bibliografia}{66}{section*.2}}
\bibcite{counters_lp}{19}
\bibcite{counters_vp}{20}
\bibcite{smc}{21}
\bibcite{scheduler_types}{22}
\bibcite{cpu_performance}{23}
\bibcite{vmware}{24}
\bibcite{affinity}{25}
\bibcite{memory_dynamic}{26}
\bibcite{memory_dynamic}{27}
\bibcite{memory_dynamic}{28}
\@writefile{toc}{\contentsline {section}{Wykaz symboli i skr\IeC {\'o}t\IeC {\'o}w}{68}{section*.3}}
\@writefile{toc}{\contentsline {section}{Spis rysunk\IeC {\'o}w}{68}{section*.4}}
\@writefile{toc}{\contentsline {section}{Spis tabel}{69}{section*.5}}
\@writefile{toc}{\contentsline {section}{Spis za\IeC {\l }\IeC {\k a}cznik\IeC {\'o}w}{69}{section*.6}}
