\BOOKMARK [1][-]{section.1}{Wstep}{}% 1
\BOOKMARK [2][-]{subsection.1.1}{Cel oraz zakres pracy}{section.1}% 2
\BOOKMARK [2][-]{subsection.1.2}{Uklad pracy}{section.1}% 3
\BOOKMARK [1][-]{section.2}{Monitorowanie system\363w}{}% 4
\BOOKMARK [2][-]{subsection.2.1}{Przeglad literatury i dostepnych rozwiazan}{section.2}% 5
\BOOKMARK [2][-]{subsection.2.2}{Wybrane technologie monitorowania system\363w operacyjnych}{section.2}% 6
\BOOKMARK [3][-]{subsubsection.2.2.1}{Liczniki wydajnosci systemu Windows}{subsection.2.2}% 7
\BOOKMARK [3][-]{subsubsection.2.2.2}{Monitor wydajnosci}{subsection.2.2}% 8
\BOOKMARK [2][-]{subsection.2.3}{Oprogramowanie Zabbix}{section.2}% 9
\BOOKMARK [2][-]{subsection.2.4}{Sformulowanie zadania}{section.2}% 10
\BOOKMARK [1][-]{section.3}{Zabbix agent}{}% 11
\BOOKMARK [2][-]{subsection.3.1}{Funkcje programu}{section.3}% 12
\BOOKMARK [2][-]{subsection.3.2}{Architektura}{section.3}% 13
\BOOKMARK [2][-]{subsection.3.3}{Model danych}{section.3}% 14
\BOOKMARK [2][-]{subsection.3.4}{Proces tworzenia oprogramowania}{section.3}% 15
\BOOKMARK [3][-]{subsubsection.3.4.1}{Wersja 1.1: Podstawowe moduly }{subsection.3.4}% 16
\BOOKMARK [3][-]{subsubsection.3.4.2}{Wersja 2.1: Przesylanie danych miedzy bazami}{subsection.3.4}% 17
\BOOKMARK [3][-]{subsubsection.3.4.3}{Wersja 2.2: Przetwarzanie proces\363w}{subsection.3.4}% 18
\BOOKMARK [3][-]{subsubsection.3.4.4}{Wersja 2.3: Perfmon\137module}{subsection.3.4}% 19
\BOOKMARK [3][-]{subsubsection.3.4.5}{Wersja 3.1: Konfigurator agenta}{subsection.3.4}% 20
\BOOKMARK [1][-]{section.4}{Badania}{}% 21
\BOOKMARK [2][-]{subsection.4.1}{Konfiguracja agenta Zabbixa}{section.4}% 22
\BOOKMARK [3][-]{subsubsection.4.1.1}{Wyb\363r wykorzystywanych licznik\363w}{subsection.4.1}% 23
\BOOKMARK [3][-]{subsubsection.4.1.2}{Symulowanie obciazenia system\363w}{subsection.4.1}% 24
\BOOKMARK [3][-]{subsubsection.4.1.3}{Dob\363r wartosci prog\363w alarmowych}{subsection.4.1}% 25
\BOOKMARK [3][-]{subsubsection.4.1.4}{Wnioski}{subsection.4.1}% 26
\BOOKMARK [2][-]{subsection.4.2}{Weryfikacja dzialania Monitora Wydajnosci}{section.4}% 27
\BOOKMARK [3][-]{subsubsection.4.2.1}{Opis problemu}{subsection.4.2}% 28
\BOOKMARK [3][-]{subsubsection.4.2.2}{Rozwiazanie}{subsection.4.2}% 29
\BOOKMARK [2][-]{subsection.4.3}{Monitoring zasob\363w gospodarza i gosci w srodowisku zwirtualizowanym}{section.4}% 30
\BOOKMARK [3][-]{subsubsection.4.3.1}{Procesor}{subsection.4.3}% 31
\BOOKMARK [3][-]{subsubsection.4.3.2}{Pamiec}{subsection.4.3}% 32
\BOOKMARK [3][-]{subsubsection.4.3.3}{Dysk}{subsection.4.3}% 33
\BOOKMARK [2][-]{subsection.4.4}{Badanie obciazenia na gospodarzach srodowiska zwirtualizowanego}{section.4}% 34
\BOOKMARK [1][-]{section.5}{Podsumowanie}{}% 35
\BOOKMARK [1][-]{section*.2}{Bibliografia}{}% 36
\BOOKMARK [1][-]{section*.3}{Wykaz symboli i skr\363t\363w}{}% 37
\BOOKMARK [1][-]{section*.4}{Spis rysunk\363w}{}% 38
\BOOKMARK [1][-]{section*.5}{Spis tabel}{}% 39
\BOOKMARK [1][-]{section*.6}{Spis zalacznik\363w}{}% 40
