 0 1,2569 75,3477 38199 0,2325 0,7111 0 0,0003 0,0007
 10 1,2569 75,3477 38199 0,2325 0,7111 0 0,0003 0,0019
 20 9,5376 75,3477 38199 0 4,9426 0,8751 0 0,0049
 30 14,786 75,3477 38199 0 4,4981 0,6923 0 0,0014
 40 2,9802 75,3477 38199 0 1,894 0,4499 0 0,0018
 50 7,3897 75,3477 38199 0 3,1263 0,527 0 0,0018
 60 6,9139 75,3477 38199 0 2,3716 0,1217 0 0,0019
 70 4,9247 75,3477 38199 0 1,694 0,1303 0 0,0035
 80 7,6214 75,3477 38199 0,3469 3,3172 0,4313 0,0004 0,0016
 90 17,5068 75,3477 38199 5,2458 4,1805 0,1555 0,0017 0,0018
 100 8,2665 75,3477 38199 1,0781 3,6601 0,4442 0,0004 0,0008
 110 3,2297 75,3477 38199 0,4594 1,0594 0,1086 0,0003 0,0016
 120 6,9132 75,3477 38199 0 2,8344 0,1749 0 0,0015
 130 7,3177 75,3477 38199 0,4227 2,9941 0,1409 0 0,0023
 140 10,5871 75,3477 38199 0 4,2052 0,7662 0 0,0015
 150 3,0866 75,3477 38199 0 2,03 0,4584 0 0,0015
 160 4,5073 75,3477 38199 0 1,8905 0,1247 0 0,0033
 170 9,4701 75,3477 38199 0 3,3961 0,4254 0 0,0013
 180 2,6753 75,3477 38199 0 1,7407 0,1652 0 0,0029
 190 11,0095 75,3477 38199 0 3,3144 0,4122 0 0,0015
 200 5,2528 75,3477 38199 0 2,4207 0,1484 0 0,0026
 210 10,9274 75,3477 38199 0,6224 2,691 0,6312 0,0005 0,1203
 220 403,4057 75,3477 38199 7,3792 28,8876 4,6112 0,0436 0,2033
 230 467,122 75,3477 38199 5,7578 18,0251 1,7353 0,0592 0,2074
 240 401,0316 75,3477 38199 6,5268 14,9526 0,9106 0,0341 0,2308
 250 356,9003 75,3477 38199 0,8388 11,4719 0,6888 0,0139 0,2371
 260 400,5205 74,1211 37577,16 1,609 11,8894 0,6591 0,0285 0,207
 270 410,2335 70,2369 35608 3,1941 12,3035 0,8182 0,0417 0,2089
 280 410,1109 70,2369 35608 2,2897 13,7031 0,8932 0,0255 0,2198
 290 387,2779 70,2369 35608 5,5089 10,221 0,6166 0,0642 0,2102
 300 393,7313 70,2369 35608 2,5732 11,8168 0,5806 0,0235 0,2082
 310 357,9363 70,2369 35608 1,2325 11,8699 0,264 0,0162 0,1707
 320 367,3959 70,2369 35608 1,2471 17,8786 1,1822 0,0187 0,1811
 330 344,1969 70,2369 35608 1,0493 16,5963 0,485 0,0134 0,1841
 340 371,5785 70,2369 35608 2,7601 16,8466 0,8231 0,023 0,1869
 350 365,8153 70,2369 35608 3,1861 16,5658 0,8857 0,0291 0,1749
 360 374,4988 70,2369 35608 1,3064 16,7251 1,2819 0,0099 0,1687
 370 334,2493 70,2369 35608 1,7127 14,4274 1,1425 0,0108 0,1985
 380 362,2359 70,2369 35608 1,5658 15,5406 1,4016 0,0102 0,1926
 390 348,7553 70,2369 35608 1,6228 14,6592 0,7314 0,0077 0,1987
 400 576,224 70,2369 35608 33,8027 12,0131 0,9997 0,0864 0,2032
 410 482,3317 70,2369 35608 14,5017 15,6714 1,6085 0,0845 0,2034
 420 544,0158 70,2369 35608 23,9591 12,8678 0,964 0,0869 0,2177
 430 466,2735 70,2369 35608 13,7551 11,4999 0,9601 0,0861 0,2106
 440 489,2386 70,2369 35608 8,9869 12,4205 0,8645 0,0933 0,2149
 450 444,1627 70,2369 35608 10,9296 12,4207 0,8317 0,0931 0,2188
 460 479,2675 70,2369 35608 14,4291 11,9538 0,9599 0,0895 0,2192
 470 471,4071 70,2369 35608 9,7286 12,1299 1,352 0,1034 0,2128
 480 424,0534 70,2369 35608 5,1733 12,5216 0,4479 0,0583 0,1847
 490 354,8557 70,2369 35608 1,8379 14,0329 1,0389 0,0186 0,2006
 500 414,6783 70,2369 35608 10,2074 15,2788 1,2722 0,0613 0,2027
 510 523,0319 70,2369 35608 22,6364 14,5936 0,9077 0,0916 0,1846
 520 367,7162 48,3092 24491,3 2,1108 15,8549 0,9693 0,0122 0,1714
 530 358,1663 38,9116 19727 2,2775 16,1468 1,6111 0,0156 0,1796
 540 349,1112 38,9116 19727 2,8556 15,2729 0,795 0,0179 0,189
 550 410,6278 38,9116 19727 6,3199 16,2386 1,1654 0,0501 0,2034
 560 407,3334 38,9116 19727 5,7281 14,9392 0,909 0,0501 0,1752
 570 337,1302 38,9116 19727 2,0939 15,568 0,7103 0,0183 0,1746
 580 346,6091 38,9116 19727 2,5482 15,8938 0,9816 0,0215 0,1698
 590 402,482 38,9116 19727 2,996 18,8966 1,6061 0,0196 0,1724
 600 349,1917 38,9116 19727 3,4174 17,4825 1,7866 0,0115 0,1807
 610 377,8817 38,9116 19727 5,5114 17,6703 1,6847 0,0327 0,1873
 620 391,7076 38,9116 19727 4,6083 17,5654 1,3534 0,0328 0,1619
 630 355,4243 38,9116 19727 3,916 17,3956 1,2095 0,0185 0,164
 640 325,4763 38,9116 19727 1,7633 16,166 1,4591 0,0086 0,1761
 650 488,7539 38,9116 19727 21,5282 15,2752 0,8821 0,0683 0,1797
 660 460,2383 38,9116 19727 17,5636 14,9123 0,9954 0,0733 0,1993
 670 464,4018 38,9116 19727 13,2534 17,5068 1,2801 0,0638 0,1588
 680 331,4019 38,9116 19727 2,3195 18,191 1,1526 0,0133 0,1691
 690 390,0258 38,9116 19727 8,7343 17,6423 1,5805 0,0428 0,1659
 700 347,0385 38,9116 19727 1,6017 16,3897 1,126 0,013 0,1799
 710 368,7262 38,9116 19727 3,1826 16,9352 0,6976 0,0147 0,1573
 720 429,4781 38,9116 19727 14,9677 19,0994 2,474 0,0591 0,1518
 730 497,3429 38,9116 19727 27,3373 17,9994 0,7422 0,0709 0,1402
 740 360,6176 38,9116 19727 3,9583 21,4408 2,0825 0,0158 0,1373
 750 312,3421 38,9116 19727 1,0248 20,9215 0,9372 0,0056 0,1236
 760 325,1627 38,9116 19727 2,2253 24,3135 1,3874 0,0055 0,1185
 770 341,6849 36,0545 18278,52 1,7596 28,0882 1,5421 0,0026 0,0953
 780 309,7021 3,1974 1621 2,3607 30,8094 0,9824 0,0036 0,1013
 790 338,1358 3,1974 1621 2,2775 30,8451 1,7927 0,0041 0,1069
 800 354,9001 3,1974 1621 9,9821 25,7275 0,903 0,0212 0,188
 810 382,1877 3,1974 1621 37,5674 13,803 3,5691 0,053 0,1908
 820 384,0403 3,1974 1621 42,0766 9,7201 3,3843 0,0499 0,216
 830 556,1304 3,1974 1621 79,9472 9,63 1,8671 0,0552 0,2023
 840 552,3135 3,1974 1621 81,7443 8,9157 1,9773 0,0619 0,1918
 850 587,3502 3,1974 1621 101,102 8,6951 1,0903 0,0582 0,1671
 860 489,6998 3,1974 1621 127,8636 20,204 2,2328 0,0283 0,0716
 870 241,9972 3,1974 1621 38,5813 63,8606 1,2542 0,006 0,0765
 880 246,2995 3,1974 1621 98,1484 52,991 0,1795 0,0035 0,0033
 890 34,8268 3,1974 1621 25,3183 9,6117 0,2672 0,0019 0,0033
 900 126,2788 3,1974 1621 131,1706 3,2341 0,8407 0,0091 0,0018
 910 211,0513 3,1974 1621 164,5633 0,8688 0,8105 0,0155 0,0129
 920 78,4819 3,1974 1621 24,3305 8,5344 4,8371 0,0094 0,002
 930 8,4844 3,1974 1621 0,6138 3,6451 0,4554 0,0003 0,0037
 940 13,9617 3,1974 1621 2,063 4,9708 0,9993 0,0011 0,0017
 950 4,8505 3,1974 1621 1,1735 2,5699 0,6125 0,0003 0,0028
 960 47,6577 3,1974 1621 25,3325 3,1022 0,4654 0,0041 0,0019
 970 70,1214 3,1974 1621 24,0996 2,6854 0,1729 0,01 0,0008
 980 1,6367 3,1974 1621 0,1169 1,0429 0,1271 0,0003 0,0018
 990 30,9767 3,1974 1621 43,6512 3,0752 0,2835 0,0017 0,0023
 1000 24,9849 3,1974 1621 39,8056 2,9633 0,3194 0,001 0,0007
 1010 1,8603 3,1974 1621 0,0263 1,1535 0,1315 0,0002 0
