 0 0 0,0065 0,0065 152,5757 0,7729 4,2007 148,4084 35931,39 2395896 0 8664 258560,1
 10 0 0,003 0,003 23,7243 0,2046 2,3781 21,3558 12758,93 562459,5 0 8673,540000000001 258597,4
 20 0 0,0025 0,0025 2,5604 0,0653 1,8286 0,7341 9829,139999999999 18422,08 0 8676,33 258619,6
 30 0 0,0047 0,0047 9,501300000000001 0,1749 4,0192 5,479 32783,55 145819,8 0 8682,459999999999 258654,6
 40 0 0,0033 0,0033 4,8444 0,1073 4,8418 0 30059,69 0 0 8691,370000000001 258703,8
 50 0 0,0021 0,0021 2,2839 0,0496 2,1931 0,0912 13908,93 2989,465 0 8698,450000000001 258740
 60 0 0,0027 0,0027 4,9348 0,1202 4,7512 0,183 23882,12 5990,583 0 8705,540000000001 258781,5
 70 0 0,0032 0,0032 25,6693 0,2027 3,8422 21,8197 24830,53 368954,8 0 8713,1 258822
 80 0 0,0032 0,0032 14,6936 0,1163 2,1016 12,5868 32192,4 310457,1 0 8717,98 258864,9
 90 0 0,0028 0,0028 6,5863 0,1533 6,2213 0,3654 31868,37 1498,9 0 8723,879999999999 258916,4
 100 0 0,0022 0,0022 6,8547 0,0883 4,0209 2,8338 22359,26 90907,66 0 8731,379999999999 258961,1
 110 0 0,0023 0,0023 2,1017 0,0426 1,9186 0,183 12608,35 7133,534 0 8736,709999999999 259000
 120 0 0,0032 0,0032 5,2985 0,1189 5,116 0,1829 33417,44 3370,012 0 8745,32 259047,6
 130 0 0,0035 0,0035 4,4796 0,1133 4,4792 0 25543,38 0 0 8753,68 259084,6
 140 0 0,0016 0,0016 3,6623 0,047 3,4784 0,1833 20265,12 1877,328 0 8760,030000000001 259119,5
 150 0 0,0018 0,0018 2,2896 0,06279999999999999 2,2906 0 14360,41 0 0 8768,33 259165,4
 160 0 0,0019 0,0019 3,1101 0,07679999999999999 3,11 0 15780,64 0 0 8771,879999999999 259185
 170 0 0,0012 0,0012 3,0181 0,0441 3,018 0 18310,29 0 0 8778,23 259221,1
 180 0 0,0017 0,0017 5,4831 0,0818 3,2923 2,193 21459,13 71884 0 8786,360000000001 259262,6
 190 0 0,0014 0,0014 5,1138 0,0727 2,9253 2,189 16439,52 72847,28 0 8792,26 259290,5
 200 0 0,0032 0,0032 4,8383 0,0881 3,4722 1,3658 25517,3 42145,8 0 8800,549999999999 259331,5
 210 0 0,0018 0,0018 3,1996 0,0622 3,0176 0,1829 15933,18 748,9728 0 8807,85 259369,7
 220 0 0,0013 0,0013 3,0164 0,0439 2,2868 0,7301 13252,35 23208,52 0 8811,32 259390,3
 230 0 0,0043 0,0043 4,5705 0,0766 3,0178 1,5483 18864,63 45536,96 0 8818,469999999999 259432,3
 240 0 0,0368 0,0368 3,5654 0,4512 3,5656 0 20728,02 0 0 8824,52 259464,8
 250 0 0,0441 0,0441 3,9301 0,5773 3,8411 0,09080000000000001 19819,8 2602,952 0 8829,280000000001 259492,1
 260 0 0,0466 0,0466 4,6664 0,5534 3,3879 1,2805 18609,85 40077,82 0 8837,09 259535,7
 270 0 0,041 0,041 4,0241 0,699 3,8444 0,1831 24479,97 7883,624 0 8844,82 259576,5
 280 0 0,0243 0,0243 4,0268 0,4767 4,0298 0 55253,87 0 0 8850,690000000001 259612,8
 290 0 0,0384 0,0384 3,656 0,4412 2,1923 1,4633 12631,75 47611,37 0 8856,52 259649,6
 300 0 0,0464 0,0464 6,7658 0,8082 4,0262 2,7437 25183,44 60592,36 0 8862,530000000001 259689,4
 310 0 0,0492 0,0492 6,2187 0,7631 4,8444 1,3734 25799,88 45002,93 0 8869,299999999999 259728,9
 320 0 0,0713 0,0696 6,7596 0,8297 5,8478 0,9116 38970,61 3735,054 0 8878,879999999999 259789,4
 330 0 0,0635 0,0635 6,2191 0,924 5,9453 0,2736 32382,52 2998,855 0 8886,77 259868,7
 340 0 0,0392 0,0392 4,9375 0,5265 4,9368 0 27326,16 0 0 8895,93 259923,9
 350 0 0,0125 0,0125 1,5541 0,1469 1,4625 0,09130000000000001 7588,711 5983,509 0 8899,51 259950,2
 360 0 0,0242 0,0242 3,8405 0,3693 3,4745 0,3653 19558,33 11982,49 0 8905,440000000001 259980,2
 370 0 0,026 0,026 4,8479 0,4047 4,7554 0,0917 26326,68 1126,364 0 8914,129999999999 260022,7
 380 0 0,0196 0,0196 2,0115 0,2494 2,0116 0 11986,06 0 0 8920,32 260057,2
 390 0 0,0447 0,0441 5,3046 0,6677999999999999 5,0295 0,2741 25121,04 1121,696 0 8927,68 260098
 400 0 0,0132 0,0132 3,3839 0,236 3,384 0 23736,94 0 0 8936,360000000001 260141,7
 410 0 0,0173 0,0173 1,9222 0,2031 1,9229 0 11170,24 0 0 8943,059999999999 260175,5
 420 0 0,0471 0,0471 11,8781 0,88 3,3801 8,495200000000001 18703,65 148594,1 0 8948,969999999999 260206,7
 430 0 0,0794 0,0794 21,5677 1,5131 3,4712 18,0928 19325,3 142201,7 0 8955,59 260241,5
 440 0 0,0297 0,0297 7,9574 0,4476 2,1023 5,8541 14979,16 24728,76 0 8961,51 260278,4
 450 0 0,0382 0,0382 4,6632 0,6434 4,6667 0 34121,88 0 0 8968,049999999999 260317,8
 460 0 0,0291 0,0291 4,394 0,5397999999999999 4,3934 0 23507,84 0 0 8975,34 260357,2
 470 0 0,009599999999999999 0,009599999999999999 1,0964 0,1349 1,0958 0 8068,539 0 0 8981 260389,7
 480 0 0,0328 0,0328 4,2936 0,4937 4,2924 0 24192,7 0 0 8987,040000000001 260423,2
 490 0 0,0124 0,0139 3,2021 0,2561 3,1107 0,09080000000000001 18643,48 371,7412 0 8993,389999999999 260453,4
 500 0 0,0232 0,0232 3,203 0,2961 3,2032 0 20075,7 0 0 9000,43 260488,1
 510 0 0,0228 0,0228 3,9287 0,3561 3,9291 0 21682,92 0 0 9009 260538,6
 520 0 0,036 0,036 4,9391 0,4935 2,9266 2,0127 14852,31 65557,53 0 9014,43 260568,5
 530 0 0,0147 0,0147 3,7492 0,2361 3,7482 0 24563,28 0 0 9022,129999999999 260607,2
 540 0 0,0169 0,0169 3,1995 0,2847 3,1982 0 16663,55 0 0 9031,27 260653,9
 550 0 0,0401 0,0401 9,3314 0,8672 3,1994 6,1339 31590,33 211527,4 0 9035,299999999999 260677,6
 560 0 0,0265 0,0265 3,6544 0,3505 3,4696 0,1824 22478 7100,146 0 9042,780000000001 260722,8
 570 0 0,0307 0,0305 5,8586 0,5169 3,8473 2,0124 19752,21 65573,17 0 9048,889999999999 260763
 580 0 0,0253 0,0253 4,2963 0,4353 4,1157 0,1824 22247,98 4456,494 0 9054,59 260795,7
 590 0 0,0269 0,0269 3,6619 0,3266 3,6623 0 22763,42 0 0 9063,84 260844
 600 0 0,0358 0,0358 5,8529 0,6231 4,482 1,3712 24257,46 24530,95 0 9072,52 260884,9
 610 0 0,0338 0,0338 6,2126 0,539 3,4742 2,7369 22440,44 86729,73 0 9078,18 260927,7
 620 0 0,0092 0,0092 1,8287 0,1154 1,8288 0 11406,3 0 0 9084,379999999999 260958,8
 630 0 0,0281 0,0281 3,2041 0,353 3,2049 0 17388,25 0 0 9090,219999999999 260991
 640 0 0,0335 0,0333 5,9433 0,504 4,6603 1,2796 26109,69 41923,89 0 9097,059999999999 261027,6
 650 0 0,0104 0,0104 1,9219 0,1293 1,9216 0 11548,46 0 0 9104,860000000001 261068,9
 660 0 0,0174 0,0174 3,0179 0,2814 3,0191 0 19532,24 0 0 9110,09 261101,3
 670 0 0,0235 0,0234 5,2191 0,4334 5,129 0,09180000000000001 29699,39 752,204 0 9118,049999999999 261144,3
 680 0 0,013 0,013 2,1951 0,1749 2,1033 0,09130000000000001 11247,66 2243,556 0 9122,73 261171,6
 690 0 0,0153 0,0153 3,4738 0,2501 3,2904 0,1826 18401,43 748,0323 0 9129,92 261204,6
 700 0 0,0316 0,0316 4,3848 0,4782 4,384 0 28355,57 0 0 9138,540000000001 261245,6
 710 0 0,0125 0,0125 2,1046 0,1549 2,1054 0 13173,41 0 0 9145,629999999999 261280,4
 720 0 0,0483 0,0473 6,4879 0,6695 4,566 1,92 23143,23 61050,41 0 9151,790000000001 261321,1
 730 0 0,0213 0,0213 3,4714 0,3428 3,3787 0,0916 18859,19 6006,85 0 9160,190000000001 261365,5
 740 0 0,0053 0,0053 1,1892 0,063 0,7306 0,4587 5908,419 23297,41 0 9164,370000000001 261388,5
 750 0 0,0614 0,0614 8,047700000000001 0,7654 3,7513 4,2979 22778,7 135825,6 0 9169,26 261413,6
 760 0 0,0178 0,0178 3,6543 0,2928 3,565 0,09089999999999999 18947,15 1116,393 0 9177,91 261455,6
 770 0 0,0217 0,0217 2,1944 0,2438 2,1948 0 15085,17 0 0 9183,639999999999 261488,9
 780 0 0,029 0,029 5,6689 0,4962 5,6685 0 30787,83 0 0 9191,709999999999 261537
 790 0 0,0198 0,0198 3,6571 0,262 3,565 0,0914 18826,06 374,4798 0 9198,43 261574,4
 800 0 0,0159 0,0159 3,9325 0,2414 2,4706 1,4612 14640,72 45932,02 0 9203,26 261603,6
 810 0 0,0151 0,0151 3,1054 0,2593 3,1055 0 20535,43 0 0 9211,57 261649,4
 820 0 0,011 0,0109 3,2895 0,2007 3,2893 0 18966,2 0 0 9215 261671
 830 0 0,0141 0,0141 4,0241 0,2107 3,7476 0,2749 44049,71 10464,54 0 9222,5 261712,5
 840 0 0,0086 0,0086 3,2931 0,1549 3,2935 0 18395,06 0 0 9230,309999999999 261758,4
 850 0 0,0069 0,0069 3,1044 0,148 3,1041 0 15602,92 0 0 9235,92 261786,3
 860 0 0,0097 0,0097 3,3845 0,1703 3,2911 0,0927 20869,3 380,9654 0 9242,780000000001 261824,4
 870 0 0,011 0,0111 3,0183 0,1947 3,0177 0 16592,24 0 0 9250,139999999999 261866
 880 0 0,0115 0,0115 4,0217 0,2187 3,6555 0,3652 19941,35 10101,87 0 9255,92 261896,8
 890 0 0,0129 0,0129 3,0136 0,1931 2,9231 0,0914 17490,53 5987,169 0 9261,07 261928,6
 900 0 0,008200000000000001 0,008200000000000001 4,0259 0,1847 2,4727 1,5554 15368,79 17805,32 0 9266,43 261956,5
 910 0 0,0283 0,0283 6,3987 0,4592 5,2112 1,1866 32185,69 36289,91 0 9272,25 261992,6
 920 0 0,0288 0,0336 7,1305 0,5357 3,8394 3,2907 22841,99 106091,7 0 9281,950000000001 262052,2
 930 0 0,007900000000000001 0,007900000000000001 3,4728 0,1757 3,4726 0 19078,3 0 0 9289,450000000001 262094,7
 940 0 0,0077 0,0077 4,8464 0,1797 4,845 0 28118,5 0 0 9296,23 262133,4
 950 0 0,0009 0,0011 1,0051 0,0191 1,005 0 8478,593000000001 0 0 9302,530000000001 262167,4
 960 0 0,0018 0,0018 2,7427 0,0548 2,7426 0 15169,21 0 0 9306,549999999999 262195
 970 0 0,0048 0,0048 4,4804 0,1291 4,1143 0,3663 25839,78 9016,628000000001 0 9314,389999999999 262228,9
 980 0 0,0028 0,0028 1,6456 0,0583 1,6464 0 10767,54 0 0 9320,68 262260,8
 990 0 0,0038 0,0038 4,8431 0,1286 4,8435 0 25919,21 0 0 9328,940000000001 262303,9
 1000 0 0,0023 0,0023 7,0358 0,1117 6,0328 1,0019 34988,77 32843,41 0 9338,790000000001 262361,4
 1010 0 0,0009 0,0009 2,3751 0,0261 1,9155 0,4551 12237,76 11571,11 0 9344,110000000001 262390,8
 1020 0 0,0021 0,0021 2,744 0,0672 2,7445 0 15851,74 0 0 9349,280000000001 262422
 1030 0 0,0013 0,0013 3,0201 0,0507 3,0202 0 18618,86 0 0 9354,440000000001 262449,7
 1040 0 0,0072 0,0073 42,8993 0,4852 2,469 40,4321 21166,06 838016,9 0 9360,959999999999 262479,4
 1050 0 0,002 0,002 5,2983 0,0951 5,0219 0,276 25806,57 1130,368 0 9370,6 262533,1
 1060 0 0,0022 0,0022 3,6602 0,0713 2,9288 0,7314000000000001 20736,17 8612,522000000001 0 9377,530000000001 262569


