VHDX             
 0 0 0,0037 0,0037 4,666 0,1292 4,2007 1,5535 18727,24 51815,43 0 10049,39 268013,3
 10 0 0,0028 0,0028 2,0047 0,0452 2,3781 0,2748 17901,89 6377,241 0 10061,71 268059,6
 20 0 0,0013 0,0013 3,7404 0,0761 1,8286 0 27271,51 0 0 10066,4 268087,4
 30 0 0,0035 0,0035 5,1164 0,1294 4,0192 0 38260,76 0 0 10072,42 268125,1
 40 0 0,0028 0,0028 3,7494 0,0896 4,8418 0 25471,05 0 0 10081,75 268184,6
 50 0 0,0017 0,0017 3,4798 0,0808 2,1931 0 23233,07 0 0 10087,67 268218,4
 60 0 0,0024 0,0024 4,6693 0,0936 4,7512 0 32638,39 0 0 10093,84 268252,5
 70 0 0,001 0,001 1,7377 0,0283 3,8422 0 13101,58 0 0 10102,92 268298,6
 80 0 0,0029 0,0029 3,3819 0,0741 2,1016 0,1829 21703,07 5973,52 0 10108,29 268326,3
 90 0 0,0057 0,0057 11,3403 0,226 6,2213 4,2987 51281,95 110908,5 0 10116,08 268373,9
 100 0 0,001 0,001 3,4634 0,0362 4,0209 1,4578 14943,45 31644,36 0 10122,96 268432,6
 110 0 0,0017 0,0017 5,2066 0,0849 1,9186 1,0974 21712,31 35958,25 0 10130,16 268470,3
 120 0 0,0032 0,0032 5,7633 0,1333 5,116 0,5506 31869,06 16912,09 0 10141,21 268518,8
 130 0 0,0009 0,0009 2,1956 0,0261 4,4792 0 14999,88 0 0 10149,01 268563,9
 140 0 0,0026 0,0026 7,952 0,1257 3,4784 1,3707 42674,62 41930,37 0 10155,52 268601,7
 150 0 0,0015 0,0015 2,7451 0,0805 2,2906 0 16160,8 0 0 10163,6 268651,7
 160 0 0,0014 0,0013 2,1013 0,0304 3,11 0 16086,58 0 0 10167,38 268678,7
 170 0 0,0021 0,0021 3,8407 0,0767 3,018 0 20626,6 0 0 10174,03 268711,5
 180 0 0,0026 0,0025 3,6589 0,0953 3,2923 0 21377,73 0 0 10181,54 268748,4
 190 0 0,0013 0,0013 2,1017 0,0314 2,9253 0 16453,25 0 0 10189,11 268788,1
 200 0 0,0036 0,0036 5,5816 0,1432 3,4722 0 37867,69 0 0 10196,37 268834,6
 210 0 0,0012 0,0012 3,3829 0,0638 3,0176 0 19106,14 0 0 10203,78 268873,9
 220 0 0,0009 0,0009 1,6466 0,0303 2,2868 0 11588 0 0 10209,43 268908,8
 230 0 0,0789 0,0789 28,0553 2,7181 3,0178 5,0237 28059050 95743,83 0 10215,3 269011
 240 0 0,1254 0,1254 40,608 4,7744 3,5656 9,3263 48950220 196965,3 0 10220,47 269336,6
 250 0 0,1414 0,1414 23,9354 3,0277 3,8411 9,12 41001270 456729,8 0 10228,28 269591,6
 260 0 0,1506 0,1506 18,4639 2,9627 3,3879 2,2839 43801550 85008,9 0 10234,45 269767,7
 270 0 0,1437 0,1436 15,1892 2,547 3,8444 0,7298 43842480 7295,063 0 10240,44 269923,5
 280 0 0,134 0,1339 15,6329 2,4322 4,0298 2,1944 45443690 26614,71 0 10245,99 270076,5
 290 0 0,1475 0,1463 17,5543 2,7385 2,1923 3,2902 45843130 78297,7 0 10251,68 270230,1
 300 0 0,1357 0,1356 17,4696 2,7016 4,0262 1,5457 42278650 71027,72 0 10259,72 270394,1
 310 0 0,1316 0,1336 18,2871 2,58 4,8444 5,4832 42752750 286696,5 0 10266,31 270554,3
 320 0 0,1417 0,1417 18,0029 2,7471 5,8478 3,9287 42564270 194415,5 0 10273,12 270700,3
 330 0 0,1372 0,1342 14,4431 2,2169 5,9453 0,9157 43343890 18375,98 0 10279,64 270847,3
 340 0 0,1081 0,1083 19,9278 2,1759 4,9368 1,1881 64718540 7952,819 0 10285,58 271021,5
 350 0 0,093 0,093 21,302 1,94 1,4625 1,2794 73394430 10577,16 0 10291,91 271250,9
 360 0 0,1018 0,1017 24,036 2,4244 3,4745 2,1886 67244900 18643,84 0 10299,3 271464,4
 370 0 0,0909 0,0909 22,1274 1,9771 4,7554 3,6565 70861220 77681,52 0 10306,97 271684
 380 0 0,1025 0,1024 22,6688 2,2226 2,0116 3,2977 71069260 36949,63 0 10311,88 271903,2
 390 0 0,1131 0,1136 21,5782 2,4364 5,0295 1,9221 63240360 11897,21 0 10317,02 272111,3
 400 0 0,0959 0,0958 19,0074 1,7764 3,384 1,2812 70466270 4871,031 0 10324,54 272313,1
 410 0 0,1044 0,1043 20,7514 2,1934 1,9229 1,92 65378150 9444,682 0 10330,26 272511
 420 0 0,111 0,111 19,6582 2,1753 3,3801 1,2801 58648210 9241,217 0 10339,85 272715
 430 0 0,1053 0,1056 47,7076 4,1866 3,4712 32,7996 53605560 900765,4 0 10346,01 272900
 440 0 0,1098 0,1098 32,8245 3,306 2,1023 14,2617 58384730 323432,8 0 10353,83 273082
 450 0 0,1189 0,1189 40,5875 4,1322 4,6667 26,2387 52998250 522064,9 0 10360,6 273261,9
 460 0 0,1155 0,1174 27,4215 3,018 4,3934 13,8892 48508420 211041,1 0 10365,8 273422,1
 470 0 0,1475 0,1475 27,2391 3,8662 1,0958 11,4279 45248920 173865,1 0 10372,65 273580,3
 480 0 0,1401 0,1401 23,23 3,18 4,2924 9,3318 45714810 192719,5 0 10378,32 273733
 490 0 0,1178 0,1175 29,905 3,3067 3,1107 15,4614 47310980 258139,7 0 10384,16 273897,8
 500 0 0,1337 0,1336 25,1553 3,1274 3,2032 10,1561 48338890 100327,9 0 10390 274053,6
 510 0 0,1383 0,1383 25,0361 3,717 3,9291 9,4048 44778960 325144,1 0 10398,66 274216,8
 520 0 0,1297 0,1297 16,3513 2,1071 2,9266 2,7443 48696960 52043,67 0 10405,91 274380
 530 0 0,106 0,106 19,2005 1,9419 3,7482 1,4623 62504040 12289,63 0 10411,95 274547
 540 0 0,1074 0,1075 34,221 3,4784 3,1982 14,1895 63309480 379237,8 0 10418,66 274752
 550 0 0,1011 0,1011 38,5816 3,4758 3,1994 23,045 58017230 591837,3 0 10428,51 274957
 560 0 0,1005 0,1004 21,0268 2,0884 3,4696 1,3692 72550390 5875,692 0 10433,21 275147,9
 570 0 0,1022 0,1022 22,0284 2,1325 3,8473 2,4674 62488080 24112,12 0 10441,34 275362
 580 0 0,0935 0,0932 21,5784 1,9035 4,1157 3,019 70650250 113601,2 0 10449,38 275576,4
 590 0 0,1081 0,108 25,3286 2,7182 3,6623 6,6742 64688390 307366,7 0 10454,76 275773,7
 600 0 0,1043 0,1042 23,1314 2,3986 4,482 5,5795 64286650 160570,8 0 10460,98 275972,6
 610 0 0,095 0,095 22,4917 2,1536 3,4742 3,476 70070110 47259,18 0 10467,09 276173,8
 620 0 0,0894 0,0894 23,1279 2,001 1,8288 2,5586 75978780 26395,73 0 10473,19 276387,6
 630 0 0,1053 0,1052 22,8527 2,3902 3,2049 2,3709 67495040 14623,85 0 10478,9 276602,5
 640 0 0,088 0,088 21,9458 1,8605 4,6603 2,6531 66853300 34342,09 0 10488,5 276833,2
 650 0 0,084 0,084 26,519 2,1813 1,9216 5,9475 72768430 62341,12 0 10494,71 277051,7
 660 0 0,0932 0,0931 24,5924 2,2757 3,0191 3,7474 67526590 32462,44 0 10502,06 277271
 670 0 0,0799 0,08 25,1389 1,9536 5,129 6,0348 66205900 182268,7 0 10510,8 277494,3
 680 0 0,0907 0,0907 21,9426 1,9988 2,1033 2,1922 69280140 47811,32 0 10516,72 277715,3
 690 0 0,0951 0,095 25,5808 2,3241 3,2904 4,4685 63127550 71593,92 0 10524,3 277929,6
 700 0 0,0892 0,0892 41,6907 3,4571 4,384 25,221 56151040 642763,5 0 10530,75 278129,6
 710 0 0,0877 0,0878 35,3804 2,9234 2,1054 17,188 59898120 285247,7 0 10535,23 278325,3
 720 0 0,101 0,1001 32,5505 3,1206 4,566 12,7074 59754900 132042,3 0 10542,08 278528
 730 0 0,0748 0,0748 21,2116 1,5166 3,3787 2,4629 73355420 37489,45 0 10549,37 278740,9
 740 0 0,0831 0,0831 29,445 2,3038 0,7306 10,4258 68673540 196401,5 0 10555,15 278942
 750 0 0,1027 0,1027 19,7491 1,9786 3,7513 3,2001 58939850 53083,18 0 10564,3 279144,9
 760 0 0,0732 0,0745 17,1827 1,1893 3,565 0,8239 59588900 2904,854 0 10568,29 279326,3
 770 0 0,0886 0,0886 27,5117 2,3805 2,1948 8,8656 59025190 133802,5 0 10573,48 279512,5
 780 0 0,0717 0,0717 40,1405 2,7214 5,6685 21,2169 55685950 321446,9 0 10581,6 279722
 790 0 0,0718 0,0717 39,9371 2,675 3,565 21,9343 50886490 285711,1 0 10587,04 279924,5
 800 0 0,0728 0,0728 25,4173 1,8762 2,4706 2,288 53009330 35229,92 0 10594,56 280151,8
 810 0 0,0578 0,0577 26,6979 1,4712 3,1055 2,6509 57754020 63457,98 0 10602,63 280389,4
 820 0 0,0544 0,0544 24,4076 1,2672 3,2893 1,4609 52309680 11921,95 0 10608,55 280661,8
 830 0 0,044 0,044 30,4426 1,322 3,7476 1,2801 50728790 7498,348 0 10614,62 280943,2
 840 0 0,0361 0,0361 34,4672 1,2417 3,2935 2,5562 52347590 28154,22 0 10619,61 281272,7
 850 0 0,044 0,044 32,0909 1,3777 3,1041 3,294 44322620 58339,58 0 10626,39 281614,7
 860 0 0,0445 0,0445 37,95 1,6866 3,2911 10,6095 41877670 209819 0 10634,63 281918,1
 870 0 0,0638 0,0638 54,363 2,1361 3,0177 39,7369 31411050 1119799 0 10640,48 282165,3
 880 0 0,064 0,064 51,2811 1,9166 3,6555 38,3902 27647210 1167533 0 10648,76 282306,4
 890 0 0,0638 0,0633 89,933 3,7886 2,9231 78,9689 33779380 1464082 0 10653,23 282431,6
 900 0 0,0735 0,0735 94,3749 3,8233 2,4727 85,0446 24571930 1606027 0 10658,17 282543,8
 910 0 0,0713 0,0711 114,1593 4,5472 5,2112 102,2566 24605990 2364378 0 10667,44 282659
 920 0 0,0677 0,0677 134,472 4,4241 3,8394 125,0575 24573750 2346425 0 10673,69 282768,3
 930 0 0,0169 0,0169 109,453 1,6562 3,4726 64,9181 1401926 2920087 0 10684 282984,5
 940 0 0,0113 0,0113 142,4444 1,1354 4,845 101,9471 651731,3 2293650 0 10691,77 283640,6
 950 0 0,0079 0,0079 101,8397 0,753 1,005 38,1046 1244340 563471,7 0 10697,06 284123,4
 960 0 0,0056 0,0056 57,2068 0,4313 2,7426 52,636 30303,24 1031144 0 10704,26 284477,6
 970 0 0,0105 0,0105 139,3056 1,4261 4,1143 135,079 22436,59 3667001 0 10711,33 284520,4
 980 0 0,0144 0,0144 155,4272 1,9406 1,6464 153,4042 15381,61 6835936 0 10718,12 284564,9
 990 0 0,0176 0,0176 43,1735 1,1205 4,8435 28,3641 2969859 864976,9 0 10725,39 284673,9
 1000 0 0,0019 0,0019 3,6605 0,07 6,0328 0,7303 21144,32 15667,21 0 10731,15 284744
 1010 0 0,0018 0,0018 4,1147 0,0552 1,9155 0,7365 22437,09 16956,89 0 10737,08 284783
 1020 0 0,0036 0,0036 7,3146 0,1357 2,7445 1,6473 34872,17 40445,02 0 10746,89 284836,3
 1030 0 0,0013 0,0013 4,8479 0,0716 3,0202 1,5535 19136,25 6373,172 0 10753,26 284872,8
 1040 0 0,0109 0,0109 57,6962 0,745 2,469 53,7606 25459,92 919594,8 0 10759,89 284912,3
 1050 0 0,0017 0,0018 4,1158 0,0731 5,0219 0,6393 23620,72 5232,17 0 10770,55 284960,8
 1060 0 0,0011 0,0011 2,0957 0,0474 2,9288 0 11201,7 0 0 10775,35 284985,7
