differencing 0 0 0,0049 0,0049 185,3304 0,7586 0 181,7755 74102,04 4197530 0 783,76 7755,93
 10 0 0,0065 0,0065 88,5139 0,6788 0 79,3538 98098,42 1745461 0 801,94 7846,87
 20 0 0,002 0,0018 6,487 0,1493 0 1,7361 31777,03 47379,89 0 808,8 7918,62
 30 0 0,0026 0,0026 5,797 0,1121 0 0,4673 44361,84 10732,36 0 816,26 7966,25
 40 0 0,002 0,002 14,6273 0,1254 0 10,785 25086,99 286254,6 0 824,84 8024,17
 50 0 0,0117 0,0117 77,8189 1,0228 0 50,6575 1113680 3016089 0 831,33 8215,85
 60 0 0,0044 0,0044 8,5013 0,1897 0 0,3664 50187,27 11630,06 0 838,31 8360,32
 70 0 0,001 0,001 1,0064 0,019 0 0,1836 6390,237 3380,527 0 846,75 8420,67
 80 0 0,0024 0,0024 4,2087 0,1047 0 0,8226 17613,15 15359,23 0 850,45 8445,37
 90 0 0,0021 0,0021 4,9403 0,1027 0 0,2736 25866,68 3406,373 0 857,35 8480,14
 100 0 0,001 0,001 2,4702 0,0371 0 0,4546 17633,05 10053,97 0 865,32 8523,99
 110 0 0,0017 0,0017 3,744 0,0753 0 0,0909 19446,83 2981,427 0 873,7 8559,29
 120 0 0,0019 0,0019 5,1169 0,1015 0 0 27899,46 0 0 881,88 8600,39
 130 0 0,0007 0,0007 0,6376 0,0109 0 0 2985,698 0 0 887,74 8636,13
 140 0 0,0016 0,0016 2,9211 0,0567 0 0,0915 16430,21 2999,31 0 892,86 8660,29
 150 0 0,0023 0,0023 4,3909 0,096 0 0 25098,37 0 0 900,64 8698,42
 160 0 0,0018 0,0018 3,933 0,058 0 0,2745 20641,16 3373,539 0 907,61 8738,88
 170 0 0,0019 0,0019 4,5738 0,0874 0 0,0914 24733,5 3005,991 0 914,84 8772,46
 180 0 0,0015 0,0015 1,8252 0,0333 0 0,819 5252,165 17895,48 0 922,67 8812,14
 190 0 0,0019 0,0019 3,2911 0,0727 0 0 19457,17 0 0 927,22 8839,04
 200 0 0,0021 0,0021 4,5658 0,1146 0 0 25476,95 0 0 933,79 8873,78
 210 0 0,001 0,001 1,8271 0,0289 0 0 10483,68 0 0 940,66 8913,73
 220 0 0,0148 0,0148 9,9675 0,3672 0 6,7669 17236,3 136286,8 0 946,43 8947,51
 230 0 0,032 0,032 106,3704 1,4434 0 101,2526 31168 4173052 0 953,57 8985,19
 240 0 0,0359 0,0359 85,6394 1,9932 0 83,0844 33489,39 1704362 0 966,51 9035,17
 250 0 0,0186 0,0186 191,8501 1,8948 0 184,1595 874017,7 4123859 0 974,51 9114,22
 260 0 0,008 0,008 342,8835 1,8666 0 336,6098 37457,77 2351556 0 982,25 9170,04
 270 0 0,0071 0,0071 327,4437 1,8382 0 323,2411 62097,05 1963679 0 988,43 9218,19
 280 0 0,008 0,008 298,9313 1,6256 0 295,1096 31117,15 3593278 0 994,88 9264,03
 290 0 0,0098 0,0098 246,086 1,6503 0 240,6083 34473,41 1421559 0 1002,36 9305,54
 300 0 0,0091 0,0091 223,2292 1,3236 0 221,2254 11984,58 1136412 0 1008,93 9350,82
 310 0 0,0086 0,0086 129,9963 0,9049 0 124,6959 27323,73 901991,6 0 1016,3 9395,08
 320 0 0,0034 0,0034 16,6393 0,1634 0 13,264 20544,3 216547,6 0 1025,77 9440,46
 330 0 0,001 0,001 0,9115 0,0165 0 0,1823 3732,004 3359,398 0 1030,13 9465,41
 340 0 0,0043 0,0043 35,8353 0,1594 0 32,0994 22396,04 178246,3 0 1036,38 9494,24
 350 0 0,0029 0,0029 4,2965 0,0942 0 0,8226 17971,97 9994,754 0 1043,82 9528,98
 360 0 0,0029 0,0029 23,4928 0,1846 0 21,6643 9737,862 840825,1 0 1049,84 9562,46
 370 0 0,0031 0,0031 12,0623 0,1454 0 8,4053 20242,51 278261 0 1054,88 9597,53
 380 0 0,0047 0,0047 16,6498 0,1847 0 11,7953 35676,58 422529,3 0 1061,95 9630,47
 390 0 0,0035 0,0035 9,2349 0,0867 0 6,6762 16084,8 147274,5 0 1069,43 9666,89
 400 0 0,0028 0,0028 9,601 0,1198 0 5,9428 20994,68 139824,1 0 1079,49 9719,53
 410 0 0,003 0,003 9,4144 0,1071 0 6,8544 13126,14 165600,7 0 1082,74 9737,37
 420 0 0,0041 0,0041 9,0498 0,0941 0 5,5752 19115,91 123192,1 0 1088,46 9770,42
 430 0 0,0132 0,0132 145,777 2,673 0 131,5123 1505869 2233578 0 1096,17 9831,2
 440 0 0,0172 0,0172 307,907 4,0973 0 272,3333 1955162 3565301 0 1102,46 10204,11
 450 0 0,0121 0,0121 251,8174 1,9833 0 237,9487 117632,6 12085390 0 1112,88 10406,83
 460 0 0,0134 0,0134 142,6626 1,6661 0 134,8865 46072,57 21685970 0 1127,22 10538,34
 470 0 0,0067 0,0067 131,9722 0,7767 0 126,8488 30034,15 30767390 0 1136,98 10616,18
 480 0 0,0063 0,0063 124,1432 0,7985 0 117,1853 36331,55 30496670 0 1147,54 10679,28
 490 0 0,0063 0,0063 129,6616 0,8231 0 123,1704 35543,54 30610330 0 1158,61 10753,83
 500 0 0,0038 0,0038 49,2026 0,269 0 43,0657 32209,66 10250900 0 1168,86 10804,8
 510 0 0,0021 0,0021 4,3866 0,0857 0 0,6394 22863,66 16105,89 0 1177,69 10862,24
 520 0 0,0034 0,0033 6,8573 0,1005 0 3,4727 20635,09 42064,95 0 1184,34 10896,31
 530 0 0,0018 0,0018 4,1129 0,0952 0 0,0915 24339,61 1873,17 0 1194,69 10951,09
