differencing 0 0,99 0,0067 0,0065 26,0642 36,7259 17284 150429
 10 0,14 0,0001 0,0034 26,0642 36,7259 17284 150429
 20 0,43 0,0003 0,0061 26,0642 36,7259 17284 150429
 30 0,52 0,0021 0,0065 26,0642 36,7259 17284 150429
 40 0,27 0,0001 0,005 26,0642 36,7259 17284 150429
 50 0,27 0 0,0052 26,0642 36,7259 17284 150429
 60 0,32 0,0008 0,0059 26,0642 36,7259 17284 150429
 70 0,23 0 0,0048 26,0642 36,7259 17284 150429
 80 0,17 0 0,0039 26,0642 36,7259 17284 150429
 90 0,26 0 0,0059 26,0642 36,7259 17284 150429
 100 0,26 0 0,0044 26,0642 36,7259 17284 150429
 110 0,2 0 0,0052 26,0642 36,7259 17284 150429
 120 0,25 0 0,0046 26,0642 36,7259 17284 150429
 130 0,26 0 0,005 26,0642 36,7259 17284 150429
 140 0,27 0 0,0048 26,0642 36,7259 17284 150429
 150 0,21 0 0,0037 26,0642 36,7259 17284 150429
 160 0,31 0 0,0036 26,0642 36,7259 17284 150429
 170 0,28 0 0,0056 26,0642 36,7259 17284 150429
 180 0,1 0 0,0021 26,0642 36,7259 17284 150429
 190 0,28 0,0001 0,0057 26,0642 36,7259 17284 150429
 200 1,16 0 0,008 26,0642 36,7259 17284 150429
 210 0,13 0,0001 0,0029 26,0642 36,7259 17284 150429
 220 3 0,0039 0,0493 26,0642 36,7259 17284 150429
 230 4,46 0,0227 0,0722 26,0642 36,7259 17284 150429
 240 2,13 0,0033 0,0702 26,0642 36,7259 17284 150429
 250 2,21 0,0058 0,0624 26,0642 36,7259 17284 150429
 260 2,17 0,0031 0,0666 26,0642 36,7259 17284 150429
 270 2,55 0,005 0,0773 26,0642 36,389 17284 149049,2
 280 3,16 0,0216 0,1004 26,0642 36,0384 17284 147613
 290 1,76 0,0039 0,0604 26,0642 36,0384 17284 147613
 300 1,84 0,0022 0,064 26,0642 36,0384 17284 147613
 310 2,39 0,0048 0,0694 26,0642 36,0384 17284 147613
 320 1,67 0,0021 0,0603 26,0642 36,0384 17284 147613
 330 1,84 0,0038 0,0587 26,0642 36,0384 17284 147613
 340 2,51 0,0096 0,0742 26,0642 36,0384 17284 147613
 350 1,97 0,0059 0,0742 26,0642 36,0384 17284 147613
 360 2,43 0,014 0,0764 26,0642 36,0384 17284 147613
 370 2,89 0,0327 0,092 26,0642 36,0384 17284 147613
 380 2,77 0,0281 0,0926 26,0642 36,0384 17284 147613
 390 2,62 0,0273 0,078 26,0642 36,0384 17284 147613
 400 1,82 0,0017 0,0605 26,0642 36,0384 17284 147613
 410 1,98 0,0087 0,0728 26,0642 36,0384 17284 147613
 420 2,18 0,001 0,0816 26,0642 36,0384 17284 147613
 430 2,28 0,0031 0,0921 26,0642 36,0384 17284 147613
 440 2,06 0,0058 0,0768 26,0642 36,0384 17284 147613
 450 2,36 0,0054 0,0746 26,0642 36,0384 17284 147613
 460 1,7 0,0011 0,0699 26,0642 36,0384 17284 147613
 470 2,54 0,0221 0,0878 26,0642 36,0384 17284 147613
 480 2,01 0,0076 0,0785 26,0642 36,0384 17284 147613
 490 2,12 0,0056 0,0667 26,0642 36,0384 17284 147613
 500 2,55 0,023 0,0888 26,0642 36,0384 17284 147613
 510 2,31 0,0032 0,0793 26,0642 36,0384 17284 147613
 520 1,81 0,0033 0,0646 26,0642 36,0384 17284 147613
 530 2,48 0,0133 0,0708 26,0642 36,0384 17284 147613
 540 1,71 0,0019 0,0614 26,0642 36,0384 17284 147613
 550 3,49 0,0474 0,0751 26,0642 31,7946 17284 130230,6
 560 2,84 0,0185 0,0857 26,0642 31,6634 17284 129693
 570 2,05 0,0044 0,079 26,0642 31,6634 17284 129693
 580 1,88 0,0057 0,0633 26,0642 31,6634 17284 129693
 590 1,54 0,0042 0,0576 26,0642 31,6634 17284 129693
 600 2,21 0,0025 0,081 26,0642 31,6634 17284 129693
 610 1,9 0,0094 0,0758 26,0642 31,6634 17284 129693
 620 2,01 0,0031 0,0762 26,0642 31,6634 17284 129693
 630 2,42 0,005 0,0835 26,0642 31,6634 17284 129693
 640 2,08 0,0102 0,0832 26,0642 31,6634 17284 129693
 650 1,79 0,0028 0,0845 26,0642 31,6634 17284 129693
 660 2,23 0,0138 0,0783 26,0642 31,6634 17284 129693
 670 2,65 0,0285 0,0717 26,0642 31,6634 17284 129693
 680 3,16 0,0449 0,0719 26,0642 31,6634 17284 129693
 690 2,49 0,0354 0,0639 26,0642 31,6634 17284 129693
 700 3,1 0,0331 0,0798 26,0642 31,6634 17284 129693
 710 3,09 0,0324 0,0775 26,0642 31,6634 17284 129693
 720 3,08 0,0386 0,082 26,0642 31,6634 17284 129693
 730 3,28 0,0357 0,0882 26,0642 31,6634 17284 129693
 740 4,25 0,048 0,0843 26,0642 31,6634 17284 129693
 750 4,3 0,0562 0,0917 26,0642 31,6634 17284 129693
 760 3,85 0,0388 0,0729 26,0642 31,6634 17284 129693
 770 3,86 0,0337 0,0802 26,0642 31,6634 17284 129693
 780 3,74 0,0364 0,0765 26,0642 31,6634 17284 129693
 790 2,92 0,0365 0,066 26,0642 31,6634 17284 129693
 800 2,79 0,038 0,0544 26,0642 31,6634 17284 129693
 810 2,04 0,023 0,0438 26,0642 31,6634 17284 129693
 820 1,84 0,0072 0,038 26,0642 29,8739 17284 122363,4
 830 1,93 0,0101 0,04 26,0642 27,6868 17284 113405
 840 3,25 0,0202 0,0511 26,0642 27,6868 17284 113405
 850 3,36 0,0341 0,0508 26,0642 27,6868 17284 113405
 860 3,76 0,0376 0,0684 26,0642 27,6868 17284 113405
 870 2,55 0,0334 0,0503 26,0642 27,6868 17284 113405
 880 3,11 0,0474 0,0814 26,0642 27,6868 17284 113405
 890 3,94 0,0377 0,0625 26,0642 27,6868 17284 113405
 900 3,08 0,0449 0,0658 26,0642 27,6868 17284 113405
 910 2,94 0,0355 0,0595 26,0642 27,6868 17284 113405
 920 1,6 0,013 0,0253 26,0642 27,6868 17284 113405
 930 1,29 0,0076 0,01 26,0642 27,6868 17284 113405
 940 0,22 0,0005 0,0051 26,0642 27,6868 17284 113405
 950 0,23 0,0005 0,0031 26,0642 27,6868 17284 113405
