ch 0 0,85 0,0049 0,0068 26,0552 11,7451 17278 48108
 10 1,25 0,0059 0,0083 26,0552 11,7451 17278 48108
 20 0,91 0,0034 0,0084 26,0552 11,7451 17278 48108
 30 0,23 0,0002 0,0048 26,0552 11,7451 17278 48108
 40 1,55 0,0096 0,0147 26,0552 11,7451 17278 48108
 50 0,41 0,0014 0,0072 26,0552 11,7451 17278 48108
 60 0,31 0,0009 0,0063 26,0552 11,7451 17278 48108
 70 0,39 0,0003 0,0055 26,0552 11,7451 17278 48108
 80 0,39 0,0013 0,0092 26,0552 11,7451 17278 48108
 90 0,24 0,0008 0,0033 26,0552 11,7451 17278 48108
 100 0,27 0,0005 0,005 26,0552 11,7451 17278 48108
 110 0,23 0 0,0073 26,0552 11,7451 17278 48108
 120 0,25 0,0001 0,0062 26,0552 11,7451 17278 48108
 130 0,4 0,0009 0,0075 26,0552 11,7451 17278 48108
 140 0,32 0 0,0055 26,0552 11,7451 17278 48108
 150 0,21 0 0,0046 26,0552 11,7451 17278 48108
 160 0,31 0 0,0062 26,0552 11,7451 17278 48108
 170 0,26 0 0,0056 26,0552 11,7451 17278 48108
 180 0,3 0,0001 0,0054 26,0552 11,7451 17278 48108
 190 0,32 0 0,0063 26,0552 11,7451 17278 48108
 200 0,25 0,0005 0,0039 26,0552 11,7451 17278 48108
 210 0,96 0,005 0,0136 26,0552 11,7451 17278 48108
 220 2,42 0,0148 0,0126 26,0552 11,7451 17278 48108
 230 1,89 0,0074 0,0094 26,0552 11,7451 17278 48108
 240 2,19 0,0091 0,0185 26,0552 11,7451 17278 48108
 250 2,06 0,0092 0,0115 26,0552 11,7451 17278 48108
 260 2 0,0071 0,0076 26,0552 11,7451 17278 48108
 270 2,96 0,0087 0,0144 26,0552 11,7411 17278 48091,68
 280 3,35 0,0075 0,0107 26,0552 11,7373 17278 48076
 290 2,63 0,0073 0,0117 26,0552 11,7373 17278 48076
 300 3,52 0,0091 0,0126 26,0552 11,7373 17278 48076
 310 2,99 0,0081 0,0099 26,0552 11,7373 17278 48076
 320 2,38 0,0072 0,0117 26,0552 11,7373 17278 48076
 330 3 0,0093 0,0112 26,0552 11,7373 17278 48076
 340 2,26 0,0061 0,008 26,0552 11,7373 17278 48076
 350 3,08 0,0095 0,0158 26,0552 11,7373 17278 48076
 360 3,24 0,0089 0,008 26,0552 11,7373 17278 48076
 370 2,62 0,0059 0,0063 26,0552 11,7373 17278 48076
 380 3,57 0,0105 0,0154 26,0552 11,7373 17278 48076
 390 2,56 0,0071 0,0079 26,0552 11,7373 17278 48076
 400 3,46 0,0092 0,0125 26,0552 11,7373 17278 48076
 410 3,73 0,0094 0,0161 26,0552 11,7373 17278 48076
 420 1,18 0,0029 0,0058 26,0552 11,7373 17278 48076
 430 0,25 0,0001 0,006 26,0552 11,7373 17278 48076
 440 0,25 0 0,0052 26,0552 11,7373 17278 48076
 450 0,19 0 0,0039 26,0552 11,7373 17278 48076
