 0 0 0 0 0 0 0 0 0,0007
 10 10,7444 0 0 19,1529 0,5387 0 0,0009 0,0016
 20 6,1792 0 0 0,1635 2,7213 0,1456 0,0002 0,0298
 30 150,4462 0 0 59,707 7,2488 2,3161 0,0109 0,003
 40 11,5846 0 0 0,3658 3,8321 0,4576 0,0002 0,0017
 50 4,3664 0 0 1,4556 1,9286 0,2065 0,0005 0,0028
 60 13,751 0 0 3,4636 4,986 0,9534 0,0003 0,001
 70 3,951 0 0 0,0914 2,0719 0,1605 0,0001 0,0015
 80 4,0828 0 0 0,1531 2,2804 0,5093 0,0003 0,0014
 90 5,0991 0 0 0 2,5611 0,1489 0 0,0015
 100 4,5628 0 0 0,0659 2,3251 0,165 0,0001 0,0015
 110 5,7084 0 0 0,09329999999999999 3,4334 1,0472 0,0001 0,0012
 120 5,6355 0 0 0 2,3716 0,1054 0 0,0018
 130 6,7336 0 0 0 3,6112 0,4541 0 0,0015
 140 4,6952 0 0 0 2,0602 0,1349 0 0,0013
 150 3,1828 0 0 0,3652 1,9148 0,5463 0 0,0015
 160 5,7135 0 0 0,2777 2,6689 0,1554 0,0001 0,0008
 170 5,1311 0 0 0 2,8347 0,3652 0 0,0005999999999999999
 180 3,1276 0 0 2,1017 1,2015 0,1441 0,0005999999999999999 0,0021
 190 75,40309999999999 0 0 89,87949999999999 3,4297 0,619 0,0072 0,0045
 200 215,4922 0 0 218,1833 3,1443 0,6347 0,0143 0,0032
 210 182,5034 0 0 351,9899 1,9241 0,5359 0,0072 0,0042
 220 184,1904 0 0 281,5096 1,3166 0,08599999999999999 0,0089 0,0049
 230 164,6265 0 0 268,1958 5,5502 0,0934 0,0103 0,0057
 240 108,9 0 0 108,2502 3,775 0,5001 0,0129 0,0046
 250 100,8607 0 0 113,4985 3,1387 0,0997 0,011 0,0041
 260 102,2226 0 0 111,541 5,0163 0,5008 0,0117 0,0032
 270 103,018 0 0 119,0754 3,5741 0,4522 0,0135 0,0039
 280 103,016 0 0 113,1767 2,91 0,0795 0,0111 0,0033
 290 100,5168 0 0 104,3533 4,6647 0,5237000000000001 0,0104 0,0026
 300 99,53830000000001 0 0 108,0193 3,4296 0,4229 0,0115 0,0067
 310 120,2997 0 0 105,3664 4,6189 0,672 0,0127 0,006
 320 126,7369 0 0 116,497 3,8176 0,4357 0,0138 0,0026
 330 103,36 0 0 118,55 3,6506 0,8708 0,0127 0,003
 340 101,9661 0 0 117,1421 3,7568 0,4589 0,0114 0,0052
 350 102,2614 0 0 102,7513 3,2213 0,4833 0,0101 0,007900000000000001
 360 119,845 0 0 88,5099 3,7432 0,2638 0,0147 0,0127
 370 68,2599 0 0 39,0063 13,9109 0,1413 0,0038 0,0011
 380 3,8095 0 0 0,0095 1,7639 0,114 0,0001 0,0016
 390 5,6696 0 0 0,1633 3,0567 0,4318 0 0


