 0 62041,4 87385,39
 10 71131,35000000001 106342,2
 20 70029,02 102008,1
 30 61217,21 86290,45
 40 73995,77 102099,5
 50 66681,23 89784,72
 60 60953,46 88063,71000000001
 70 70066,56 104020,7
 80 71097,13 100456,4
 90 63744,04 83075,83
 100 58729,9 85888,69
 110 61593,7 85262,03999999999
 120 65126,55 90010,24000000001
 130 63371,5 87045,45
 140 58632,44 85685,24000000001
 150 69048,48 92113,46000000001
 160 65867,16 90270,58
 170 58597,23 87353,74000000001
 180 68413,91 96139,73
 190 65991,77 86838,60000000001
 200 57900,15 82390,34
 210 63890,23 86962,25999999999
 220 68367,53 91590,60000000001
 230 61352,38 82794,44
 240 66505,91 98656,66
 250 68309,00999999999 95525,05
 260 65398,08 95236,58
 270 59515,74 77160,53
 280 57439,17 77701,7
 290 70057,17999999999 94955,81
 300 61011,45 86238,19
 310 38066,12 32172,27
 320 54703,48 53696,03
 330 82507,69 104246,4
 340 90070,41 92965,34
 350 91151,16 84529,86
 360 96796,33 131312,3
 370 91368,53 94573,61
 380 89343,33 101194,3
 390 92690,8 84051,47
 400 90258,57000000001 101979
 410 92936,73 95541,89999999999
 420 91740,46000000001 91272,57000000001
 430 93883,58 110541,9
 440 90975,02 99360,46000000001
 450 90076,91 94774,09
 460 96001,85000000001 115974,1
 470 93114,60000000001 112599,4
 480 103360,7 106108,5
 490 92752,46000000001 110899,6
 500 97058,59 135854,3
 510 97760,92999999999 121973,1
 520 88491,41 88466,53
 530 89083,48 92494,46000000001
 540 87468,62 95557,45
 550 90608,8 94771,34
 560 89151,36 85605,89999999999
 570 93478,28999999999 98235,46000000001
 580 91988,58 85332,05
 590 92362,92 83528,2
 600 86239,19 81304,7
 610 91881,7 89307,74000000001
 620 95615,10000000001 118768,5
 630 95765,21000000001 109269,7
 640 91983,88 92996,57000000001
 650 87593,31 106294,6
 660 75719,7 107623,6
 670 68694,31 92817,25999999999
 680 65155,55 89547,75999999999
 690 67488,34 87568,95
 700 72656,36 102136,2
 710 63062,25 89298,58
 720 64229,82 93920,46000000001
 730 66879,24000000001 99148,03


