 0 0 0 0 0 0 0 1,79
 10 0 0 0 0 0 0 8,35
 20 0 0 0 0 0 0 3,78
 30 0 0 0 0 0 0 4,72
 40 0 0 0 0 0 0 14,35
 50 0 0 0 0 0 0 13,18
 60 0 0 0 0 0 0 7,65
 70 0 0 0 0 0 0 8,539999999999999
 80 0 0 0 0 0 0 7,62
 90 0 0 0 0 0 0 7,93
 100 0 0 0 0 0 0 8
 110 0 0 0 0 0 0 11,17
 120 0 0 0 0 0 0 5,55
 130 1477080000 51,8095 539,524 6,7453 0 0 2,16
 140 0 0 0 0 0 0 2,1
 150 0 0 0 0 0 0 3,57
 160 1335061000 677,5242 4384,474 156,5316 0 0 4,05
 170 0 0 0 0 0 0 4,67
 180 0 0 0 0 0 0 7,74
 190 179198100 243,7608 2329,426 53,62 0 22,9715 5,05
 200 0 0 0 0 0 0 8,98
 210 144789100 549,0753 1498,065 100,9611 0 19,0961 4,63
 220 0 0 0 0 0 0 8,42
 230 0 0 0 0 0 0 8,82
 240 219092500 305,6054 474,037 54,8897 0 18,9819 6,1
 250 0 0 0 0 0 0 8,130000000000001
 260 0 0 0 0 0 0 4,92
 270 219408000 321,934 777,8893 92,0039 0 18,9376 3,51
 280 0 0 0 0 0 0 3,45
 290 0 0 0 0 0 0 3,12
 300 280528600 350,2784 1975,452 83,6934 0 18,5836 3,94
 310 0 0 0 0 0 0 4,31
 320 305447600 5,9665 178,3545 0,7967 0 18,5253 2,23
 330 0 0 0 0 0 0 1,44
 340 0 0 0 0 0 0 0,96
 350 311811500 0 194,9908 0 0 18,5137 0,65
 360 0 0 0 0 0 0 0,28
 370 0 0 0 0 0 0 0,57
 380 317111300 1,3783 210,4809 0,2563 0 18,5072 0,8100000000000001
 390 0 0 0 0 0 0 0,79
 400 0 0 0 0 0 0 0,66
 410 319387800 4,6411 184,1969 0,5800999999999999 0 18,5028 0,65
 420 0 0 0 0 0 0 2,92
 430 314067400 66,0228 1410,679 19,4002 0 18,4875 1,57
 440 0 0 0 0 0 0 1,73
 450 0 0 0 0 0 0 1,77
 460 220937100 1,8579 183,3288 0,4645 0 18,4513 0,53
 470 0 0 0 0 0 0 0,59
 480 0 0 0 0 0 0 0,61
 490 220822700 0,091 221,7141 0,091 0 18,4438 0,46
 500 0 0 0 0 0 0 0,48
 510 0 0 0 0 0 0 0,5600000000000001
 520 220842900 0 185,688 0 0 18,4438 1,22
 530 0 0 0 0 0 0 1,55
 540 219499900 33,9138 373,491 4,312 0 18,4428 2,52
 550 0 0 0 0 0 0 3,34
 560 0 0 0 0 0 0 1,62
 570 220703800 0,7221 191,5478 0,09030000000000001 0 18,4428 1,23
 580 0 0 0 0 0 0 3,63
 590 0 0 0 0 0 0 1,79
 600 223008000 53,3986 3418,891 10,9651 0 18,3853 1,3
 610 0 0 0 0 0 0 1,32
 620 0 0 0 0 0 0 2,16
 630 221453300 29,6456 928,9913 3,747 0 18,3034 1,77
 640 0 0 0 0 0 0 1,2
 650 222593600 0,0334 719,1423 0,0334 0 18,3034 1,31
 660 0 0 0 0 0 0 1,07
 670 0 0 0 0 0 0 1,24
 680 222980500 0 736,5818 0 0 18,298 1,39
 690 0 0 0 0 0 0 0,23
 700 0 0 0 0 0 0 0,21
 710 227638600 1,633 732,1796000000001 0,2922 0 18,2851 0,39
 720 0 0 0 0 0 0 0,32
 730 0 0 0 0 0 0 0,54
 740 227692000 6,1023 745,0929 1,0921 0 18,2674 0,46
 750 0 0 0 0 0 0 0,3
 760 228161900 0,0954 731,2291 0,0954 0 18,2648 0,34
 770 0 0 0 0 0 0 0,47
 780 0 0 0 0 0 0 0,54
 790 228816100 0,0284 802,8569 0,0284 0 18,2007 0,91
 800 0 0 0 0 0 0 0,41
 810 0 0 0 0 0 0 1,42
 820 227501200 3,9954 760,0144 0,6167 0 18,2007 0,79
 830 0 0 0 0 0 0 0,75
 840 0 0 0 0 0 0 0,57
 850 227078000 0 820,4922 0 0 18,2007 0,29
 860 0 0 0 0 0 0 0,48
 870 225471200 0,8462 1042,05 0,2367 0 18,2007 0,24
 880 0 0 0 0 0 0 0,32
 890 0 0 0 0 0 0 1,13


