 0 1132992000 0 0 0 0 2,97
 10 1150951000 1318,945 3739,251 64,98820000000001 0 1,73
 20 1159582000 311,1369 487,2843 40,3899 0 1,56
 30 1163706000 1107,803 424,3639 144,5062 0 1,27
 40 1164096000 345,1863 241,0622 49,6715 0 1,55
 50 1167926000 604,8883 417,3167 77,21899999999999 0 1,9
 60 1114667000 205,5457 275,6174 27,4757 0 4,55
 70 996123900 728,1194 7803,403 62,4914 0 10,67
 80 900471900 973,8019 7960,495 150,8772 0 7,87
 90 796713000 718,6144 6036,272 138,4567 0 17,24
 100 714216600 1087,232 9885,284 167,6949 0 16,72
 110 667586800 1060,864 6112,161 139,2482 13,7469 16,22
 120 653625100 1269,754 2900,668 147,9865 0 12,81
 130 681140200 366,2216 1094,953 73,7474 0 6,66
 140 665140600 143,3692 1266,176 34,5989 0 4,49
 150 658477900 483,3317 3880,077 71,9969 0 3,57
 160 713275300 138,98 2334,131 44,991 0 4,92
 170 709236100 105,8656 2210,94 25,5228 0 4,81
 180 693779000 477,3147 3352,35 88,9509 49,5409 2,98
 190 734241200 151,4484 4193,376 58,5828 0 0,57
 200 737473500 96,4421 1677,153 16,816 0 0,2
 210 733433300 127,3305 1377,804 24,6313 0 0,32
 220 720332600 279,5255 1492,146 86,0505 0 0,2
 230 696528900 0,8712 281,8214 0,8712 0 0,59
 240 618969300 279,3628 4124,969 60,6971 0 1,05
 250 574192800 456,4989 3604,249 45,808 372,8676 0,07000000000000001
 260 568821700 8,719900000000001 921,6011 2,4743 0 2,23
 270 446128900 2415,607 7654,81 82,32729999999999 150,2565 1,47
 280 266176300 125,3042 9998,4 22,3779 0 0,96
 290 141468500 168,2499 9937,09 4,6511 132,1284 0,26
 300 118043400 38,9235 7666,035 1,0114 31,929 0,09
 310 65287410 33,2537 5846,232 1,9682 21,5681 0,29
 320 34965960 79,15900000000001 6545,665 10,2313 1,7214 0,1
 330 39866040 27,3766 6187,469 3,3465 3,9529 0,2
 340 25617940 43,7332 6115,608 5,4826 2,6669 0,67
 350 78936020 340,2892 5718,937 19,1622 254,4138 0,37
 360 46379580 1214,123 6043,913 2,4327 1180,26 2,32
 370 50041320 1127,404 7206,077 143,2621 1,7014 3,09
 380 75350380 574,7867 10199,84 83,3847 48,7316 3,29
 390 108576200 422,9203 8996,052 124,5563 6,9771 2,7
 400 1275274000 392,2252 8220,144 31,0851 221,5849 11,32
 410 1301970000 1972,249 3353,373 71,3789 705,9536000000001 1,98
 420 1297602000 1828,036 4449,807 194,6952 196,8301 1,88
 430 1290479000 2757,004 4023,95 147,8192 0 3,08
 440 1266412000 463,7046 3560,177 54,7641 0 3,13
 450 1222729000 1030,693 5348,268 143,8771 0 2,63
 460 1219069000 1475,247 6313,998 183,865 0 2,19
 470 1213724000 1772,813 2421,035 134,05 0 2,83
 480 1209711000 1026,737 2212,379 111,7921 0 3,68
 490 1163770000 1724,886 3432,847 210,5452 0 0,85
 500 1159509000 1235,155 2572,691 182,0759 0 0,11
 510 1161323000 0 2269,425 0 0 0,05
 520 1162418000 1,4676 2054,5 0,2785 0 0,03
 530 1158002000 0 2010,773 0 0 0,42
 540 1155632000 171,3378 3315,131 9,5764 0 0,08
 550 1155682000 3,0958 2344,222 0,4511 0 0,07000000000000001
 560 1155996000 7,8729 2289,859 1,3773 0 0,07000000000000001
 570 1146491000 7,2823 2081,988 1,101 0 0,12
 580 1122993000 61,007 3622,999 11,0104 0 0,17
 590 1112426000 27,7575 2194,931 14,7672 0 0,76
 600 1094806000 737,4361 4577,746 46,0352 0 0,91
 610 1075161000 187,5483 3393,297 43,7929 0 1,68
 620 1063142000 1017,754 5095,5 203,886 0 0,15
 630 1029262000 16,1113 2187,144 3,8266 0 0,62
 640 1037541000 318,1543 4486,982 117,6292 0 0,14
 650 1042942000 19,3268 2556,327 4,6588 0 0,1
 660 1043682000 15,782 3169,037 2,6749 0 0,12
 670 1040585000 28,2974 2303,199 4,964 0 0,09
 680 1032157000 24,5315 2599,766 4,1875 0 0,44
 690 1010296000 39,3798 3722,465 7,2268 0 0,47
 700 0 64,1288 5277,086 14,8673 0 0


