 0 0 0,0075 0,0075 199,7951 0,5948 1,2815 198,5279 8524,369000000001 4642077 0 7874,12 242977
 10 0 0,0063 0,0063 92,9297 0,5365 5,1218 87,8022 47422,02 1815137 0 7885,2 243015,9
 20 0 0,0016 0,0016 2,1012 0,0289 1,2798 0,8214 14678,59 12605,79 0 7894,23 243050
 30 0 0,0019 0,0019 3,6594 0,0646 3,3845 0,2749 28511,82 6379,473 0 7898,94 243078,2
 40 0 0,004 0,004 11,4303 0,1547 5,3906 6,0393 36797,76 172380,2 0 7908,06 243126
 50 0 0,0038 0,0038 16,4683 0,1373 4,7583 11,7113 35629,25 252358,2 0 7915,49 243174
 60 0 0,0038 0,0038 7,5004 0,1566 5,2121 2,2871 27686,59 65002,69 0 7922,5 243225,8
 70 0 0,0016 0,0016 4,5824 0,0682 3,1075 1,4659 21237,1 13133,87 0 7930,79 243268,4
 80 0 0,0005 0,0005 0,8213 0,0111 0,7298 0,0916 5005,216 3375,46 0 7935,96 243296,2
 90 0 0,0027 0,0027 6,9515 0,0837 4,1158 2,842 27709,07 94238,21000000001 0 7942,47 243324,4
 100 0 0,0017 0,0017 3,7506 0,0786 3,6618 0,0912 19276,45 2240,73 0 7950,14 243363,3
 110 0 0,001 0,0009 3,2038 0,0299 1,9195 1,2851 12538,68 39147,39 0 7955,7 243397,3
 120 0 0,0024 0,0024 6,0335 0,08359999999999999 4,1192 1,9155 24814,37 57899,91 0 7963,23 243434,8
 130 0 0,0018 0,0018 4,4744 0,0709 3,286 1,1787 19094,1 35285,34 0 7970,28 243470
 140 0 0,0008 0,0008 2,0122 0,0292 1,83 0,1823 12603,44 2240,494 0 7975,83 243500,9
 150 0 0,0021 0,0021 4,6694 0,0829 4,5815 0,0921 27518,65 2639,251 0 7984,58 243548,3
 160 0 0,0017 0,0017 3,1108 0,0571 3,0183 0,0914 17955,65 2246,286 0 7988,07 243568,5
 170 0 0,0015 0,0015 3,3833 0,0425 3,2006 0,1828 20060,59 748,9535 0 7994,47 243599,3
 180 0 0,0028 0,0026 5,029 0,09619999999999999 3,2 1,829 15458,71 26455,13 0 8003,13 243643,9
 190 0 0,0015 0,0014 3,3832 0,0643 2,9252 0,4578 18865,81 5620,547 0 8008,21 243671,7
 200 0 0,0021 0,0021 4,0304 0,0593 3,9395 0,0919 28828,86 376,4119 0 8016,24 243713,4
 210 0 0,0015 0,0015 5,2119 0,07290000000000001 3,747 1,4643 19379,72 46113,71 0 8023,72 243763
 220 0 0,0013 0,0013 1,7376 0,0411 1,6464 0,0911 8848,668 1493,218 0 8027,71 243784,2
 230 0 0,09859999999999999 0,0985 17,3654 1,7345 16,4555 0,9122 48611050 10080,4 0 8031,78 243880,9
 240 0 0,1118 0,1118 34,0974 3,1868 14,6222 19,4738 50426720 902083,4 0 8041,33 244068,8
 250 0 0,1111 0,1102 21,5838 2,3927 14,2713 7,3098 52958780 312036,7 0 8046,27 244213,9
 260 0 0,116 0,116 15,6374 1,888 12,8907 2,7446 52377580 28415,61 0 8051,51 244365,1
 270 0 0,1224 0,1224 19,5719 2,3949 15,8178 3,7601 52580290 135720,8 0 8057,79 244533,2
 280 0 0,1172 0,1169 16,2609 2,0963 15,4375 0,821 52408510 11363,33 0 8064,91 244688,4
 290 0 0,1198 0,1197 16,9969 1,9747 15,4441 1,5518 56570090 29691,18 0 8072 244855
 300 0 0,1383 0,1376 18,0947 2,6891 16,18 1,9159 48000880 37680,38 0 8079,33 245040,4
 310 0 0,1256 0,1256 24,9691 3,1061 16,3717 8,596399999999999 51239320 205284,9 0 8087,04 245207,6
 320 0 0,1304 0,1309 39,14 4,6479 14,8133 24,3303 50684380 925811,5 0 8094,62 245374,9
 330 0 0,1319 0,1317 35,5597 4,4333 16,9986 18,5584 50467260 381427,5 0 8103,55 245564,3
 340 0 0,1242 0,1242 40,1253 4,4589 14,1647 25,9596 47742850 503258 0 8109,05 245722,5
 350 0 0,122 0,1212 30,9066 3,5718 12,3378 18,565 49660090 253026,2 0 8114,72 245870,7
 360 0 0,1349 0,1351 29,7199 3,4122 11,9741 17,7499 51974400 510673,5 0 8119,54 246006,8
 370 0 0,1261 0,1261 27,8999 3,2723 13,8126 14,0876 51251050 305373,9 0 8124,57 246145,4
 380 0 0,1272 0,129 39,3067 4,8192 12,3383 26,9622 47728570 942191,4 0 8132,13 246291,4
 390 0 0,1426 0,1407 38,9478 5,2481 13,8926 25,0559 46418140 415400,4 0 8139,36 246437,1
 400 0 0,1319 0,1316 38,1187 4,4695 13,711 24,4038 48546980 417999,3 0 8145,82 246571,9
 410 0 0,1342 0,1341 42,2347 4,881 11,6106 30,6163 47164280 685583,9 0 8153,73 246718
 420 0 0,1239 0,1238 47,8091 5,0316 14,3544 33,4606 49485200 709075,8 0 8160,84 246862,8
 430 0 0,1267 0,1267 30,6261 3,8734 14,6269 15,9993 49504880 219966,3 0 8167,64 247019
 440 0 0,1072 0,1069 36,7636 3,0012 12,0673 24,6865 52181610 265038,4 0 8172,22 247163,7
 450 0 0,1219 0,1218 23,0355 2,8727 12,9769 10,0508 49311630 70538,14 0 8178,61 247311,4
 460 0 0,1139 0,1138 23,4983 2,9327 13,7214 9,777699999999999 50387720 99436,73 0 8184,73 247451,4
 470 0 0,1375 0,1375 29,5352 3,7625 11,6102 17,9288 47454960 607121,4 0 8192,41 247592,2
 480 0 0,1108 0,1108 27,974 3,259 13,9844 13,9893 51005170 271981,6 0 8199,75 247737
 490 0 0,1292 0,1291 23,313 2,9985 13,2674 10,0477 48356100 320284,3 0 8205,58 247880,3
 500 0 0,1338 0,1338 24,4132 3,2205 14,6282 9,782299999999999 47752540 106331,3 0 8211,709999999999 248033,4
 510 0 0,1327 0,1327 26,335 3,6043 14,9966 11,3316 48365730 341687,6 0 8217,610000000001 248190
 520 0 0,1328 0,1328 26,5208 3,5115 15,8277 10,6893 46502580 154843,7 0 8223,719999999999 248347,4
 530 0 0,1381 0,1396 28,0755 3,7616 13,2548 14,8178 47226610 393223,3 0 8229,209999999999 248514,4
 540 0 0,1375 0,1376 39,0254 4,8867 14,9884 24,0272 47040880 578527,1 0 8236,99 248680,1
 550 0 0,1403 0,1403 42,0101 5,576 14,3429 27,7563 45541100 841822,8 0 8243,27 248829
 560 0 0,1398 0,1398 44,9719 5,7863 13,1684 31,7089 45218220 914013,3 0 8249,91 248980,9
 570 0 0,1345 0,1342 36,3105 4,5142 17,1932 19,1242 47025930 412927,6 0 8257,93 249157
 580 0 0,1353 0,1335 43,1813 5,3421 14,3582 28,8273 44794110 742026,3 0 8266,07 249323,7
 590 0 0,1374 0,1374 42,9511 5,1398 12,8002 30,1513 47290140 866417,8 0 8271,299999999999 249472,2
 600 0 0,13 0,1305 28,4389 3,9085 14,3554 14,0813 46042560 303225,4 0 8278,370000000001 249626,9
 610 0 0,1294 0,1294 24,0366 2,9943 12,8881 11,1476 50394830 205410,7 0 8283,49 249766,9
 620 0 0,1306 0,1306 28,6174 3,5239 11,9844 16,6384 49695380 323485,1 0 8289,18 249902,1
 630 0 0,1335 0,1318 30,5212 3,5985 13,3437 17,1698 47261400 272491,4 0 8294,870000000001 250045,8
 640 0 0,1372 0,1375 28,3351 4,1157 14,4356 13,8932 44621170 275371,6 0 8303,290000000001 250195,4
 650 0 0,1179 0,1178 23,8652 2,7462 13,441 10,4224 51627620 396418 0 8312,41 250349
 660 0 0,1291 0,129 18,7383 2,6056 14,1734 4,5712 47665660 122691,2 0 8317,370000000001 250501,6
 670 0 0,1286 0,1286 17,7358 2,3838 11,8807 5,8524 46388820 139258,3 0 8324,26 250644,3
 680 0 0,1263 0,1263 28,0666 3,5796 12,6204 15,446 49105570 387192,3 0 8329,379999999999 250777,2
 690 0 0,1379 0,1378 35,5623 4,8877 13,5307 22,0253 46390920 771817,9 0 8336,959999999999 250927,4
 700 0 0,1224 0,1224 30,0743 3,6016 15,5387 14,5418 50242010 396449,5 0 8342,370000000001 251071,7
 710 0 0,0922 0,0922 23,3075 1,9731 15,1753 8,1351 64176490 186449,8 0 8348,790000000001 251242,1
 720 0 0,1054 0,1053 21,3918 2,2321 16,9142 4,4783 56711970 107440,9 0 8356,01 251427,1
 730 0 0,09279999999999999 0,09279999999999999 22,671 2,0742 17,4605 5,2142 65581840 98951,85000000001 0 8362,57 251602,1
 740 0 0,089 0,08890000000000001 20,9395 1,7804 17,193 3,7474 61094750 75211,75999999999 0 8371,639999999999 251797,6
 750 0 0,1196 0,1195 25,5038 2,8096 14,9939 10,512 52249220 307612,3 0 8377,950000000001 251977,3
 760 0 0,0999 0,0998 31,0016 2,8584 16,7309 14,2649 61926660 295641,3 0 8383,950000000001 252148
 770 0 0,09959999999999999 0,09959999999999999 37,1185 3,3611 16,6421 20,473 54595100 420413,8 0 8392,360000000001 252332,2
 780 0 0,1009 0,1011 20,6649 2,1845 15,7236 4,9419 55959740 129140 0 8398,98 252514,5
 790 0 0,0895 0,0895 23,5066 2,0679 18,4743 5,0329 63146800 108602,5 0 8405,610000000001 252700,8
 800 0 0,1001 0,1012 27,0663 2,6427 14,0797 12,9827 56964320 418668,7 0 8413,120000000001 252877,8
 810 0 0,1044 0,1044 27,9682 2,7656 14,0793 13,894 60341870 306057,7 0 8418,780000000001 253037,5
 820 0 0,0868 0,0868 35,2014 2,9527 19,2013 16,0016 56531260 411602 0 8427,120000000001 253212,1
 830 0 0,1005 0,1006 36,8447 3,5369 13,531 23,308 57358670 568196,2 0 8434,32 253383
 840 0 0,09130000000000001 0,09130000000000001 61,0889 4,9855 16,1851 44,9036 48859360 1009765 0 8440,35 253550,2
 850 0 0,0901 0,0902 50,94 4,0457 18,8372 32,1043 53665020 644006,6 0 8448,110000000001 253736,7
 860 0 0,092 0,092 56,6915 4,6384 16,0106 40,6882 48551860 1192355 0 8455,1 253929,7
 870 0 0,089 0,08890000000000001 57,3356 4,5708 18,1065 39,229 48948900 942520,2 0 8462,17 254122,4
 880 0 0,0747 0,0747 43,7017 3,0415 21,3966 22,3123 48483130 334837,3 0 8471,389999999999 254338,4
 890 0 0,0703 0,0703 35,6341 2,478 18,9231 16,7066 50938970 295274,7 0 8478,98 254548,5
 900 0 0,0615 0,0613 29,2541 1,7558 22,124 7,1286 48551030 181050,1 0 8486,58 254789,3
 910 0 0,0502 0,0502 30,8173 1,536 24,5982 6,2156 50718830 128478,3 0 8494,120000000001 255037,4
 920 0 0,0429 0,0429 30,4454 1,2897 26,6054 3,8391 43590820 112056,9 0 8501,27 255317,4
 930 0 0,0413 0,0413 31,4534 1,2351 27,3349 4,1176 44718710 73762,02 0 8508,33 255615,3
 940 0 0,0391 0,0391 30,7164 1,1762 27,6054 3,1088 48168110 74971,67 0 8511,299999999999 255905,1
 950 0 0,0471 0,0471 40,9601 1,8276 21,6695 19,2914 35037760 557889,1 0 8518,389999999999 256187,1
 960 0 0,061 0,0606 53,7484 2,1263 11,6962 42,053 31155370 1355351 0 8527,75 256368,1
 970 0 0,06710000000000001 0,067 50,2168 2,3365 13,9965 36,2245 36366180 1190764 0 8534,34 256502,6
 980 0 0,0693 0,0693 41,9542 1,9844 8,593299999999999 33,3565 31173400 1073013 0 8540,110000000001 256629,4
 990 0 0,06419999999999999 0,06419999999999999 45,9496 2,0349 10,142 35,8077 33789040 1154139 0 8545,84 256734,6
 1000 0 0,0315 0,0314 85,30410000000001 1,3631 28,6153 56,6964 13139150 3475750 0 8551,34 256881,8
 1010 0 0,0162 0,0162 72,4722 0,8616 71,9229 0,5486 1613541 13506,67 0 8559,84 257507,6
 1020 0 0,0025 0,0025 5,5767 0,1001 3,382 2,1933 20684,45 48751,83 0 8566,92 257906,3
 1030 0 0,008 0,007900000000000001 80,7435 0,7645 5,6675 75,0793 145947,2 1645193 0 8574,35 257941
 1040 0 0,0132 0,0132 133,0232 1,7023 8,933199999999999 124,1065 1057148 6281310 0 8583,530000000001 258020,5
 1050 0 0,0112 0,0111 99,73050000000001 0,9268 8,1357 91,5826 1928863 3322469 0 8586,690000000001 258138,8
 1060 0 0,0023 0,0023 8,7759 0,1253 5,2084 3,5683 34331,15 115522,8 0 8592,469999999999 258182,3
 1070 0 0,0008 0,0008 1,8268 0,0247 1,7361 0,091 11613,82 2981,187 0 8600,93 258230,8
 1080 0 0,0019 0,0019 3,3865 0,06759999999999999 3,0206 0,3688 17575,94 20781,77 0 8606,459999999999 258261,5
 1090 0 0,0024 0,0024 12,34 0,1313 5,4858 6,8551 34288,96 156551,3 0 8613,889999999999 258301,4


