  Pakiety/s "Pakiety odebrane"  
 0 81,9611 37,3863 8355,607 4768,805
 10 98,1851 48,8623 11862,29 7987,75
 20 160,7581 107,398 19461,45 15239,05
 30 100,0395 56,3338 12495,09 9037,682
 40 128,6703 75,1223 17330,01 12855,78
 50 119,3575 80,6403 16892,46 13797,69
 60 61,2309 20,8532 7151,384 3970,958
 70 54,7629 32,895 6501,835 5007,784
 80 121,2021 79,0421 12279,66 8843,082
 90 50,2864 13,4048 4305,956 1368,627
 100 93,6161 71,7725 10951,2 8403,865
 110 75,8096 19,7366 6477,389 2062,193
 120 46,4643 14,6461 4194,5 1800,364
 130 108,8169 85,7303 11351,29 9628,885
 140 33,6862 12,8367 2797,458 1399,289
 150 76,4803 40,6806 7297,067 4618,816
 160 139,3616 77,0701 13460,23 8464,271
 170 47,3565 13,5388 3868,775 1378,319
 180 47,7171 33,9303 4946,122 4026,573
 190 131,9235 74,7847 12722,06 8220,635
 200 39,0797 11,4678 3086,071 1161,046
 210 78,5631 66,6556 8528,726 7702,02
 220 17522,29 17507,44 15411060 15417880
 230 57681,28 57551,05 50338800 50294840
 240 44042,55 43999,09 38816590 38824340
 250 53674,7 53616,05 47134670 47133540
 260 53479,74 53433,54 46578160 46559940
 270 49579,04 49493,26 43719160 43666870
 280 50767,42 50658,95 43741700 43664370
 290 53815,32 53707,57 46616500 46495120
 300 99,3616 59,3971 11189,89 8064,194
 310 206,0679 148,025 26919,81 22224,88
 320 96,0291 62,5595 14429 11828,38
 330 171,2571 109,827 19978,23 15122,73
 340 1473,813 1446,282 1126510 1128798
 350 18564,97 18499,52 15913620 15891590
 360 187,3309 154,3331 23517,06 20961,32
 370 118,0156 51,0243 13808,58 8413,041
 380 120,1994 71,5359 24220,84 20478,7
 390 230,3285 176,5252 27683,6 23465,96
 400 50104,91 50037,93 43086900 43254210
 410 53443,23 53302,43 46220340 46148860
 420 58170,93 58093,21 51010450 50973980
 430 49568,69 49476,68 43565200 43557330
 440 44687,19 44634,5 39263310 39260290
 450 61454,28 61365,98 53613750 53576050
 460 54239,97 54118,13 47203310 47086920
 470 58063,96 57918,22 50460610 50364910
 480 48429,66 48400,52 42411570 42401060
 490 58987,56 58902,95 51492400 51467490
 500 57672,97 57613,26 50762520 50754440
 510 50807,67 50717,82 44717620 44678420
 520 57223,32 57157,65 51384090 51351540
 530 30394,43 30337,4 35733230 35713740
 540 51842,81 51774,53 45651960 45625440
 550 48484,51 48399,42 46790950 46783540
 560 42817,51 42643,45 44192720 44158320
 570 39586,11 39526,75 43132420 43139600
 580 40858,12 40854,97 42392700 42386430
 590 42992,82 42898,61 44871470 44851210
 600 38365,41 38287,74 40112950 40110560
 610 37987,29 37902,49 41592000 41558400
 620 37245,28 37146,74 41800330 41765180
 630 31925,2 31804,86 36585760 36546790
 640 33437,49 33356,64 38904770 38883760
 650 22073,72 22015,1 23195480 23192840
 660 132,4512 76,624 16691,45 12309,38
 670 70,1602 20,539 6332,165 2400,554
 680 114,8108 72,493 11363,66 8076,855
 690 100,4429 44,0393 9062,135 4733,835
 700 49,4989 15,9826 4750,995 2220,151
 710 151,7806 102,2166 15596,87 11356,37
