"no ch" 0 1,02 0,0056 0,0102 26,0567 23,8636 17279 97745
 10 0,18 0,0006 0,0037 26,0567 23,8636 17279 97745
 20 0,31 0,0004 0,0071 26,0567 23,8636 17279 97745
 30 0,71 0,0013 0,01 26,0567 23,8636 17279 97745
 40 0,68 0,0036 0,0075 26,0567 23,8636 17279 97745
 50 0,5 0,0017 0,009 26,0567 23,8636 17279 97745
 60 0,39 0,0008 0,0082 26,0567 23,8636 17279 97745
 70 0,23 0,0001 0,0047 26,0567 23,8636 17279 97745
 80 0,29 0,0004 0,0046 26,0567 23,8636 17279 97745
 90 0,35 0,0003 0,0068 26,0567 23,8636 17279 97745
 100 0,27 0,0001 0,0057 26,0567 23,8636 17279 97745
 110 0,35 0,0001 0,0057 26,0567 23,8636 17279 97745
 120 0,37 0,0009 0,0071 26,0567 23,8636 17279 97745
 130 0,36 0,0006 0,0075 26,0567 23,8636 17279 97745
 140 0,4 0,0004 0,0077 26,0567 23,8636 17279 97745
 150 0,42 0,0016 0,0068 26,0567 23,8636 17279 97745
 160 0,18 0,0006 0,005 26,0567 23,8636 17279 97745
 170 0,51 0 0,0075 26,0567 23,8636 17279 97745
 180 0,29 0,0003 0,0045 26,0567 23,8636 17279 97745
 190 0,31 0,0008 0,0068 26,0567 23,8636 17279 97745
 200 0,41 0,0001 0,0071 26,0567 23,8636 17279 97745
 210 0,62 0,0043 0,0092 26,0567 23,8636 17279 97745
 220 2,31 0,0119 0,0165 26,0567 23,8636 17279 97745
 230 2,7 0,0139 0,022 26,0567 23,8636 17279 97745
 240 2,11 0,0083 0,0154 26,0567 23,8636 17279 97745
 250 2,37 0,0114 0,0172 26,0567 23,8636 17279 97745
 260 1,95 0,0083 0,0152 26,0567 23,8636 17279 97745
 270 0,91 0,0025 0,0084 26,0567 23,8636 17279 97745
 280 1,05 0,0026 0,0118 26,0567 23,8636 17279 97745
 290 0,9 0,0029 0,008 26,0567 23,8636 17279 97745
 300 0,86 0,0023 0,0075 26,0567 23,8636 17279 97745
 310 0,82 0,0029 0,009 26,0567 23,8636 17279 97745
 320 1,8 0,0077 0,0152 26,0567 23,8636 17279 97745
 330 0,64 0,0015 0,005 26,0567 23,8636 17279 97745
 340 2,27 0,0115 0,0224 26,0567 23,8636 17279 97745
 350 1,84 0,0097 0,0193 26,0567 23,8636 17279 97745
 360 0,64 0,0014 0,0067 26,0567 23,8636 17279 97745
 370 0,83 0,0018 0,0076 26,0567 23,8636 17279 97745
 380 0,86 0,0025 0,0097 26,0567 23,8636 17279 97745
 390 0,78 0,0023 0,0089 26,0567 23,8636 17279 97745
 400 0,8 0,0024 0,0068 26,0567 23,8636 17279 97745
 410 0,92 0,0031 0,0092 26,0567 23,8636 17279 97745
 420 0,27 0,0008 0,0058 26,0567 23,8636 17279 97745
 430 0,26 0 0,005 26,0567 23,8636 17279 97745
 440 0,26 0,0001 0,005 26,0567 23,8636 17279 97745
 450 0,24 0,0003 0,0072 26,0567 23,8636 17279 97745
