 0 0 0,003 0,003 11,4394 0,1138 9,1572 2,2856 110729,6 75727,94 0 6964,75 63380,88
 10 0 0 0 0 0 0 0 0 0 0 0 63380,88
 20 0 0,0037 0,0037 25,4277 0,2321 20,2112 5,2178 191214,3 119113,7 0 6980,07 63577,33
 30 0 0 0 0 0 0 0 0 0 0 0 63577,33
 40 0 0,0045 0,0045 13,5686 0,1642 11,9148 1,6533 114820,1 16950,42 0 6990,72 63747,25
 50 0 0 0 0 0 0 0 0 0 0 0 63747,25
 60 0 0,0032 0,0032 19,4579 0,1797 19,2726 0,183 125410,3 2998,086 0 7001,89 63916,45
 70 0 0 0 0 0 0 0 0 0 0 0 63916,45
 80 0 0,0013 0,0013 4,1119 0,0435 4,0201 0,09180000000000001 20602,47 3007,668 0 7010,55 64044,57
 90 0 0 0 0 0 0 0 0 0 0 0 64044,57
 100 0 0,0035 0,0035 31,3498 0,248 5,1114 26,2484 37107,72 657353,2 0 7014,86 64070,83
 110 0 0 0 0 0 0 0 0 0 0 0 64070,83
 120 0 0,0038 0,0038 13,8912 0,1695 13,893 0 90620,13 0 0 7024,56 64214,9
 130 0 0 0 0 0 0 0 0 0 0 0 64214,9
 140 0 0,0016 0,0016 6,1183 0,06710000000000001 5,9336 0,183 45640,84 3044,394 0 7033,75 64301,51
 150 0 0 0 0 0 0 0 0 0 0 0 64301,51
 160 0 0,0057 0,0057 33,1044 0,3214 10,337 22,7679 173726,3 680839,2 0 7042,55 64388,92
 170 0 0 0 0 0 0 0 0 0 0 0 64388,92
 180 0 0,0063 0,0061 39,1761 0,3512 9,367699999999999 29,8059 60919,12 692800,5 0 7056,67 64517,29
 190 0 0 0 0 0 0 0 0 0 0 0 64517,29
 200 0 0,0023 0,0023 3,738 0,0696 3,6466 0,0912 905487,8 373,7238 0 7063,59 64578,22
 210 0 0 0 0 0 0 0 0 0 0 0 64578,22
 220 0 0,0029 0,0029 13,8676 0,1457 13,7779 0,0911 92485,07000000001 2985,472 0 7069,43 64691,5
 230 0 0 0 0 0 0 0 0 0 0 0 64691,5
 240 0 0,0015 0,0015 7,8911 0,0893 7,8902 0 61794,84 0 0 7074,89 64772,27
 250 0 0 0 0 0 0 0 0 0 0 0 64772,27
 260 0 0,0016 0,0016 1,9155 0,0439 1,9145 0 24295,74 0 0 7081,21 64840,75
 270 0 0 0 0 0 0 0 0 0 0 0 64840,76
 280 0 0,0024 0,0024 5,5758 0,0833 5,3923 0,1835 34845,11 6014,338 0 7089,97 64887,46
 290 0 0 0 0 0 0 0 0 0 0 0 64887,46
 300 0 0,0014 0,0014 4,1114 0,0489 4,1114 0 33313,36 0 0 7099,9 64932,76
 310 0 0 0 0 0 0 0 0 0 0 0 64932,76
 320 0 0,0012 0,0012 2,2875 0,0457 2,1036 0,1838 16445,37 3010,827 0 7106,2 64970,04
 330 0 0 0 0 0 0 0 0 0 0 0 64970,04
 340 0 0,0021 0,0021 4,9329 0,07149999999999999 4,932 0 30656,73 0 0 7113,38 65018,46
 350 0 0 0 0 0 0 0 0 0 0 0 65018,46
 360 0 0,0011 0,001 11,354 0,0706 2,017 9,351699999999999 15475,19 155983,2 0 7117,98 65042,62
 370 0 0 0 0 0 0 0 0 0 0 0 65042,62
 380 0 0,0138 0,0138 29,4739 0,7529 17,9108 11,5544 5418378 200055,3 0 7123,97 65103,94
 390 0 0 0 0 0 0 0 0 0 0 0 65103,95
 400 0 0,0432 0,0432 63,4133 2,5684 30,3397 33,067 18659590 978043,1 0 7140,33 65447,94
 410 0 0 0 0 0 0 0 0 0 0 0 65447,96
 420 0 0,0327 0,0327 78,23650000000001 2,0876 25,0527 53,1714 20460510 250807,1 0 7152,8 65716,22
 430 0 0 0 0 0 0 0 0 0 0 0 65716,22
 440 0 0,0263 0,0263 97,8014 1,8682 25,5017 72,30200000000001 23417610 320290,6 0 7160,74 66003,60000000001
 450 0 0 0 0 0 0 0 0 0 0 0 66003,60000000001
 460 0 0,0272 0,0272 95,8852 2,1163 31,1825 64,7179 22477720 266945,9 0 7169,24 66303,36
 470 0 0 0 0 0 0 0 0 0 0 0 66303,37
 480 0 0,0315 0,0314 81,1354 2,0451 23,9574 57,1789 19409360 245535,7 0 7177,89 66605,98
 490 0 0 0 0 0 0 0 0 0 0 0 66605,98
 500 0 0,0351 0,0351 71,07380000000001 2,0108 23,0336 48,0453 19300540 202447,6 0 7186,82 66868,24000000001
 510 0 0 0 0 0 0 0 0 0 0 0 66868,24000000001
 520 0 0,0298 0,0298 84,50790000000001 1,8663 24,2321 60,2849 22068250 320013,1 0 7195,31 67127,59
 530 0 0 0 0 0 0 0 0 0 0 0 67127,59
 540 0 0,031 0,031 89,6784 2,1138 25,4136 64,2667 19499490 422482,7 0 7202,26 67384,99000000001
 550 0 0 0 0 0 0 0 0 0 0 0 67384,99000000001
 560 0 0,0284 0,0284 95,1003 2,0618 23,8596 71,261 20350970 361626,8 0 7212,96 67677,96000000001
 570 0 0 0 0 0 0 0 0 0 0 0 67677,96000000001
 580 0 0,0462 0,0462 66,795 2,5208 35,8292 30,9602 17695400 128678,1 0 7225,37 67969,31
 590 0 0 0 0 0 0 0 0 0 0 0 67969,31
 600 0 0,0526 0,0527 47,8034 2,4835 38,0292 9,771800000000001 16745210 40028,31 0 7247,16 68413,2
 610 0 0 0 0 0 0 0 0 0 0 0 68413,21000000001
 620 0 0,0535 0,0535 48,5514 2,5688 40,0471 8,5063 15846950 40082,75 0 7275,26 68819,91
 630 0 0 0 0 0 0 0 0 0 0 0 68819,91
 640 0 0,0519 0,0519 48,097 2,4201 39,7833 8,3207 16867290 34457,9 0 7304,19 69273,89999999999
 650 0 0 0 0 0 0 0 0 0 0 0 69273,92
 660 0 0,0523 0,0523 44,8907 2,3137 37,668 7,2254 17596250 32224,03 0 7328,59 69663,63
 670 0 0 0 0 0 0 0 0 0 0 0 69663,63
 680 0 0,0445 0,0445 47,5504 2,0811 41,9681 5,5884 20971510 28150,11 0 7356,86 70114,83
 690 0 0 0 0 0 0 0 0 0 0 0 70114,84
 700 0 0,0437 0,0436 52,576 2,2483 43,791 8,877599999999999 20791320 113903,8 0 7382,65 70601,46000000001
 710 0 0 0 0 0 0 0 0 0 0 0 70601,47
 720 0 0,0452 0,0452 57,1366 2,5547 47,3472 9,693 19292080 86115,92 0 7412,47 71085,96000000001
 730 0 0 0 0 0 0 0 0 0 0 0 71085,96000000001
 740 0 0,0418 0,0418 54,78 2,2586 46,095 8,687799999999999 21770430 92437,77 0 7446,43 71600,78999999999
 750 0 0 0 0 0 0 0 0 0 0 0 71600,8
 760 0 0,0451 0,0451 49,4411 2,1633 41,3997 8,0412 19812200 69482,10000000001 0 7473,9 72082,64
 770 0 0 0 0 0 0 0 0 0 0 0 72082,66
 780 0 0,0451 0,0451 53,8438 2,3974 47,8108 6,0343 20567220 34669,88 0 7501,64 72561,82000000001
 790 0 0 0 0 0 0 0 0 0 0 0 72561,83
 800 0 0,0421 0,0421 51,9252 2,1484 44,0615 7,8625 21944200 62579,23 0 7527,55 73079,98
 810 0 0 0 0 0 0 0 0 0 0 0 73080
 820 0 0,0424 0,0424 52,0234 2,1854 47,1721 4,8448 21534030 103207,3 0 7553,61 73566,13
 830 0 0 0 0 0 0 0 0 0 0 0 73566,14
 840 0 0,0345 0,0345 64,26349999999999 2,0353 47,5301 16,7335 21534770 189340,3 0 7580,63 74093,58
 850 0 0 0 0 0 0 0 0 0 0 0 74093,59
 860 0 0,0045 0,0045 24,8854 0,2284 17,1055 7,7833 262334 142117,7 0 7600 74453,38
 870 0 0 0 0 0 0 0 0 0 0 0 74453,38
 880 0 0,0017 0,0017 6,3932 0,0614 6,2095 0,1841 32052,17 1979,642 0 7607,98 74559,34
 890 0 0 0 0 0 0 0 0 0 0 0 74559,34
 900 0 0,0013 0,0013 7,6714 0,0742 7,6703 0 49361,94 0 0 7616,41 74642,07000000001
 910 0 0 0 0 0 0 0 0 0 0 0 74642,08
 920 0 0,0014 0,0014 5,3 0,0673 5,0211 0,2754 32879,02 5687,98 0 7620,82 74691,87
 930 0 0 0 0 0 0 0 0 0 0 0 74691,87
 940 0 0,0012 0,0012 2,3786 0,0329 2,1961 0,1826 22527,45 4486,624 0 7626,13 74752,42
 950 0 0 0 0 0 0 0 0 0 0 0 74752,42
 960 0 0,0032 0,0032 5,7561 0,1207 5,7576 0 38914,48 0 0 7630,93 74796,02
 970 0 0 0 0 0 0 0 0 0 0 0 74796,02
 980 0 0,0016 0,0016 6,8607 0,0788 6,6782 0,1827 41264,41 2993,427 0 7635,67 74842,23
 990 0 0 0 0 0 0 0 0 0 0 0 74842,23
 1000 0 0,0013 0,0013 3,2033 0,0447 3,2034 0 22914,13 0 0 7643,21 74920,44
 1010 0 0 0 0 0 0 0 0 0 0 0 74920,44
 1020 0 0,0031 0,0031 23,5 0,2445 23,4984 0 104519,9 0 0 7649,19 75059,2
 1030 0 0 0 0 0 0 0 0 0 0 0 75059,21000000001


