 0 0 0 0 0 0 0 0 0,0164
 10 52,4 0 0 9,848000000000001 5,7399 0,2856 0,0083 0,0025
 20 7,4121 0 0 0,4985 1,1609 0,099 0,0046 0,0066
 30 21,8783 0 0 10,0502 3,5943 0,2419 0,0021 0,0048
 40 9,303000000000001 0 0 0,0172 2,1418 0,0859 0,0002 0,0293
 50 45,9283 0 0 0 4,1346 0,7302999999999999 0 0,005
 60 12,1562 0 0 0,446 3,2092 0,7098 0,0015 0,0045
 70 12,4194 0 0 0 3,2142 0,4298 0 0,0069
 80 18,4435 0 0 0,1716 4,121 0,8841 0,0004 0,0013
 90 2,3327 0 0 0 0,8611 0,0852 0 0,0059
 100 13,7951 0 0 0,08890000000000001 3,2153 0,4568 0,0003 0,0068
 110 19,2452 0 0 0,2936 3,9601 0,5124 0,0005999999999999999 0,0125
 120 15,5919 0 0 0,5282 1,8032 0,4312 0,0003 0,0078
 130 15,4967 0 0 0,6315 2,9063 0,0871 0,0016 0,0342
 140 65,2895 0 0 1,7802 6,0638 0,9504 0,0049 0,0245
 150 54,9221 0 0 2,927 3,039 0,3004 0,0178 0,0328
 160 46,2801 0 0 0,9071 3,2101 0,6146 0,0049 0,0219
 170 36,2432 0 0 0 3,2219 0,4266 0 0,0036
 180 15,3163 0 0 5,7194 3,3114 0,4458 0,0007 0,1135
 190 313,671 0 0 3,2605 23,5886 0,9194 0,0173 0,1606
 200 362,5381 0 0 1,4491 20,5569 0 0,0129 0,1977
 210 408,2042 0 0 4,2312 16,0218 1,0851 0,0132 0,1846
 220 333,0431 0 0 2,9043 13,6099 0,362 0,0174 0,2192
 230 372,6693 0 0 4,0612 13,362 0,9807 0,0271 0,1959
 240 360,444 0 0 2,2246 14,2796 0,3173 0,0177 0,2134
 250 459,9696 0 0 11,5531 13,5487 0,8379 0,07000000000000001 0,2087
 260 454,2158 0 0 13,8322 12,455 0,6181 0,093 0,2037
 270 515,8678 0 0 25,1634 13,5652 0,8834 0,0788 0,2177
 280 590,6337 0 0 24,7423 13,5772 0,9232 0,0935 0,2194
 290 486,2108 0 0 15,1422 11,1715 1,159 0,0897 0,23
 300 469,8871 0 0 11,3171 12,0641 0,5713 0,0839 0,2301
 310 423,6684 0 0 9,260999999999999 11,8088 1,1803 0,0557 0,2417
 320 374,7987 0 0 1,5967 12,1698 1,0726 0,0121 0,246
 330 386,9672 0 0 2,6925 10,6893 1,2594 0,0312 0,2256
 340 443,4312 0 0 8,203099999999999 11,15 0,9812 0,068 0,2465
 350 496,8325 0 0 11,9405 10,6721 0,9011 0,09379999999999999 0,2783
 360 519,8225 0 0 10,5097 10,6589 1,2665 0,1073 0,2682
 370 957,6975 0 0 37,7974 10,1884 0,7087 0,1388 0,2258
 380 390,3577 0 0 3,8756 13,5639 0,88 0,0216 0,2369
 390 391,6218 0 0 3,6376 13,9365 1,5086 0,024 0,1923
 400 340,8575 0 0 1,4492 13,8481 1,5688 0,008500000000000001 0,2079
 410 371,6679 0 0 5,8038 13,3439 0,8169 0,0315 0,198
 420 627,0114 0 0 14,9666 13,9846 1,7538 0,222 0,1755
 430 801,2159 0 0 3,3182 11,823 1,0853 0,4691 0,2112
 440 1053,633 0 0 6,5516 13,1801 1,2001 0,5580000000000001 0,229
 450 1307,222 0 0 4,361 12,9886 1,2601 0,9367 0,1884
 460 1322,5 0 0 3,5009 12,2124 0,824 1,0847 0,2632
 470 1401,748 0 0 4,5784 12,2721 1,3467 0,8928 0,2446
 480 1537,215 0 0 4,4941 12,1219 0,5478 1,1107 0,2299
 490 1633,021 0 0 4,3154 12,7197 1,1421 1,1955 0,2188
 500 1540,413 0 0 5,6212 12,1518 0,8854 1,1548 0,2226
 510 1311,659 0 0 4,4375 10,7608 0,7799 1,0249 0,2463
 520 1084,12 0 0 18,2636 11,0939 0,1653 0,3706 0,233
 530 605,4357 0 0 21,3761 10,9111 0,6393 0,1118 0,2568
 540 544,3055000000001 0 0 17,0478 7,6612 0,1811 0,1375 0,248
 550 566,7825 0 0 17,5787 11,7021 1,0986 0,112 0,253
 560 620,7924 0 0 17,708 11,8865 1,3552 0,1241 0,2215
 570 623,1416 0 0 29,1081 11,4706 0,7733 0,0994 0,2534
 580 632,2859 0 0 22,5068 9,996499999999999 0,861 0,1086 0,2508
 590 594,3492 0 0 12,5496 10,2856 0,7537 0,1044 0,2181
 600 1225,165 0 0 11,3149 9,1797 1,2365 0,663 0,2596
 610 1338,603 0 0 3,2566 6,8374 0,5484 0,9728 0,2844
 620 1586,113 0 0 9,483000000000001 9,055 0,8277 0,8501 0,2588
 630 1565,393 0 0 8,840400000000001 8,9961 1,2341 0,9575 0,2312
 640 1432,455 0 0 3,0282 7,4569 1,2455 1,0294 0,2162
 650 1339,46 0 0 4,7731 9,542999999999999 0,9147 0,9308999999999999 0,2553
 660 1319,768 0 0 3,755 12,0336 1,0609 0,9540999999999999 0,203
 670 686,7157999999999 0 0 3,4984 15,2766 1,5018 0,2981 0,2141
 680 335,0548 0 0 3,4705 12,2062 0,6967 0,0219 0,1964
 690 347,619 0 0 2,119 15,734 1,072 0,0103 0,1931
 700 333,9114 0 0 1,9977 13,9958 1,1764 0,0115 0,2157
 710 340,4656 0 0 2,0922 13,1977 1,3369 0,008200000000000001 0,1824
 720 350,5915 0 0 2,4156 15,282 1,0273 0,0098 0,1976
 730 400,229 0 0 6,5663 15,4271 2,0584 0,0294 0,1846
 740 341,6066 0 0 3,0612 14,125 0,4021 0,0182 0,2042
 750 363,8058 0 0 5,9886 13,1314 1,7916 0,0286 0


