 0 0 0,0021 0,0021 4,5407 0,0694 1,9781 2,5667 29562,25 57439,98 0 3825,01 224155
 10 0 0,0029 0,0029 7,5822 0,1291 4,9391 2,6466 36386,39 67297,94 0 3833,25 224205
 20 0 0,0042 0,0042 11,0647 0,1432 4,9413 6,1227 35578,02 159985,9 0 3841,65 224250,8
 30 0 0,0038 0,0038 7,0456 0,1099 3,1972 3,8446 27685,34 70594,56 0 3848,31 224295,9
 40 0 0,0028 0,0028 4,6701 0,1213 4,3071 0,3654 24015,71 6728,262 0 3854,56 224341,1
 50 0 0,002 0,002 3,3867 0,092 3,2028 0,1832 19502,22 5627,651 0 3860,29 224374,9
 60 0 0,0051 0,0051 36,8572 0,3034 7,4046 29,4641 77188,44 721367,3 0 3874,85 224429,7
 70 0 0,0035 0,0035 9,3283 0,2284 7,862 1,4645 44956,36 14368,82 0 3901,82 224538,3
 80 0 0,0025 0,0025 5,2082 0,1132 4,9342 0,2735 43722,75 4484,939 0 3910,32 224585,2
 90 0 0,002 0,002 3,387 0,0575 2,6551 0,7317 18379,47 16139,53 0 3917,61 224635,3
 100 0 0,0042 0,0042 10,3293 0,2222 5,3968 4,9321 106385,7 76217,63 0 3928,3 224688,7
 110 0 0,0023 0,0023 5,1058 0,1068 3,5608 1,5389 20196,75 21173,04 0 3934,24 224726,8
 120 0 0,0026 0,0026 15,3716 0,1248 2,4681 12,9082 17956,56 233232,4 0 3940,75 224759
 130 0 0,0041 0,0041 15,1934 0,2132 5,1205 10,072 29999,44 100146,6 0 3949,47 224807,6
 140 0 0,0031 0,0031 4,2069 0,1027 3,5669 0,64 21756,1 3225,062 0 3954,51 224838,6
 150 0 0,0046 0,0046 21,39 0,2567 3,3829 18,0109 25090,97 290379,7 0 3960,71 224877,8
 160 0 0,0058 0,0058 43,8855 1,2723 2,7443 41,146 22942,78 607129,1 0 3969,06 224921,8
 170 0 0,0054 0,0054 35,4886 1,1127 3,5728 31,9134 22167,29 356452,3 0 3974,69 224949,4
 180 0 0,0036 0,0036 14,6298 0,164 10,6072 4,0192 121936,1 77902,92 0 3982,82 225000
 190 0 0,0025 0,0025 7,495 0,1026 2,3735 5,1178 11606,49 104288,8 0 3989,47 225107,6
 200 0 0,0024 0,0024 9,4124 0,1285 3,4754 5,9356 20989,15 160457,7 0 3994,25 225134,1
 210 0 0,09470000000000001 0,0945 49,368 4,6283 29,806 19,5513 48233040 266827,3 0 3999,9 225315,4
 220 0 0,1003 0,1003 31,6372 3,1343 25,8807 5,7625 55355900 72043,00999999999 0 4008,6 225641
 230 0 0,1128 0,1126 20,8482 2,4716 18,296 2,5604 46611060 33435,23 0 4015,13 225870,9
 240 0 0,1175 0,1175 25,4209 3,0838 17,5547 7,8641 48686540 133736,1 0 4022,11 226061,5
 250 0 0,0959 0,0958 23,9632 2,2117 19,3881 4,5758 63740500 55252,47 0 4028,13 226260,2
 260 0 0,09760000000000001 0,09760000000000001 21,2093 1,9748 18,5568 2,6517 66955770 41257,3 0 4035,87 226464,9
 270 0 0,1068 0,1057 25,3117 2,6119 14,7146 10,5935 48783340 311072,9 0 4043,95 226654,5
 280 0 0,1229 0,1246 39,2143 4,4586 14,6261 24,589 43057800 357749,7 0 4050,72 226811,5
 290 0 0,0998 0,0997 35,3731 3,3312 17,0915 18,2798 55471320 284415,9 0 4056,47 226976,7
 300 0 0,09279999999999999 0,093 24,0346 2,1173 19,0067 5,0286 67110740 100481,2 0 4063,85 227181,1
 310 0 0,1092 0,1092 18,5674 2,1934 15,3658 3,202 49151860 52289,99 0 4068,39 227371,1
 320 0 0,094 0,0939 24,1301 2,2066 19,8323 4,2949 64145390 84488,14 0 4075,31 227553,5
 330 0 0,0982 0,0982 21,5748 2,051 18,189 3,3816 62020910 36521,82 0 4085,39 227777,2
 340 0 0,0901 0,09 22,8371 1,9751 19,0882 3,7493 67424350 66631,24000000001 0 4092,26 227976,6
 350 0 0,0992 0,0992 22,308 2,0731 19,2046 3,1058 62609780 63695,44 0 4099,93 228184,3
 360 0 0,0862 0,0862 23,224 1,8042 18,4729 4,7515 72795150 67734,98 0 4107,8 228392,3
 370 0 0,0851 0,0853 29,5374 2,3028 20,2039 9,3375 70990660 272820,1 0 4111,37 228601,3
 380 0 0,0978 0,0977 51,7482 4,7782 17,7357 34,0107 55392640 684068,3 0 4120,09 228804,2
 390 0 0,0844 0,08450000000000001 49,8319 4,1194 18,2847 31,5406 59085930 521794,6 0 4127,97 228992,7
 400 0 0,1065 0,1056 48,4515 4,968 19,0155 29,436 52262140 648897,8 0 4135,3 229214,1
 410 0 0,1215 0,1212 27,6987 3,3671 15,1822 12,5171 49529600 190761,9 0 4145,03 229389,7
 420 0 0,0983 0,0984 18,832 1,7388 16,2691 2,5616 69682720 13543,19 0 4149,57 229561,6
 430 0 0,094 0,0939 23,6852 2,1135 19,6604 4,0263 65340540 56946,32 0 4155,23 229765,8
 440 0 0,09669999999999999 0,0963 25,1385 2,4507 18,0165 7,1326 62067620 81903,02 0 4163,16 229969,6
 450 0 0,08890000000000001 0,08890000000000001 23,4938 1,9773 16,8175 6,6761 66347480 123793,9 0 4169,3 230165,5
 460 0 0,1095 0,1097 21,0353 2,3968 17,3801 3,6557 54681380 65900,08 0 4177,32 230352,4
 470 0 0,1176 0,1176 18,2049 2,368 15,1794 3,0268 51903720 37472,86 0 4184,88 230520,3
 480 0 0,1222 0,1222 17,7355 2,1549 12,1587 5,5777 48308640 81542,39 0 4191,3 230675,5
 490 0 0,1328 0,133 20,3853 2,6182 15,0856 5,2997 48762210 75805,67 0 4197,3 230822,7
 500 0 0,08749999999999999 0,08749999999999999 25,521 2,1021 18,6624 6,857 70516250 104503,7 0 4203,72 231006,1
 510 0 0,08749999999999999 0,08749999999999999 27,9844 2,3253 18,1995 9,7835 67985380 134134,8 0 4209,4 231207
 520 0 0,1035 0,1039 20,473 2,0632 16,7239 3,7492 62332370 41746,57 0 4217,68 231402,9
 530 0 0,0877 0,08740000000000001 21,667 1,8263 18,282 3,3827 71493310 24993,58 0 4221,85 231586,6
 540 0 0,0848 0,0848 32,4531 2,6428 17,0038 15,4513 65006220 641551,8 0 4228,94 231792,6
 550 0 0,0939 0,0939 33,6437 3,0661 17,3696 16,2723 62218950 274537,2 0 4237,8 231979,9
 560 0 0,07969999999999999 0,07969999999999999 39,6135 3,0129 17,8386 21,7756 66534020 292803 0 4243,99 232165,8
 570 0 0,0893 0,0893 39,5653 3,2895 16,1706 23,3944 61230630 319066,3 0 4251,74 232359,1
 580 0 0,08400000000000001 0,08400000000000001 42,8744 3,1792 16,638 26,2349 61234230 338146,1 0 4255,2 232535
 590 0 0,0844 0,0844 55,7604 4,1722 16,1801 39,5743 60480980 758278,4 0 4260,04 232703,7
 600 0 0,106 0,1062 56,0377 5,2604 15,8181 40,2253 51829540 492253,1 0 4267,69 232881
 610 0 0,0725 0,0727 72,5851 4,5788 16,6388 55,9371 59088540 1185677 0 4274,91 233066,2
 620 0 0,07489999999999999 0,07489999999999999 55,3054 3,5635 17,4571 37,8475 58878580 385723,3 0 4280,79 233244,3
 630 0 0,0694 0,0694 40,3699 2,5227 16,5357 23,8411 62816820 233275,6 0 4288,34 233438
 640 0 0,0799 0,0798 38,6697 2,8656 18,1888 20,4758 65341840 222690,5 0 4294,74 233631,9
 650 0 0,0795 0,0795 40,5809 3,0205 17,9082 22,6714 57171950 489920,6 0 4300,47 233827,8
 660 0 0,09710000000000001 0,09719999999999999 40,5203 3,6013 15,1843 25,3443 54481840 934066 0 4306,08 234008,6
 670 0 0,074 0,074 41,8825 2,8909 18,6542 23,22 62083420 580669,1 0 4311,46 234198,7
 680 0 0,08019999999999999 0,0801 39,773 3,0712 18,9236 20,8436 62605420 480960,1 0 4318,19 234398,1
 690 0 0,08500000000000001 0,08500000000000001 38,2025 3,0744 19,8346 18,372 63345560 367159,6 0 4326,4 234608,2
 700 0 0,0702 0,0703 28,4263 1,9651 21,9407 6,4847 73084460 91504,52 0 4333,86 234844,4
 710 0 0,0732 0,0732 23,0346 1,6088 19,9247 3,1051 69302860 37088,29 0 4339,73 235063,6
 720 0 0,07480000000000001 0,07480000000000001 19,7434 1,3447 17,6426 2,1023 75491620 21486,45 0 4345,57 235262,8
 730 0 0,0828 0,08309999999999999 20,482 1,6414 18,0092 2,4735 70262030 26693,88 0 4351,63 235471,9
 740 0 0,07439999999999999 0,07439999999999999 30,1778 2,2095 21,125 9,052199999999999 58756040 128159,2 0 4357,12 235674,9
 750 0 0,0718 0,07190000000000001 44,8949 2,8595 18,9287 26,0548 60720040 452832,3 0 4366,88 235894,9
 760 0 0,0552 0,0551 27,1413 1,4547 21,1118 5,9323 75277590 132067,7 0 4374,21 236128
 770 0 0,0548 0,0548 29,3516 1,6424 23,4914 5,8577 61250400 110226 0 4382,01 236364,8
 780 0 0,0471 0,0471 31,9261 1,3322 23,5048 8,426500000000001 62949270 156121,5 0 4386,6 236616,6
 790 0 0,0484 0,0483 27,9859 1,3385 23,8665 4,1159 56938280 71818,89999999999 0 4392,45 236884,1
 800 0 0,0424 0,0425 35,9368 1,4789 28,4339 7,5042 49860530 156160,8 0 4399,41 237152,1
 810 0 0,0349 0,035 34,1934 1,1517 29,3453 4,8479 51815020 110149,6 0 4406,62 237480,4
 820 0 0,0412 0,0411 38,395 1,573 29,5233 8,8698 46650940 147630,4 0 4413,61 237805,4
 830 0 0,0388 0,0388 40,6873 1,5345 28,8916 11,7963 47994700 329771,3 0 4423,18 238120,1
 840 0 0,0491 0,049 58,3272 1,7144 11,6104 46,7192 44400160 1495101 0 4427,7 238345,3
 850 0 0,0578 0,0576 58,1421 2,3833 11,512 46,6346 40585400 1457551 0 4432,88 238469,5
 860 0 0,0906 0,0906 54,4881 2,4621 9,7882 44,6945 36802480 1395482 0 4439,54 238587,3
 870 0 0,096 0,096 43,7886 2,531 10,6931 33,0999 36504400 1058750 0 4446,11 238707,9
 880 0 0,0764 0,0766 54,9455 2,5058 11,3327 43,6145 32065050 1384596 0 4453,79 238818,3
 890 0 0,0614 0,063 53,211 2,1985 12,0633 41,1443 44525110 1269143 0 4461,32 238948,5
 900 0 0,06370000000000001 0,06370000000000001 72,4772 3,3613 11,3253 61,1426 32623030 1543217 0 4468,47 239073,2
 910 0 0,05 0,0501 131,4435 4,6035 8,670999999999999 122,7663 24625910 2838725 0 4474,38 239180,4
 920 0 0,0484 0,0482 114,3762 3,7453 9,5138 104,8697 27285860 3818807 0 4479,85 239276,6
 930 0 0,0212 0,0211 89,95059999999999 1,447 27,9795 61,9743 9517952 1233137 0 4486,6 239445,4
 940 0 0,0123 0,0123 37,7569 0,6976 35,1053 2,6524 1301513 44324,88 0 4494,28 239920,3
 950 0 0,0012 0,0014 3,1999 0,0502 2,8342 0,3656 19490,24 8231,401 0 4500,7 240036,2
 960 0 0,0051 0,0051 87,3043 0,7008 3,7446 83,6371 143611,9 1931160 0 4509,39 240079,7
 970 0 0,0067 0,0067 174,2178 0,882 6,3956 167,7477 26297,8 4935492 0 4521,02 240126
 980 0 0,0044 0,0044 47,3519 0,3545 3,0182 44,346 13867,63 1219478 0 4526,85 240184,5
 990 0 0,0075 0,0075 59,3973 0,6654 4,1124 55,2956 31060,41 954688,5 0 4533,93 240227,3
 1000 0 0,0165 0,0164 145,1909 2,4276 8,861599999999999 136,33 2839170 3145732 0 4541,6 240287,5
 1010 0 0,0041 0,0041 17,5565 0,2736 5,2949 12,2615 34062,36 187302,4 0 4547,03 240366,2
 1020 0 0,0016 0,0016 3,9327 0,0459 2,3769 1,5587 15353,57 28760,35 0 4553,86 240410,6
 1030 0 0,003 0,003 15,0933 0,1705 4,7531 10,3403 34461,62 251960,1 0 4560,72 240451,4
 1040 0 0,0039 0,0039 5,0224 0,127 4,1998 0,8237 26583,23 13916,82 0 4568,92 240494,7
 1050 0 0,0042 0,0042 66,4759 0,4377 2,0107 64,55759999999999 19435,69 3143734 0 4576,82 240534,4
 1060 0 0,0042 0,0042 25,8791 0,267 3,4705 22,3194 18717,67 488424,5 0 4583,46 240571,8
 1070 0 0,0031 0,0031 11,4242 0,1637 4,388 7,1296 27387,81 151346,7 0 4591,11 240608,1
 1080 0 0,0014 0,0014 11,7893 0,09320000000000001 1,0067 10,6939 6367,428 169235 0 4595,96 240636,9
 1090 0 0,002 0,002 6,4868 0,0784 2,9272 3,5568 16117,04 49541,07 0 4602,55 240668,7
 1100 0 0,0035 0,0035 9,6015 0,1504 5,759 3,8392 34078,64 94695,28999999999 0 4611,04 240709,2
 1110 0 0,0019 0,0019 2,1008 0,0372 1,9215 0,1818 18338,47 7448,393 0 4617,69 240744


