 0 0 0 0 0 0 0 0 0,003
 10 23,38 77,8566 39471 5,9493 3,6145 0 0,0014 0,003
 20 13,6584 77,8566 39471 2,0183 4,6204 0,3649 0,0014 0,0024
 30 5,792 77,8566 39471 1,8021 2,3928 0,0223 0,0008 0,0036
 40 14,5298 77,8566 39471 3,0582 3,8259 0,343 0,0016 0,0024
 50 13,7553 77,8566 39471 1,2068 4,4753 0,4312 0,0009 0,0017
 60 7,9601 77,8566 39471 0,0332 2,3976 0,09950000000000001 0,0002 0,0031
 70 23,4472 77,8566 39471 24,9088 5,4085 0,5311 0,0025 0,0042
 80 25,3134 77,8566 39471 2,7028 8,214399999999999 0,5315 0,0011 0,0023
 90 10,1916 77,8566 39471 0,2626 3,9858 0,2359 0,0002 0,002
 100 5,7404 77,8566 39471 0,6792 2,3917 0,183 0,0009 0,0028
 110 19,7803 77,8566 39471 4,4364 4,2743 0,3053 0,0014 0,0031
 120 26,2078 77,8566 39471 11,8098 3,9026 0 0,006 0,0019
 130 11,3719 77,8566 39471 5,8553 2,5137 0,1833 0,0022 0,0027
 140 12,3539 77,8566 39471 5,886 2,7728 0,0752 0,0004 0,0026
 150 16,6956 77,8566 39471 9,4329 2,6892 0,0609 0,0008 0,0024
 160 26,0856 77,8566 39471 8,9406 3,5754 0,3055 0,0027 0,001
 170 232,6999 77,8566 39471 69,19880000000001 0,7374000000000001 0,6457000000000001 0,0078 0,0022
 180 9,9983 77,8566 39471 1,1887 3,0998 0,4566 0,0004 0,0065
 190 31,8612 77,8566 39471 8,308199999999999 11,9641 0,732 0,0014 0,0015
 200 3,7013 77,8566 39471 0,8292 1,3398 0,1209 0,0003 0,0625
 210 264,2822 77,8566 39471 17,4948 16,9713 0,5544 0,0315 0,1484
 220 400,9153 77,8566 39471 6,3877 26,0457 0,3646 0,0315 0,1938
 230 377,0147 77,8566 39471 2,7463 17,1212 0,5205 0,0156 0,1851
 240 402,2441 77,8566 39471 7,2464 13,8982 0,6840000000000001 0,0423 0,1773
 250 363,5819 77,8566 39471 5,2195 15,6111 0,5621 0,0259 0,2023
 260 345,5211 75,5142 38283,45 2,8539 14,6778 1,0294 0,0183 0,209
 270 488,9104 71,164 36078 15,7625 12,0061 0,5225 0,0585 0,2251
 280 512,1581 71,164 36078 18,0387 12,8396 0,7054 0,0839 0,1965
 290 462,5833 71,164 36078 13,9228 15,58 1,1688 0,0629 0,1664
 300 370,1836 71,164 36078 6,0741 14,7017 0,4912 0,027 0,1871
 310 339,5353 71,164 36078 2,3514 13,1888 0,8211000000000001 0,0108 0,1878
 320 383,5942 71,164 36078 5,2909 17,6384 0,8439 0,0246 0,1786
 330 338,7398 71,164 36078 2,385 14,841 0,8224 0,0148 0,1842
 340 360,9994 71,164 36078 3,4282 16,2026 1,0972 0,0107 0,1864
 350 342,257 71,164 36078 4,8882 15,3043 0,9751 0,0131 0,1798
 360 369,2547 71,164 36078 8,441800000000001 16,1398 0,5846 0,0235 0,2005
 370 733,0988 71,164 36078 35,1638 14,6644 0,6079 0,118 0,1984
 380 642,5047 71,164 36078 28,8753 15,1628 0,7645999999999999 0,0969 0,2147
 390 731,2821 71,164 36078 26,3143 15,0476 1,3504 0,121 0,2109
 400 535,2071999999999 71,164 36078 8,6784 13,3523 0,7317 0,1282 0,199
 410 426,1534 71,164 36078 1,6321 14,5563 0,4313 0,1129 0,1899
 420 475,3286 71,164 36078 7,3449 15,6532 1,489 0,122 0,2066
 430 467,1666 71,164 36078 4,5311 15,0833 0,9861 0,1017 0,1837
 440 508,0948 71,164 36078 5,3897 14,9683 1,0594 0,1105 0,2015
 450 445,7639 71,164 36078 2,2503 10,9256 0,3235 0,1054 0,2278
 460 518,6469 71,164 36078 5,7007 11,8325 0,8214 0,1423 0,2461
 470 491,9838 71,164 36078 5,0929 11,9201 1,5515 0,1126 0,1781
 480 441,059 71,164 36078 6,204 15,0465 0,8427 0,1139 0,2034
 490 546,3402 71,164 36078 9,1273 14,768 1,3058 0,2081 0,1985
 500 543,5483 71,164 36078 4,107 13,2847 0,8863 0,1755 0,1924
 510 480,055 64,7123 32807,15 6,6456 15,6332 0,9822 0,0953 0,1883
 520 554,5983 37,2073 18863 16,8683 14,402 0,9272 0,1199 0,2043
 530 530,9869 37,2073 18863 20,4676 12,7609 0,7543 0,1058 0,2086
 540 605,2391 37,2073 18863 24,2331 13,9932 1,5369 0,1201 0,1943
 550 597,5085 37,2073 18863 27,1382 13,7071 0,6168 0,1206 0,2227
 560 719,3443 37,2073 18863 41,4527 13,528 1,1768 0,1072 0,228
 570 770,8516 37,2073 18863 48,2638 13,4344 0,9474 0,1008 0,1922
 580 672,2028 37,2073 18863 47,5016 14,1058 0,6208 0,08 0,1939
 590 582,3597 37,2073 18863 28,7696 15,81 1,1865 0,0958 0,1754
 600 513,7664 37,2073 18863 21,7129 15,8375 0,6556 0,09569999999999999 0,1838
 610 481,7486 37,2073 18863 21,7173 14,9869 1,0225 0,0725 0,2005
 620 480,0596 37,2073 18863 22,1623 12,0817 0,4304 0,0801 0,2037
 630 439,2517 37,2073 18863 22,069 15,3011 0,4792 0,0597 0,1753
 640 482,5393 37,2073 18863 20,5204 16,911 1,1012 0,0699 0,1704
 650 375,3443 37,2073 18863 7,5388 19,8165 0,7868000000000001 0,0207 0,1688
 660 357,6157 37,2073 18863 6,8762 16,7029 1,5173 0,0215 0,1748
 670 353,4947 37,2073 18863 3,3123 18,3593 1,8057 0,0166 0,1547
 680 340,0317 37,2073 18863 2,25 19,0568 0,9999 0,0089 0,1736
 690 371,4131 37,2073 18863 6,3293 19,137 1,2244 0,0246 0,1619
 700 488,3536 37,2073 18863 24,278 19,3096 1,3674 0,0668 0,1413
 710 638,2998 37,2073 18863 7,5491 21,0943 0,6231 0,3105 0,1344
 720 915,995 37,2073 18863 6,1888 23,7786 2,2665 0,5071 0,153
 730 873,466 37,2073 18863 7,8148 23,1902 0,9903999999999999 0,4396 0,122
 740 859,2944 37,2073 18863 5,1329 23,4536 1,3289 0,4676 0,1146
 750 1178,537 37,2073 18863 6,4274 29,0112 1,1694 0,6371 0,08989999999999999
 760 1115,064 18,9837 9624,16 3,8279 30,4033 0,312 0,7756 0,1125
 770 1615,598 2,1619 1096 8,2209 26,7672 1,6468 1,0014 0,1603
 780 1258,932 2,1619 1096 32,2443 20,0521 1,9466 0,4559 0,1677
 790 1571,781 2,1619 1096 42,1024 10,6982 1,5085 0,4939 0,1545
 800 1505,543 2,1619 1096 50,5529 7,7147 0,8984 0,4756 0,1886
 810 1384,305 2,1619 1096 39,4103 9,0245 0,9708 0,5173 0,1961
 820 1347,07 2,1619 1096 33,0132 9,3719 1,2656 0,3707 0,2023
 830 1295,376 2,1619 1096 49,0136 8,2692 0,9625 0,307 0,2231
 840 1527,451 2,1619 1096 51,8858 10,2665 1,6668 0,3688 0,2057
 850 642,9503999999999 2,1619 1096 115,0906 8,087899999999999 1,0978 0,0492 0,2011
 860 1046,664 2,1619 1096 100,991 8,772500000000001 1,6337 0,1152 0,1122
 870 840,0318 2,1619 1096 58,4546 30,1759 1,2274 0,0915 0,0157
 880 82,07299999999999 2,1619 1096 1,2673 28,2443 0,0321 0,0007 0,002
 890 5,5276 2,1619 1096 0,3669 2,9023 0 0,0001 0,0023
 900 90,48009999999999 2,1619 1096 104,6122 3,4853 0,4556 0,0061 0,0023
 910 79,72499999999999 2,1619 1096 155,2763 2,0927 0,9144 0,0057 0,0044
 920 46,9826 2,1619 1096 45,6553 4,0848 0,2308 0,0034 0,0046
 930 85,2672 2,1619 1096 72,5496 3,4006 0,6681 0,0078 0,0146
 940 118,4959 2,1619 1096 44,851 7,891 1,4149 0,0061 0,0016
 950 5,2971 2,1619 1096 1,5366 2,5015 0,2707 0,0004 0,0024
 960 19,1719 2,1619 1096 10,1177 3,8069 0,364 0,0033 0,0023
 970 10,414 2,1619 1096 0,7739 2,7777 0,08359999999999999 0,001 0,0028
 980 66,74760000000001 2,1619 1096 79,7722 3,3136 0,5318000000000001 0,0046 0,0011
 990 6,65 2,1619 1096 4,232 1,1057 0,0939 0,0012 0,0021
 1000 19,6792 2,1619 1096 13,5013 2,7056 0,0289 0,0017 0,002
 1010 5,1714 4,4327 2247,25 0,0326 2,41 0,0977 0,0002 0,0017
 1020 8,860900000000001 77,8566 39471 6,5097 1,8028 0,2429 0,0011 0,0019
 1030 6,6604 77,8566 39471 0,4084 2,4764 0,09329999999999999 0,0003 0,0027
 1040 9,3148 77,8566 39471 1,1752 2,3762 0 0,0005 0


