dynamic 0 0,25 0,0008 0,0047 26,0658 33,9368 17285 139005
 10 0,2 0,0001 0,004 26,0658 33,9368 17285 139005
 20 0,24 0,0002 0,0048 26,0658 33,9368 17285 139005
 30 0,21 0 0,0061 26,0658 33,9368 17285 139005
 40 0,23 0 0,0046 26,0658 33,9368 17285 139005
 50 0,1 0,0001 0,0048 26,0658 33,9368 17285 139005
 60 0,34 0,0002 0,0068 26,0658 33,9368 17285 139005
 70 0,22 0,0003 0,0054 26,0658 33,9368 17285 139005
 80 0,36 0,0008 0,0072 26,0658 33,9368 17285 139005
 90 0,28 0,0004 0,0043 26,0658 33,9368 17285 139005
 100 0,21 0 0,0049 26,0658 33,9368 17285 139005
 110 0,42 0,0001 0,0068 26,0658 33,9368 17285 139005
 120 0,18 0 0,0049 26,0658 33,9368 17285 139005
 130 0,33 0 0,0048 26,0658 33,9368 17285 139005
 140 0,26 0,0001 0,0044 26,0658 33,9368 17285 139005
 150 0,1 0,0001 0,0033 26,0658 33,9368 17285 139005
 160 0,31 0,0007 0,0062 26,0658 33,9368 17285 139005
 170 0,21 0,0001 0,005 26,0658 33,9368 17285 139005
 180 0,23 0,0004 0,0051 26,0658 33,9368 17285 139005
 190 0,3 0,0002 0,0061 26,0658 33,9368 17285 139005
 200 0,23 0,0006 0,004 26,0658 33,9368 17285 139005
 210 3,27 0,017 0,0762 26,0658 33,9368 17285 139005
 220 4,41 0,0355 0,0907 26,0658 33,9368 17285 139005
 230 3,02 0,0193 0,0781 26,0658 33,9368 17285 139005
 240 2,89 0,0281 0,078 26,0658 33,9368 17285 139005
 250 2,47 0,0109 0,0784 26,0658 33,9368 17285 139005
 260 2,43 0,0151 0,0773 26,0658 33,9368 17285 139005
 270 2,34 0,0026 0,0814 26,0658 33,6038 17285 137640,8
 280 1,8 0,0093 0,0668 26,0658 33,2571 17285 136221
 290 2,05 0,0048 0,0705 26,0658 33,2571 17285 136221
 300 2,1 0,0044 0,0787 26,0658 33,2571 17285 136221
 310 1,87 0,0043 0,0833 26,0658 33,2571 17285 136221
 320 2,31 0,0083 0,0726 26,0658 33,2571 17285 136221
 330 1,87 0,0036 0,0656 26,0658 33,2571 17285 136221
 340 2,39 0,0085 0,0893 26,0658 33,2571 17285 136221
 350 2,08 0,0031 0,0735 26,0658 33,2571 17285 136221
 360 1,89 0,0038 0,0646 26,0658 33,2571 17285 136221
 370 2,51 0,0038 0,0694 26,0658 33,2571 17285 136221
 380 2,23 0,0203 0,0695 26,0658 33,2571 17285 136221
 390 1,71 0,0023 0,0586 26,0658 33,2571 17285 136221
 400 2,64 0,0004 0,0858 26,0658 33,2571 17285 136221
 410 2,28 0,0026 0,0728 26,0658 33,2571 17285 136221
 420 1,6 0,0018 0,0599 26,0658 33,2571 17285 136221
 430 1,65 0,0038 0,0631 26,0658 33,2571 17285 136221
 440 2,92 0,0094 0,0881 26,0658 33,2571 17285 136221
 450 1,94 0,0049 0,0805 26,0658 33,2571 17285 136221
 460 2,02 0,0042 0,0985 26,0658 33,2571 17285 136221
 470 2,72 0,0161 0,0934 26,0658 33,2571 17285 136221
 480 1,9 0,0055 0,0754 26,0658 33,2571 17285 136221
 490 2,4 0,0175 0,0719 26,0658 33,2571 17285 136221
 500 2,39 0,004 0,0652 26,0658 33,2571 17285 136221
 510 1,9 0,0084 0,0611 26,0658 33,2571 17285 136221
 520 2,54 0,0308 0,0748 26,0658 33,2571 17285 136221
 530 3,44 0,0374 0,085 26,0658 33,2571 17285 136221
 540 2,22 0,0207 0,0721 26,0658 33,2571 17285 136221
 550 2,57 0,0048 0,0753 26,0658 29,0968 17285 119180
 560 1,89 0,0042 0,0613 26,0658 28,9681 17285 118653
 570 1,77 0,0019 0,0602 26,0658 28,9681 17285 118653
 580 2,42 0,0058 0,066 26,0658 28,9681 17285 118653
 590 1,54 0,0005 0,0585 26,0658 28,9681 17285 118653
 600 1,86 0,0016 0,0645 26,0658 28,9681 17285 118653
 610 2,11 0,0023 0,0622 26,0658 28,9681 17285 118653
 620 1,58 0,0032 0,0658 26,0658 28,9681 17285 118653
 630 2,19 0,0028 0,0811 26,0658 28,9681 17285 118653
 640 2,95 0,0096 0,1082 26,0658 28,9681 17285 118653
 650 2,01 0,0058 0,0789 26,0658 28,9681 17285 118653
 660 2,07 0,0068 0,0607 26,0658 28,9681 17285 118653
 670 1,79 0,0044 0,057 26,0658 28,9681 17285 118653
 680 1,86 0,0067 0,0588 26,0658 28,9681 17285 118653
 690 1,9 0,0084 0,059 26,0658 28,9681 17285 118653
 700 1,83 0,0106 0,0627 26,0658 28,9681 17285 118653
 710 3,47 0,0375 0,0728 26,0658 28,9681 17285 118653
 720 2,08 0,0113 0,0607 26,0658 28,9681 17285 118653
 730 1,93 0,0141 0,0539 26,0658 28,9681 17285 118653
 740 2,37 0,0118 0,0576 26,0658 28,9681 17285 118653
 750 2,48 0,0235 0,0601 26,0658 28,9681 17285 118653
 760 4,71 0,0468 0,0693 26,0658 28,9681 17285 118653
 770 2,72 0,0263 0,06 26,0658 28,9681 17285 118653
 780 1,85 0,0049 0,0456 26,0658 28,9681 17285 118653
 790 2,05 0,0113 0,0466 26,0658 28,9681 17285 118653
 800 2,88 0,0223 0,0495 26,0658 28,9681 17285 118653
 810 3,24 0,0345 0,0523 26,0658 28,9681 17285 118653
 820 3 0,0347 0,0529 26,0651 27,0028 17284,55 110603,4
 830 2,12 0,0173 0,0418 26,0642 24,6009 17284 100765
 840 2,77 0,0328 0,0562 26,0642 24,6009 17284 100765
 850 2,9 0,0414 0,06 26,0642 24,6009 17284 100765
 860 2,37 0,0434 0,0583 26,0642 24,6009 17284 100765
 870 2,92 0,0543 0,072 26,0642 24,6009 17284 100765
 880 2,84 0,0351 0,0582 26,0642 24,6009 17284 100765
 890 2,19 0,045 0,0614 26,0642 24,6009 17284 100765
 900 3,2 0,0536 0,085 26,0642 24,6009 17284 100765
 910 2,3 0,0304 0,045 26,0642 24,6009 17284 100765
 920 1,03 0,0011 0,0167 26,0642 24,6009 17284 100765
 930 1,26 0,0003 0,0184 26,0642 24,6009 17284 100765
 940 0,36 0,0022 0,0054 26,0642 24,6009 17284 100765
 950 0,34 0,0023 0,0044 26,0642 24,6009 17284 100765
