 0 0 0,0045 0,0045 101,7581 0,6058 0,9136 100,8672 10098,62 2177641 0 564,15 9582,68
 10 0 0,0078 0,0078 219,6281 1,0051 0,6289 219,0223 3711,913 6587392 0 566,26 9595,959999999999
 20 0 0,0114 0,0114 189,3505 1,2788 5,75 183,587 40469,59 4067098 0 576,45 9632,93
 30 0 0,0054 0,0054 49,2554 0,4352 4,2837 44,9802 22437,49 940321,4 0 585,66 9674,110000000001
 40 0 0,0012 0,0011 3,2568 0,0365 2,8005 0,4581 25491,05 9384,73 0 590,01 9728,93
 50 0 0,0032 0,0032 10,549 0,1138 4,989 5,5622 38791,67 146184,6 0 596,73 9765,48
 60 0 0,0015 0,0015 3,8456 0,0664 3,845 0 18743,57 0 0 605,28 9811,17
 70 0 0,001 0,001 2,2855 0,0277 2,1938 0,09080000000000001 11334,95 2975,094 0 611,41 9853,01
 80 0 0,0029 0,0029 6,4858 0,1201 6,2115 0,2745 42489,2 1498,914 0 620,52 9897,49
 90 0 0,0036 0,0035 8,7707 0,1632 4,7463 4,023 24944,2 62306,97 0 629,99 9955,620000000001
 100 0 0,002 0,0021 3,9352 0,0514 1,9242 2,0129 10285,99 35284,53 0 636,23 9998,99
 110 0 0,0048 0,0048 10,9821 0,2149 6,7638 4,223 39711,31 131516,5 0 644,79 10053,58
 120 0 0,0015 0,0015 1,3735 0,0267 1,3744 0 11843,69 0 0 649,0700000000001 10086,68
 130 0 0,0017 0,0016 4,0268 0,0555 4,0267 0 22316,88 0 0 654,3200000000001 10114,42
 140 0 0,003 0,0029 4,2032 0,1097 3,9302 0,2729 23537,95 2318,284 0 663,35 10159,7
 150 0 0,0024 0,0024 3,3827 0,0864 3,3837 0 19384,11 0 0 670,05 10193,24
 160 0 0,0017 0,0017 5,674 0,0624 3,4781 2,1975 23700,56 72005,10000000001 0 676,87 10231,99
 170 0 0,0048 0,005 19,2936 0,2597 6,9561 12,34 2513436 436309 0 686,91 10283,67
 180 0 0,0278 0,0279 44,2505 1,1612 43,7955 0,4562 40018340 1868,618 0 691,87 10565,9
 190 0 0,044 0,044 661,3674 24,26 8,316000000000001 653,1025 5479441 84432760 0 698,95 10883,77
 200 0 0,04 0,0399 830,3022 30,9582 4,0271 826,3208 27110,81 107421200 0 707,25 10922,07
 210 0 0,0306 0,0306 368,0767 16,9517 184,4941 183,5043 23611870 23795760 0 716,95 11291,08
 220 0 0,0692 0,0692 463,1158 30,7325 460,6418 2,3752 59340300 72647,59 0 726,21 15553,34
 230 0 0,0415 0,0415 338,2181 20,0391 335,5655 2,6516 42999240 85746,46000000001 0 738,38 20523,07
 240 0 0,0025 0,0025 4,6597 0,0969 4,5691 0,09089999999999999 25316,35 1489,055 0 747,12 21695,08
 250 0 0,0018 0,0018 3,5634 0,0483 3,4713 0,0893 21504,22 4386,43 0 753,84 21734,38
 260 0 0,0017 0,0017 3,4821 0,0696 3,4859 0 19522,68 0 0 761,66 21780,03
 270 0 0,0013 0,0012 3,1153 0,0601 3,1157 0 16628,39 0 0 766,84 21811,58
 280 0 0,007 0,007 10,8797 0,2499 10,8801 0 8355431 0 0 772,9299999999999 21857,38
 290 0 0,0272 0,0272 44,0774 1,1427 43,8035 0,2749 39643300 9009,513000000001 0 778,7 22190,52
 300 0 0,1035 0,1036 540,6508 55,4616 2,7385 537,9293 21583,43 2257444 0 786,98 22449,22
 310 0 0,0917 0,0916 493,4834 49,1018 4,7509 488,7242 28905,55 2017485 0 796,73 22499,04
 320 0 0,1164 0,1164 141,5528 29,7037 136,2398 5,3139 568434,3 30373,48 0 806,8 22946,5
 330 0 0,2021 0,2021 254,9036 54,7288 254,1756 0,7326 1048065 27389,58 0 815,49 25397,26
 340 0 0,1122 0,1101 121,0547 27,1374 120,6791 0,3663 505753,5 14992,42 0 825,8200000000001 27731,77
 350 0 0,0012 0,0012 3,7449 0,0728 3,563 0,182 19445,08 1862,04 0 830,96 28121,44
 360 0 0,0025 0,0025 3,6564 0,0925 3,3815 0,274 19568,97 6751,086 0 836,59 28152,76
 370 0 0,0023 0,0023 7,7594 0,0692 3,4718 4,2858 19462,17 120858,4 0 845,89 28199,7
 380 0 0,0017 0,0017 3,5632 0,06419999999999999 3,5621 0 20743,82 0 0 853,61 28237,47
 390 0 0,0086 0,0086 16,1959 0,3849 12,8933 3,304 7413963 107842,1 0 860,83 28283,59
 400 0 0,0285 0,0285 52,9349 1,3991 43,2418 9,6905 37248920 187181,9 0 870,25 28635,12
 410 0 0,0537 0,0537 486,9059 26,5359 8,501099999999999 478,6071 3389994 1971537 0 878,96 28933,58
 420 0 0,0539 0,0539 559,0904 30,4198 2,9239 556,0826 19294,32 2278804 0 887,54 28982,33
 430 0 0,06419999999999999 0,0643 160,0873 16,6468 113,9192 46,0572 470746,4 199119,7 0 897,14 29288,84
 440 0 0,1167 0,1168 243,4833 29,5196 242,1055 1,3702 1042864 49699,16 0 905,45 31538,86
 450 0 0,0759 0,0752 147,3838 17,6617 145,6614 1,7359 608405,7 56842,2 0 918,63 33972,08
 460 0 0,0013 0,0012 2,2891 0,0285 2,2891 0 17185,38 0 0 927,91 34493,63
 470 0 0,0019 0,0019 4,7506 0,08110000000000001 4,7503 0 29532,4 0 0 935,08 34525,94
 480 0 0,0013 0,0013 2,011 0,0293 2,0128 0 10826,3 0 0 942,96 34569
 490 0 0,0015 0,0015 3,2008 0,0706 3,2003 0 17790,54 0 0 948,78 34606,57
 500 0 0,008699999999999999 0,008699999999999999 15,9976 0,362 15,9046 0,1844 10668210 12087,8 0 956,1 34658,79
 510 0 0,0287 0,0289 41,9603 1,0504 39,7729 2,0921 37325500 16478,46 0 963,84 35009,18
 520 0 0,0105 0,0105 122,701 0,9742 3,5647 119,1366 23823,32 487990,4 0 971,51 35257,37
 530 0 0,009299999999999999 0,009299999999999999 109,0731 0,9151 5,2171 103,8564 31919,42 425408,8 0 981,15 35301,85
 540 0 0,0098 0,0098 64,17740000000001 0,6667 63,9043 0,273 269284,6 8961,628000000001 0 990,34 35576,6
 550 0 0,0126 0,0126 91,33 1,0234 90,7816 0,5493 378160 17988,35 0 1000,81 36525,52
 560 0 0,0065 0,0065 20,0193 0,3739 19,5644 0,4581 93320,48 15000,01 0 1011,2 37186,07
 570 0 0,0015 0,0015 2,103 0,0368 2,103 0 10717,48 0 0 1017,68 37237,34
 580 0 0,0019 0,0019 5,7648 0,0843 4,3916 1,3749 25165,59 44684,5 0 1024,5 37272,97


