VHD 0 0,79 0,0039 0,0057 26,0642 6,0112 17284 24622
 10 1,27 0,0078 0,0079 26,0642 6,0112 17284 24622
 20 1,72 0,0105 0,02 26,0642 6,0112 17284 24622
 30 0,56 0,0042 0,0073 26,0642 6,0112 17284 24622
 40 0,14 0,0003 0,0027 26,0642 6,0112 17284 24622
 50 0,36 0,0012 0,007 26,0642 6,0112 17284 24622
 60 0,16 0 0,0046 26,0642 6,0112 17284 24622
 70 0,19 0,0001 0,0045 26,0642 6,0112 17284 24622
 80 0,4 0,0006 0,008 26,0642 6,0112 17284 24622
 90 0,38 0,0013 0,0055 26,0642 6,0112 17284 24622
 100 0,19 0,0006 0,0038 26,0642 6,0112 17284 24622
 110 0,54 0,0009 0,0082 26,0642 6,0112 17284 24622
 120 0,24 0,0002 0,0046 26,0642 6,0112 17284 24622
 130 0,36 0,0003 0,0059 26,0642 6,0112 17284 24622
 140 0,53 0,0012 0,0088 26,0642 6,0112 17284 24622
 150 0,24 0,0001 0,0041 26,0642 6,0112 17284 24622
 160 0,44 0,0003 0,0066 26,0642 6,0112 17284 24622
 170 0,5 0,0022 0,0073 26,0642 6,0112 17284 24622
 180 1,44 0,0001 0,028 26,0642 6,0112 17284 24622
 190 29 0,0374 0,1843 26,0642 6,0112 17284 24622
 200 33,18 0,0354 0,2641 26,0642 6,0112 17284 24622
 210 19,04 0,0092 0,0689 26,0642 6,0112 17284 24622
 220 33,85 0,0122 0,0796 26,0642 6,0112 17284 24622
 230 20,11 0,0193 0,0428 26,0642 6,0112 17284 24622
 240 0,28 0,0001 0,0052 26,0642 6,0112 17284 24622
 250 0,43 0,0002 0,0056 26,0642 6,0112 17284 24622
 260 0,14 0 0,004 26,0642 6,0112 17284 24622
 270 0,18 0 0,0035 26,0642 6,0112 17284 24622
 280 0,59 0,0002 0,0115 26,0642 6,0112 17284 24622
 290 1,34 0 0,0282 26,0642 6,0112 17284 24622
 300 55,24 0,0944 0,1858 26,0642 6,0112 17284 24622
 310 49,73 0,0824 0,1603 26,0642 6,0112 17284 24622
 320 25,93 0,009 0,1064 26,0642 6,0112 17284 24622
 330 38,21 0,0005 0,1452 26,0642 6,0112 17284 24622
 340 17,36 0,0005 0,0829 26,0642 6,0112 17284 24622
 350 0,29 0,0006 0,0048 26,0642 6,0112 17284 24622
 360 0,47 0,0007 0,0078 26,0642 6,0112 17284 24622
 370 0,71 0,0008 0,0108 26,0642 6,0112 17284 24622
 380 0,17 0 0,0037 26,0642 6,0112 17284 24622
 390 0,71 0,0001 0,0117 26,0642 6,0112 17284 24622
 400 1,73 0,007 0,0297 26,0642 6,0112 17284 24622
 410 28,14 0,0467 0,1542 26,0642 6,0112 17284 24622
 420 33,87 0,0654 0,2645 26,0642 6,0112 17284 24622
 430 18,42 0,021 0,1076 26,0642 6,0112 17284 24622
 440 29,51 0,002 0,1201 26,0642 6,0112 17284 24622
 450 16,99 0,0074 0,0801 26,0642 6,0112 17284 24622
 460 0,08 0 0,0026 26,0642 6,0112 17284 24622
 470 0,23 0 0,0054 26,0642 6,0112 17284 24622
 480 0,19 0,0002 0,0047 26,0642 6,0112 17284 24622
 490 0,14 0,0001 0,0033 26,0642 6,0112 17284 24622
 500 0,69 0,0002 0,0111 26,0642 6,0112 17284 24622
 510 1,59 0,0002 0,029 26,0642 6,0112 17284 24622
 520 1,12 0,0099 0,0083 26,0642 6,0112 17284 24622
 530 1,22 0,009 0,009 26,0642 6,0112 17284 24622
 540 0,94 0,0009 0,0103 26,0642 6,0112 17284 24622
 550 1,16 0,0006 0,0134 26,0642 6,0112 17284 24622
 560 0,77 0,0004 0,0097 26,0642 6,0112 17284 24622
 570 0,13 0 0,0035 26,0642 6,0112 17284 24622
 580 0,26 0,0001 0,0042 26,0642 6,0112 17284 24622
